ARM GAS  /tmp/ccxoXs8x.s 			page 1


   1              		.syntax unified
   2              		.cpu cortex-m4
   3              		.fpu softvfp
   4              		.eabi_attribute 20, 1
   5              		.eabi_attribute 21, 1
   6              		.eabi_attribute 23, 3
   7              		.eabi_attribute 24, 1
   8              		.eabi_attribute 25, 1
   9              		.eabi_attribute 26, 1
  10              		.eabi_attribute 30, 2
  11              		.eabi_attribute 34, 1
  12              		.eabi_attribute 18, 4
  13              		.thumb
  14              		.file	"chmempools.c"
  15              		.text
  16              	.Ltext0:
  17              		.cfi_sections	.debug_frame
  18              		.section	.text.chPoolInit,"ax",%progbits
  19              		.align	2
  20              		.p2align 4,,15
  21              		.global	chPoolInit
  22              		.thumb
  23              		.thumb_func
  24              		.type	chPoolInit, %function
  25              	chPoolInit:
  26              	.LFB7:
  27              		.file 1 "../ChibiOS_2.6.7_minified/os/kernel/src/chmempools.c"
  28              		.loc 1 62 0
  29              		.cfi_startproc
  30              		@ args = 0, pretend = 0, frame = 0
  31              		@ frame_needed = 0, uses_anonymous_args = 0
  32              		@ link register save eliminated.
  33              	.LVL0:
  34              		.loc 1 66 0
  35 0000 0023     		movs	r3, #0
  36              		.loc 1 67 0
  37 0002 4160     		str	r1, [r0, #4]
  38              		.loc 1 68 0
  39 0004 8260     		str	r2, [r0, #8]
  40              		.loc 1 66 0
  41 0006 0360     		str	r3, [r0]
  42 0008 7047     		bx	lr
  43              		.cfi_endproc
  44              	.LFE7:
  45              		.size	chPoolInit, .-chPoolInit
  46 000a 00BFAFF3 		.section	.text.chPoolLoadArray,"ax",%progbits
  46      0080
  47              		.align	2
  48              		.p2align 4,,15
  49              		.global	chPoolLoadArray
  50              		.thumb
  51              		.thumb_func
  52              		.type	chPoolLoadArray, %function
  53              	chPoolLoadArray:
  54              	.LFB8:
  55              		.loc 1 84 0
  56              		.cfi_startproc
ARM GAS  /tmp/ccxoXs8x.s 			page 2


  57              		@ args = 0, pretend = 0, frame = 0
  58              		@ frame_needed = 0, uses_anonymous_args = 0
  59              		@ link register save eliminated.
  60              	.LVL1:
  61              		.loc 1 88 0
  62 0000 62B1     		cbz	r2, .L2
  63              	.LVL2:
  64              	.L5:
  65              	.LBB16:
  66              	.LBB17:
  67              		.loc 1 173 0
  68 0002 2023     		movs	r3, #32
  69              	@ 173 "../ChibiOS_2.6.7_minified/os/kernel/src/chmempools.c" 1
  70 0004 83F31188 		msr     BASEPRI, r3
  71              	@ 0 "" 2
  72              	.LVL3:
  73              		.thumb
  74              	.LBE17:
  75              	.LBB18:
  76              	.LBB19:
  77              		.loc 1 155 0
  78 0008 0368     		ldr	r3, [r0]
  79 000a 0B60     		str	r3, [r1]
  80              	.LBE19:
  81              	.LBE18:
  82              	.LBB21:
  83              		.loc 1 175 0
  84 000c 0023     		movs	r3, #0
  85              	.LBE21:
  86              	.LBB22:
  87              	.LBB20:
  88              		.loc 1 156 0
  89 000e 0160     		str	r1, [r0]
  90              	.LBE20:
  91              	.LBE22:
  92              	.LBB23:
  93              		.loc 1 175 0
  94              	@ 175 "../ChibiOS_2.6.7_minified/os/kernel/src/chmempools.c" 1
  95 0010 83F31188 		msr     BASEPRI, r3
  96              	@ 0 "" 2
  97              		.thumb
  98              	.LBE23:
  99              	.LBE16:
 100              		.loc 1 90 0
 101 0014 4368     		ldr	r3, [r0, #4]
 102              		.loc 1 88 0
 103 0016 013A     		subs	r2, r2, #1
 104              	.LVL4:
 105              		.loc 1 90 0
 106 0018 1944     		add	r1, r1, r3
 107              	.LVL5:
 108              		.loc 1 88 0
 109 001a F2D1     		bne	.L5
 110              	.LVL6:
 111              	.L2:
 112 001c 7047     		bx	lr
 113              		.cfi_endproc
ARM GAS  /tmp/ccxoXs8x.s 			page 3


 114              	.LFE8:
 115              		.size	chPoolLoadArray, .-chPoolLoadArray
 116 001e 00BF     		.section	.text.chPoolAllocI,"ax",%progbits
 117              		.align	2
 118              		.p2align 4,,15
 119              		.global	chPoolAllocI
 120              		.thumb
 121              		.thumb_func
 122              		.type	chPoolAllocI, %function
 123              	chPoolAllocI:
 124              	.LFB9:
 125              		.loc 1 105 0
 126              		.cfi_startproc
 127              		@ args = 0, pretend = 0, frame = 0
 128              		@ frame_needed = 0, uses_anonymous_args = 0
 129              	.LVL7:
 130 0000 08B5     		push	{r3, lr}
 131              		.cfi_def_cfa_offset 8
 132              		.cfi_offset 3, -8
 133              		.cfi_offset 14, -4
 134              		.loc 1 105 0
 135 0002 0346     		mov	r3, r0
 136              		.loc 1 111 0
 137 0004 0068     		ldr	r0, [r0]
 138              	.LVL8:
 139 0006 10B1     		cbz	r0, .L12
 140              		.loc 1 112 0
 141 0008 0268     		ldr	r2, [r0]
 142 000a 1A60     		str	r2, [r3]
 143 000c 08BD     		pop	{r3, pc}
 144              	.LVL9:
 145              	.L12:
 146              		.loc 1 113 0
 147 000e 9A68     		ldr	r2, [r3, #8]
 148 0010 0AB1     		cbz	r2, .L13
 149              		.loc 1 114 0
 150 0012 5868     		ldr	r0, [r3, #4]
 151              	.LVL10:
 152 0014 9047     		blx	r2
 153              	.LVL11:
 154              	.L13:
 155              		.loc 1 116 0
 156 0016 08BD     		pop	{r3, pc}
 157              		.cfi_endproc
 158              	.LFE9:
 159              		.size	chPoolAllocI, .-chPoolAllocI
 160 0018 AFF30080 		.section	.text.chPoolAlloc,"ax",%progbits
 160      AFF30080 
 161              		.align	2
 162              		.p2align 4,,15
 163              		.global	chPoolAlloc
 164              		.thumb
 165              		.thumb_func
 166              		.type	chPoolAlloc, %function
 167              	chPoolAlloc:
 168              	.LFB10:
 169              		.loc 1 128 0
ARM GAS  /tmp/ccxoXs8x.s 			page 4


 170              		.cfi_startproc
 171              		@ args = 0, pretend = 0, frame = 0
 172              		@ frame_needed = 0, uses_anonymous_args = 0
 173              	.LVL12:
 174 0000 08B5     		push	{r3, lr}
 175              		.cfi_def_cfa_offset 8
 176              		.cfi_offset 3, -8
 177              		.cfi_offset 14, -4
 178              		.loc 1 128 0
 179 0002 0246     		mov	r2, r0
 180              	.LBB24:
 181              		.loc 1 131 0
 182 0004 2023     		movs	r3, #32
 183              	@ 131 "../ChibiOS_2.6.7_minified/os/kernel/src/chmempools.c" 1
 184 0006 83F31188 		msr     BASEPRI, r3
 185              	@ 0 "" 2
 186              	.LVL13:
 187              		.thumb
 188              	.LBE24:
 189              	.LBB25:
 190              	.LBB26:
 191              		.loc 1 111 0
 192 000a 0068     		ldr	r0, [r0]
 193              	.LVL14:
 194 000c 28B1     		cbz	r0, .L18
 195              		.loc 1 112 0
 196 000e 0368     		ldr	r3, [r0]
 197 0010 1360     		str	r3, [r2]
 198              	.L19:
 199              	.LBE26:
 200              	.LBE25:
 201              	.LBB28:
 202              		.loc 1 133 0
 203 0012 0023     		movs	r3, #0
 204              	@ 133 "../ChibiOS_2.6.7_minified/os/kernel/src/chmempools.c" 1
 205 0014 83F31188 		msr     BASEPRI, r3
 206              	@ 0 "" 2
 207              		.thumb
 208              	.LBE28:
 209              		.loc 1 135 0
 210 0018 08BD     		pop	{r3, pc}
 211              	.L18:
 212              	.LBB29:
 213              	.LBB27:
 214              		.loc 1 113 0
 215 001a 9368     		ldr	r3, [r2, #8]
 216 001c 002B     		cmp	r3, #0
 217 001e F8D0     		beq	.L19
 218              		.loc 1 114 0
 219 0020 5068     		ldr	r0, [r2, #4]
 220              	.LVL15:
 221 0022 9847     		blx	r3
 222              	.LVL16:
 223              	.LBE27:
 224              	.LBE29:
 225              	.LBB30:
 226              		.loc 1 133 0
ARM GAS  /tmp/ccxoXs8x.s 			page 5


 227 0024 0023     		movs	r3, #0
 228              	@ 133 "../ChibiOS_2.6.7_minified/os/kernel/src/chmempools.c" 1
 229 0026 83F31188 		msr     BASEPRI, r3
 230              	@ 0 "" 2
 231              		.thumb
 232              	.LBE30:
 233              		.loc 1 135 0
 234 002a 08BD     		pop	{r3, pc}
 235              		.cfi_endproc
 236              	.LFE10:
 237              		.size	chPoolAlloc, .-chPoolAlloc
 238 002c AFF30080 		.section	.text.chPoolFreeI,"ax",%progbits
 239              		.align	2
 240              		.p2align 4,,15
 241              		.global	chPoolFreeI
 242              		.thumb
 243              		.thumb_func
 244              		.type	chPoolFreeI, %function
 245              	chPoolFreeI:
 246              	.LFB11:
 247              		.loc 1 149 0
 248              		.cfi_startproc
 249              		@ args = 0, pretend = 0, frame = 0
 250              		@ frame_needed = 0, uses_anonymous_args = 0
 251              		@ link register save eliminated.
 252              	.LVL17:
 253              		.loc 1 155 0
 254 0000 0368     		ldr	r3, [r0]
 255 0002 0B60     		str	r3, [r1]
 256              		.loc 1 156 0
 257 0004 0160     		str	r1, [r0]
 258 0006 7047     		bx	lr
 259              		.cfi_endproc
 260              	.LFE11:
 261              		.size	chPoolFreeI, .-chPoolFreeI
 262 0008 AFF30080 		.section	.text.chPoolFree,"ax",%progbits
 262      AFF30080 
 263              		.align	2
 264              		.p2align 4,,15
 265              		.global	chPoolFree
 266              		.thumb
 267              		.thumb_func
 268              		.type	chPoolFree, %function
 269              	chPoolFree:
 270              	.LFB12:
 271              		.loc 1 171 0
 272              		.cfi_startproc
 273              		@ args = 0, pretend = 0, frame = 0
 274              		@ frame_needed = 0, uses_anonymous_args = 0
 275              		@ link register save eliminated.
 276              	.LVL18:
 277              	.LBB31:
 278              		.loc 1 173 0
 279 0000 2023     		movs	r3, #32
 280              	@ 173 "../ChibiOS_2.6.7_minified/os/kernel/src/chmempools.c" 1
 281 0002 83F31188 		msr     BASEPRI, r3
 282              	@ 0 "" 2
ARM GAS  /tmp/ccxoXs8x.s 			page 6


 283              	.LVL19:
 284              		.thumb
 285              	.LBE31:
 286              	.LBB32:
 287              	.LBB33:
 288              		.loc 1 155 0
 289 0006 0368     		ldr	r3, [r0]
 290 0008 0B60     		str	r3, [r1]
 291              	.LBE33:
 292              	.LBE32:
 293              	.LBB35:
 294              		.loc 1 175 0
 295 000a 0023     		movs	r3, #0
 296              	.LBE35:
 297              	.LBB36:
 298              	.LBB34:
 299              		.loc 1 156 0
 300 000c 0160     		str	r1, [r0]
 301              	.LBE34:
 302              	.LBE36:
 303              	.LBB37:
 304              		.loc 1 175 0
 305              	@ 175 "../ChibiOS_2.6.7_minified/os/kernel/src/chmempools.c" 1
 306 000e 83F31188 		msr     BASEPRI, r3
 307              	@ 0 "" 2
 308              		.thumb
 309 0012 7047     		bx	lr
 310              	.LBE37:
 311              		.cfi_endproc
 312              	.LFE12:
 313              		.size	chPoolFree, .-chPoolFree
 314 0014 AFF30080 		.text
 314      AFF30080 
 314      AFF30080 
 315              	.Letext0:
 316              		.file 2 "/usr/lib/gcc/arm-none-eabi/4.8.4/include/stddef.h"
 317              		.file 3 "/usr/arm-none-eabi/include/machine/_default_types.h"
 318              		.file 4 "/usr/arm-none-eabi/include/stdint.h"
 319              		.file 5 "../ChibiOS_2.6.7_minified/os/kernel/include/chmemcore.h"
 320              		.file 6 "../ChibiOS_2.6.7_minified/os/kernel/include/chmempools.h"
 321              		.section	.debug_info,"",%progbits
 322              	.Ldebug_info0:
 323 0000 04040000 		.4byte	0x404
 324 0004 0400     		.2byte	0x4
 325 0006 00000000 		.4byte	.Ldebug_abbrev0
 326 000a 04       		.byte	0x4
 327 000b 01       		.uleb128 0x1
 328 000c 11000000 		.4byte	.LASF30
 329 0010 01       		.byte	0x1
 330 0011 51020000 		.4byte	.LASF31
 331 0015 54010000 		.4byte	.LASF32
 332 0019 90000000 		.4byte	.Ldebug_ranges0+0x90
 333 001d 00000000 		.4byte	0
 334 0021 00000000 		.4byte	.Ldebug_line0
 335 0025 02       		.uleb128 0x2
 336 0026 04       		.byte	0x4
 337 0027 05       		.byte	0x5
ARM GAS  /tmp/ccxoXs8x.s 			page 7


 338 0028 696E7400 		.ascii	"int\000"
 339 002c 03       		.uleb128 0x3
 340 002d 0A000000 		.4byte	.LASF2
 341 0031 02       		.byte	0x2
 342 0032 D4       		.byte	0xd4
 343 0033 37000000 		.4byte	0x37
 344 0037 04       		.uleb128 0x4
 345 0038 04       		.byte	0x4
 346 0039 07       		.byte	0x7
 347 003a D2010000 		.4byte	.LASF0
 348 003e 04       		.uleb128 0x4
 349 003f 01       		.byte	0x1
 350 0040 06       		.byte	0x6
 351 0041 98020000 		.4byte	.LASF1
 352 0045 03       		.uleb128 0x3
 353 0046 00000000 		.4byte	.LASF3
 354 004a 03       		.byte	0x3
 355 004b 1C       		.byte	0x1c
 356 004c 50000000 		.4byte	0x50
 357 0050 04       		.uleb128 0x4
 358 0051 01       		.byte	0x1
 359 0052 08       		.byte	0x8
 360 0053 91010000 		.4byte	.LASF4
 361 0057 04       		.uleb128 0x4
 362 0058 02       		.byte	0x2
 363 0059 05       		.byte	0x5
 364 005a 3B020000 		.4byte	.LASF5
 365 005e 04       		.uleb128 0x4
 366 005f 02       		.byte	0x2
 367 0060 07       		.byte	0x7
 368 0061 38010000 		.4byte	.LASF6
 369 0065 04       		.uleb128 0x4
 370 0066 04       		.byte	0x4
 371 0067 05       		.byte	0x5
 372 0068 8F020000 		.4byte	.LASF7
 373 006c 03       		.uleb128 0x3
 374 006d 9F010000 		.4byte	.LASF8
 375 0071 03       		.byte	0x3
 376 0072 38       		.byte	0x38
 377 0073 77000000 		.4byte	0x77
 378 0077 04       		.uleb128 0x4
 379 0078 04       		.byte	0x4
 380 0079 07       		.byte	0x7
 381 007a 26010000 		.4byte	.LASF9
 382 007e 04       		.uleb128 0x4
 383 007f 08       		.byte	0x8
 384 0080 05       		.byte	0x5
 385 0081 0F020000 		.4byte	.LASF10
 386 0085 04       		.uleb128 0x4
 387 0086 08       		.byte	0x8
 388 0087 07       		.byte	0x7
 389 0088 DF010000 		.4byte	.LASF11
 390 008c 03       		.uleb128 0x3
 391 008d F6010000 		.4byte	.LASF12
 392 0091 04       		.byte	0x4
 393 0092 2A       		.byte	0x2a
 394 0093 45000000 		.4byte	0x45
ARM GAS  /tmp/ccxoXs8x.s 			page 8


 395 0097 03       		.uleb128 0x3
 396 0098 86020000 		.4byte	.LASF13
 397 009c 04       		.byte	0x4
 398 009d 42       		.byte	0x42
 399 009e 6C000000 		.4byte	0x6c
 400 00a2 04       		.uleb128 0x4
 401 00a3 01       		.byte	0x1
 402 00a4 02       		.byte	0x2
 403 00a5 AC020000 		.4byte	.LASF14
 404 00a9 05       		.uleb128 0x5
 405 00aa 04       		.byte	0x4
 406 00ab 04       		.uleb128 0x4
 407 00ac 04       		.byte	0x4
 408 00ad 07       		.byte	0x7
 409 00ae 06020000 		.4byte	.LASF15
 410 00b2 03       		.uleb128 0x3
 411 00b3 22020000 		.4byte	.LASF16
 412 00b7 05       		.byte	0x5
 413 00b8 2C       		.byte	0x2c
 414 00b9 BD000000 		.4byte	0xbd
 415 00bd 06       		.uleb128 0x6
 416 00be 04       		.byte	0x4
 417 00bf C3000000 		.4byte	0xc3
 418 00c3 07       		.uleb128 0x7
 419 00c4 A9000000 		.4byte	0xa9
 420 00c8 D2000000 		.4byte	0xd2
 421 00cc 08       		.uleb128 0x8
 422 00cd 2C000000 		.4byte	0x2c
 423 00d1 00       		.byte	0
 424 00d2 09       		.uleb128 0x9
 425 00d3 15010000 		.4byte	.LASF33
 426 00d7 04       		.byte	0x4
 427 00d8 06       		.byte	0x6
 428 00d9 2C       		.byte	0x2c
 429 00da EB000000 		.4byte	0xeb
 430 00de 0A       		.uleb128 0xa
 431 00df FE010000 		.4byte	.LASF17
 432 00e3 06       		.byte	0x6
 433 00e4 2D       		.byte	0x2d
 434 00e5 EB000000 		.4byte	0xeb
 435 00e9 00       		.byte	0
 436 00ea 00       		.byte	0
 437 00eb 06       		.uleb128 0x6
 438 00ec 04       		.byte	0x4
 439 00ed D2000000 		.4byte	0xd2
 440 00f1 0B       		.uleb128 0xb
 441 00f2 0C       		.byte	0xc
 442 00f3 06       		.byte	0x6
 443 00f4 34       		.byte	0x34
 444 00f5 1E010000 		.4byte	0x11e
 445 00f9 0A       		.uleb128 0xa
 446 00fa A4020000 		.4byte	.LASF18
 447 00fe 06       		.byte	0x6
 448 00ff 35       		.byte	0x35
 449 0100 EB000000 		.4byte	0xeb
 450 0104 00       		.byte	0
 451 0105 0A       		.uleb128 0xa
ARM GAS  /tmp/ccxoXs8x.s 			page 9


 452 0106 F6000000 		.4byte	.LASF19
 453 010a 06       		.byte	0x6
 454 010b 36       		.byte	0x36
 455 010c 2C000000 		.4byte	0x2c
 456 0110 04       		.byte	0x4
 457 0111 0A       		.uleb128 0xa
 458 0112 2F020000 		.4byte	.LASF20
 459 0116 06       		.byte	0x6
 460 0117 38       		.byte	0x38
 461 0118 B2000000 		.4byte	0xb2
 462 011c 08       		.byte	0x8
 463 011d 00       		.byte	0
 464 011e 03       		.uleb128 0x3
 465 011f B5010000 		.4byte	.LASF21
 466 0123 06       		.byte	0x6
 467 0124 3A       		.byte	0x3a
 468 0125 F1000000 		.4byte	0xf1
 469 0129 04       		.uleb128 0x4
 470 012a 01       		.byte	0x1
 471 012b 08       		.byte	0x8
 472 012c 1D020000 		.4byte	.LASF22
 473 0130 0C       		.uleb128 0xc
 474 0131 C5010000 		.4byte	.LASF34
 475 0135 01       		.byte	0x1
 476 0136 69       		.byte	0x69
 477 0137 A9000000 		.4byte	0xa9
 478 013b 01       		.byte	0x1
 479 013c 56010000 		.4byte	0x156
 480 0140 0D       		.uleb128 0xd
 481 0141 6D7000   		.ascii	"mp\000"
 482 0144 01       		.byte	0x1
 483 0145 69       		.byte	0x69
 484 0146 56010000 		.4byte	0x156
 485 014a 0E       		.uleb128 0xe
 486 014b C0010000 		.4byte	.LASF23
 487 014f 01       		.byte	0x1
 488 0150 6A       		.byte	0x6a
 489 0151 A9000000 		.4byte	0xa9
 490 0155 00       		.byte	0
 491 0156 06       		.uleb128 0x6
 492 0157 04       		.byte	0x4
 493 0158 1E010000 		.4byte	0x11e
 494 015c 0F       		.uleb128 0xf
 495 015d 85010000 		.4byte	.LASF24
 496 0161 01       		.byte	0x1
 497 0162 95       		.byte	0x95
 498 0163 01       		.byte	0x1
 499 0164 89010000 		.4byte	0x189
 500 0168 0D       		.uleb128 0xd
 501 0169 6D7000   		.ascii	"mp\000"
 502 016c 01       		.byte	0x1
 503 016d 95       		.byte	0x95
 504 016e 56010000 		.4byte	0x156
 505 0172 10       		.uleb128 0x10
 506 0173 C0010000 		.4byte	.LASF23
 507 0177 01       		.byte	0x1
 508 0178 95       		.byte	0x95
ARM GAS  /tmp/ccxoXs8x.s 			page 10


 509 0179 A9000000 		.4byte	0xa9
 510 017d 11       		.uleb128 0x11
 511 017e 70687000 		.ascii	"php\000"
 512 0182 01       		.byte	0x1
 513 0183 96       		.byte	0x96
 514 0184 EB000000 		.4byte	0xeb
 515 0188 00       		.byte	0
 516 0189 0F       		.uleb128 0xf
 517 018a AA010000 		.4byte	.LASF25
 518 018e 01       		.byte	0x1
 519 018f AB       		.byte	0xab
 520 0190 01       		.byte	0x1
 521 0191 C9010000 		.4byte	0x1c9
 522 0195 0D       		.uleb128 0xd
 523 0196 6D7000   		.ascii	"mp\000"
 524 0199 01       		.byte	0x1
 525 019a AB       		.byte	0xab
 526 019b 56010000 		.4byte	0x156
 527 019f 10       		.uleb128 0x10
 528 01a0 C0010000 		.4byte	.LASF23
 529 01a4 01       		.byte	0x1
 530 01a5 AB       		.byte	0xab
 531 01a6 A9000000 		.4byte	0xa9
 532 01aa 12       		.uleb128 0x12
 533 01ab BB010000 		.4byte	0x1bb
 534 01af 11       		.uleb128 0x11
 535 01b0 746D7000 		.ascii	"tmp\000"
 536 01b4 01       		.byte	0x1
 537 01b5 AD       		.byte	0xad
 538 01b6 97000000 		.4byte	0x97
 539 01ba 00       		.byte	0
 540 01bb 13       		.uleb128 0x13
 541 01bc 11       		.uleb128 0x11
 542 01bd 746D7000 		.ascii	"tmp\000"
 543 01c1 01       		.byte	0x1
 544 01c2 AF       		.byte	0xaf
 545 01c3 97000000 		.4byte	0x97
 546 01c7 00       		.byte	0
 547 01c8 00       		.byte	0
 548 01c9 14       		.uleb128 0x14
 549 01ca B2020000 		.4byte	.LASF28
 550 01ce 01       		.byte	0x1
 551 01cf 3E       		.byte	0x3e
 552 01d0 00000000 		.4byte	.LFB7
 553 01d4 0A000000 		.4byte	.LFE7-.LFB7
 554 01d8 01       		.uleb128 0x1
 555 01d9 9C       		.byte	0x9c
 556 01da 05020000 		.4byte	0x205
 557 01de 15       		.uleb128 0x15
 558 01df 6D7000   		.ascii	"mp\000"
 559 01e2 01       		.byte	0x1
 560 01e3 3E       		.byte	0x3e
 561 01e4 56010000 		.4byte	0x156
 562 01e8 01       		.uleb128 0x1
 563 01e9 50       		.byte	0x50
 564 01ea 16       		.uleb128 0x16
 565 01eb 21010000 		.4byte	.LASF26
ARM GAS  /tmp/ccxoXs8x.s 			page 11


 566 01ef 01       		.byte	0x1
 567 01f0 3E       		.byte	0x3e
 568 01f1 2C000000 		.4byte	0x2c
 569 01f5 01       		.uleb128 0x1
 570 01f6 51       		.byte	0x51
 571 01f7 16       		.uleb128 0x16
 572 01f8 4B010000 		.4byte	.LASF27
 573 01fc 01       		.byte	0x1
 574 01fd 3E       		.byte	0x3e
 575 01fe B2000000 		.4byte	0xb2
 576 0202 01       		.uleb128 0x1
 577 0203 52       		.byte	0x52
 578 0204 00       		.byte	0
 579 0205 14       		.uleb128 0x14
 580 0206 05010000 		.4byte	.LASF29
 581 020a 01       		.byte	0x1
 582 020b 54       		.byte	0x54
 583 020c 00000000 		.4byte	.LFB8
 584 0210 1E000000 		.4byte	.LFE8-.LFB8
 585 0214 01       		.uleb128 0x1
 586 0215 9C       		.byte	0x9c
 587 0216 BA020000 		.4byte	0x2ba
 588 021a 15       		.uleb128 0x15
 589 021b 6D7000   		.ascii	"mp\000"
 590 021e 01       		.byte	0x1
 591 021f 54       		.byte	0x54
 592 0220 56010000 		.4byte	0x156
 593 0224 01       		.uleb128 0x1
 594 0225 50       		.byte	0x50
 595 0226 17       		.uleb128 0x17
 596 0227 7000     		.ascii	"p\000"
 597 0229 01       		.byte	0x1
 598 022a 54       		.byte	0x54
 599 022b A9000000 		.4byte	0xa9
 600 022f 00000000 		.4byte	.LLST0
 601 0233 17       		.uleb128 0x17
 602 0234 6E00     		.ascii	"n\000"
 603 0236 01       		.byte	0x1
 604 0237 54       		.byte	0x54
 605 0238 2C000000 		.4byte	0x2c
 606 023c 1E000000 		.4byte	.LLST1
 607 0240 18       		.uleb128 0x18
 608 0241 89010000 		.4byte	0x189
 609 0245 02000000 		.4byte	.LBB16
 610 0249 12000000 		.4byte	.LBE16-.LBB16
 611 024d 01       		.byte	0x1
 612 024e 59       		.byte	0x59
 613 024f 19       		.uleb128 0x19
 614 0250 9F010000 		.4byte	0x19f
 615 0254 49000000 		.4byte	.LLST2
 616 0258 19       		.uleb128 0x19
 617 0259 95010000 		.4byte	0x195
 618 025d 68000000 		.4byte	.LLST3
 619 0261 1A       		.uleb128 0x1a
 620 0262 02000000 		.4byte	.LBB17
 621 0266 06000000 		.4byte	.LBE17-.LBB17
 622 026a 76020000 		.4byte	0x276
ARM GAS  /tmp/ccxoXs8x.s 			page 12


 623 026e 1B       		.uleb128 0x1b
 624 026f AF010000 		.4byte	0x1af
 625 0273 01       		.uleb128 0x1
 626 0274 53       		.byte	0x53
 627 0275 00       		.byte	0
 628 0276 1C       		.uleb128 0x1c
 629 0277 5C010000 		.4byte	0x15c
 630 027b 08000000 		.4byte	.LBB18
 631 027f 00000000 		.4byte	.Ldebug_ranges0+0
 632 0283 01       		.byte	0x1
 633 0284 AE       		.byte	0xae
 634 0285 AB020000 		.4byte	0x2ab
 635 0289 19       		.uleb128 0x19
 636 028a 72010000 		.4byte	0x172
 637 028e 7B000000 		.4byte	.LLST4
 638 0292 19       		.uleb128 0x19
 639 0293 68010000 		.4byte	0x168
 640 0297 9A000000 		.4byte	.LLST5
 641 029b 1D       		.uleb128 0x1d
 642 029c 00000000 		.4byte	.Ldebug_ranges0+0
 643 02a0 1E       		.uleb128 0x1e
 644 02a1 7D010000 		.4byte	0x17d
 645 02a5 7B000000 		.4byte	.LLST4
 646 02a9 00       		.byte	0
 647 02aa 00       		.byte	0
 648 02ab 1D       		.uleb128 0x1d
 649 02ac 18000000 		.4byte	.Ldebug_ranges0+0x18
 650 02b0 1B       		.uleb128 0x1b
 651 02b1 BC010000 		.4byte	0x1bc
 652 02b5 01       		.uleb128 0x1
 653 02b6 53       		.byte	0x53
 654 02b7 00       		.byte	0
 655 02b8 00       		.byte	0
 656 02b9 00       		.byte	0
 657 02ba 1F       		.uleb128 0x1f
 658 02bb 30010000 		.4byte	0x130
 659 02bf 00000000 		.4byte	.LFB9
 660 02c3 18000000 		.4byte	.LFE9-.LFB9
 661 02c7 01       		.uleb128 0x1
 662 02c8 9C       		.byte	0x9c
 663 02c9 E0020000 		.4byte	0x2e0
 664 02cd 19       		.uleb128 0x19
 665 02ce 40010000 		.4byte	0x140
 666 02d2 AD000000 		.4byte	.LLST7
 667 02d6 1E       		.uleb128 0x1e
 668 02d7 4A010000 		.4byte	0x14a
 669 02db D9000000 		.4byte	.LLST8
 670 02df 00       		.byte	0
 671 02e0 20       		.uleb128 0x20
 672 02e1 45020000 		.4byte	.LASF35
 673 02e5 01       		.byte	0x1
 674 02e6 80       		.byte	0x80
 675 02e7 A9000000 		.4byte	0xa9
 676 02eb 00000000 		.4byte	.LFB10
 677 02ef 2C000000 		.4byte	.LFE10-.LFB10
 678 02f3 01       		.uleb128 0x1
 679 02f4 9C       		.byte	0x9c
ARM GAS  /tmp/ccxoXs8x.s 			page 13


 680 02f5 6F030000 		.4byte	0x36f
 681 02f9 17       		.uleb128 0x17
 682 02fa 6D7000   		.ascii	"mp\000"
 683 02fd 01       		.byte	0x1
 684 02fe 80       		.byte	0x80
 685 02ff 56010000 		.4byte	0x156
 686 0303 03010000 		.4byte	.LLST9
 687 0307 21       		.uleb128 0x21
 688 0308 C0010000 		.4byte	.LASF23
 689 030c 01       		.byte	0x1
 690 030d 81       		.byte	0x81
 691 030e A9000000 		.4byte	0xa9
 692 0312 01       		.uleb128 0x1
 693 0313 50       		.byte	0x50
 694 0314 1A       		.uleb128 0x1a
 695 0315 04000000 		.4byte	.LBB24
 696 0319 06000000 		.4byte	.LBE24-.LBB24
 697 031d 2F030000 		.4byte	0x32f
 698 0321 22       		.uleb128 0x22
 699 0322 746D7000 		.ascii	"tmp\000"
 700 0326 01       		.byte	0x1
 701 0327 83       		.byte	0x83
 702 0328 97000000 		.4byte	0x97
 703 032c 01       		.uleb128 0x1
 704 032d 53       		.byte	0x53
 705 032e 00       		.byte	0
 706 032f 1C       		.uleb128 0x1c
 707 0330 30010000 		.4byte	0x130
 708 0334 0A000000 		.4byte	.LBB25
 709 0338 30000000 		.4byte	.Ldebug_ranges0+0x30
 710 033c 01       		.byte	0x1
 711 033d 84       		.byte	0x84
 712 033e 5B030000 		.4byte	0x35b
 713 0342 19       		.uleb128 0x19
 714 0343 40010000 		.4byte	0x140
 715 0347 2F010000 		.4byte	.LLST10
 716 034b 1D       		.uleb128 0x1d
 717 034c 30000000 		.4byte	.Ldebug_ranges0+0x30
 718 0350 1E       		.uleb128 0x1e
 719 0351 4A010000 		.4byte	0x14a
 720 0355 5B010000 		.4byte	.LLST11
 721 0359 00       		.byte	0
 722 035a 00       		.byte	0
 723 035b 1D       		.uleb128 0x1d
 724 035c 48000000 		.4byte	.Ldebug_ranges0+0x48
 725 0360 22       		.uleb128 0x22
 726 0361 746D7000 		.ascii	"tmp\000"
 727 0365 01       		.byte	0x1
 728 0366 85       		.byte	0x85
 729 0367 97000000 		.4byte	0x97
 730 036b 01       		.uleb128 0x1
 731 036c 53       		.byte	0x53
 732 036d 00       		.byte	0
 733 036e 00       		.byte	0
 734 036f 23       		.uleb128 0x23
 735 0370 5C010000 		.4byte	0x15c
 736 0374 00000000 		.4byte	.LFB11
ARM GAS  /tmp/ccxoXs8x.s 			page 14


 737 0378 08000000 		.4byte	.LFE11-.LFB11
 738 037c 01       		.uleb128 0x1
 739 037d 9C       		.byte	0x9c
 740 037e 98030000 		.4byte	0x398
 741 0382 24       		.uleb128 0x24
 742 0383 68010000 		.4byte	0x168
 743 0387 01       		.uleb128 0x1
 744 0388 50       		.byte	0x50
 745 0389 24       		.uleb128 0x24
 746 038a 72010000 		.4byte	0x172
 747 038e 01       		.uleb128 0x1
 748 038f 51       		.byte	0x51
 749 0390 1B       		.uleb128 0x1b
 750 0391 7D010000 		.4byte	0x17d
 751 0395 01       		.uleb128 0x1
 752 0396 51       		.byte	0x51
 753 0397 00       		.byte	0
 754 0398 25       		.uleb128 0x25
 755 0399 89010000 		.4byte	0x189
 756 039d 00000000 		.4byte	.LFB12
 757 03a1 14000000 		.4byte	.LFE12-.LFB12
 758 03a5 01       		.uleb128 0x1
 759 03a6 9C       		.byte	0x9c
 760 03a7 24       		.uleb128 0x24
 761 03a8 95010000 		.4byte	0x195
 762 03ac 01       		.uleb128 0x1
 763 03ad 50       		.byte	0x50
 764 03ae 24       		.uleb128 0x24
 765 03af 9F010000 		.4byte	0x19f
 766 03b3 01       		.uleb128 0x1
 767 03b4 51       		.byte	0x51
 768 03b5 1A       		.uleb128 0x1a
 769 03b6 00000000 		.4byte	.LBB31
 770 03ba 06000000 		.4byte	.LBE31-.LBB31
 771 03be CA030000 		.4byte	0x3ca
 772 03c2 1B       		.uleb128 0x1b
 773 03c3 AF010000 		.4byte	0x1af
 774 03c7 01       		.uleb128 0x1
 775 03c8 53       		.byte	0x53
 776 03c9 00       		.byte	0
 777 03ca 1C       		.uleb128 0x1c
 778 03cb 5C010000 		.4byte	0x15c
 779 03cf 06000000 		.4byte	.LBB32
 780 03d3 60000000 		.4byte	.Ldebug_ranges0+0x60
 781 03d7 01       		.byte	0x1
 782 03d8 AE       		.byte	0xae
 783 03d9 F9030000 		.4byte	0x3f9
 784 03dd 24       		.uleb128 0x24
 785 03de 72010000 		.4byte	0x172
 786 03e2 01       		.uleb128 0x1
 787 03e3 51       		.byte	0x51
 788 03e4 24       		.uleb128 0x24
 789 03e5 68010000 		.4byte	0x168
 790 03e9 01       		.uleb128 0x1
 791 03ea 50       		.byte	0x50
 792 03eb 1D       		.uleb128 0x1d
 793 03ec 60000000 		.4byte	.Ldebug_ranges0+0x60
ARM GAS  /tmp/ccxoXs8x.s 			page 15


 794 03f0 1B       		.uleb128 0x1b
 795 03f1 7D010000 		.4byte	0x17d
 796 03f5 01       		.uleb128 0x1
 797 03f6 51       		.byte	0x51
 798 03f7 00       		.byte	0
 799 03f8 00       		.byte	0
 800 03f9 1D       		.uleb128 0x1d
 801 03fa 78000000 		.4byte	.Ldebug_ranges0+0x78
 802 03fe 1B       		.uleb128 0x1b
 803 03ff BC010000 		.4byte	0x1bc
 804 0403 01       		.uleb128 0x1
 805 0404 53       		.byte	0x53
 806 0405 00       		.byte	0
 807 0406 00       		.byte	0
 808 0407 00       		.byte	0
 809              		.section	.debug_abbrev,"",%progbits
 810              	.Ldebug_abbrev0:
 811 0000 01       		.uleb128 0x1
 812 0001 11       		.uleb128 0x11
 813 0002 01       		.byte	0x1
 814 0003 25       		.uleb128 0x25
 815 0004 0E       		.uleb128 0xe
 816 0005 13       		.uleb128 0x13
 817 0006 0B       		.uleb128 0xb
 818 0007 03       		.uleb128 0x3
 819 0008 0E       		.uleb128 0xe
 820 0009 1B       		.uleb128 0x1b
 821 000a 0E       		.uleb128 0xe
 822 000b 55       		.uleb128 0x55
 823 000c 17       		.uleb128 0x17
 824 000d 11       		.uleb128 0x11
 825 000e 01       		.uleb128 0x1
 826 000f 10       		.uleb128 0x10
 827 0010 17       		.uleb128 0x17
 828 0011 00       		.byte	0
 829 0012 00       		.byte	0
 830 0013 02       		.uleb128 0x2
 831 0014 24       		.uleb128 0x24
 832 0015 00       		.byte	0
 833 0016 0B       		.uleb128 0xb
 834 0017 0B       		.uleb128 0xb
 835 0018 3E       		.uleb128 0x3e
 836 0019 0B       		.uleb128 0xb
 837 001a 03       		.uleb128 0x3
 838 001b 08       		.uleb128 0x8
 839 001c 00       		.byte	0
 840 001d 00       		.byte	0
 841 001e 03       		.uleb128 0x3
 842 001f 16       		.uleb128 0x16
 843 0020 00       		.byte	0
 844 0021 03       		.uleb128 0x3
 845 0022 0E       		.uleb128 0xe
 846 0023 3A       		.uleb128 0x3a
 847 0024 0B       		.uleb128 0xb
 848 0025 3B       		.uleb128 0x3b
 849 0026 0B       		.uleb128 0xb
 850 0027 49       		.uleb128 0x49
ARM GAS  /tmp/ccxoXs8x.s 			page 16


 851 0028 13       		.uleb128 0x13
 852 0029 00       		.byte	0
 853 002a 00       		.byte	0
 854 002b 04       		.uleb128 0x4
 855 002c 24       		.uleb128 0x24
 856 002d 00       		.byte	0
 857 002e 0B       		.uleb128 0xb
 858 002f 0B       		.uleb128 0xb
 859 0030 3E       		.uleb128 0x3e
 860 0031 0B       		.uleb128 0xb
 861 0032 03       		.uleb128 0x3
 862 0033 0E       		.uleb128 0xe
 863 0034 00       		.byte	0
 864 0035 00       		.byte	0
 865 0036 05       		.uleb128 0x5
 866 0037 0F       		.uleb128 0xf
 867 0038 00       		.byte	0
 868 0039 0B       		.uleb128 0xb
 869 003a 0B       		.uleb128 0xb
 870 003b 00       		.byte	0
 871 003c 00       		.byte	0
 872 003d 06       		.uleb128 0x6
 873 003e 0F       		.uleb128 0xf
 874 003f 00       		.byte	0
 875 0040 0B       		.uleb128 0xb
 876 0041 0B       		.uleb128 0xb
 877 0042 49       		.uleb128 0x49
 878 0043 13       		.uleb128 0x13
 879 0044 00       		.byte	0
 880 0045 00       		.byte	0
 881 0046 07       		.uleb128 0x7
 882 0047 15       		.uleb128 0x15
 883 0048 01       		.byte	0x1
 884 0049 27       		.uleb128 0x27
 885 004a 19       		.uleb128 0x19
 886 004b 49       		.uleb128 0x49
 887 004c 13       		.uleb128 0x13
 888 004d 01       		.uleb128 0x1
 889 004e 13       		.uleb128 0x13
 890 004f 00       		.byte	0
 891 0050 00       		.byte	0
 892 0051 08       		.uleb128 0x8
 893 0052 05       		.uleb128 0x5
 894 0053 00       		.byte	0
 895 0054 49       		.uleb128 0x49
 896 0055 13       		.uleb128 0x13
 897 0056 00       		.byte	0
 898 0057 00       		.byte	0
 899 0058 09       		.uleb128 0x9
 900 0059 13       		.uleb128 0x13
 901 005a 01       		.byte	0x1
 902 005b 03       		.uleb128 0x3
 903 005c 0E       		.uleb128 0xe
 904 005d 0B       		.uleb128 0xb
 905 005e 0B       		.uleb128 0xb
 906 005f 3A       		.uleb128 0x3a
 907 0060 0B       		.uleb128 0xb
ARM GAS  /tmp/ccxoXs8x.s 			page 17


 908 0061 3B       		.uleb128 0x3b
 909 0062 0B       		.uleb128 0xb
 910 0063 01       		.uleb128 0x1
 911 0064 13       		.uleb128 0x13
 912 0065 00       		.byte	0
 913 0066 00       		.byte	0
 914 0067 0A       		.uleb128 0xa
 915 0068 0D       		.uleb128 0xd
 916 0069 00       		.byte	0
 917 006a 03       		.uleb128 0x3
 918 006b 0E       		.uleb128 0xe
 919 006c 3A       		.uleb128 0x3a
 920 006d 0B       		.uleb128 0xb
 921 006e 3B       		.uleb128 0x3b
 922 006f 0B       		.uleb128 0xb
 923 0070 49       		.uleb128 0x49
 924 0071 13       		.uleb128 0x13
 925 0072 38       		.uleb128 0x38
 926 0073 0B       		.uleb128 0xb
 927 0074 00       		.byte	0
 928 0075 00       		.byte	0
 929 0076 0B       		.uleb128 0xb
 930 0077 13       		.uleb128 0x13
 931 0078 01       		.byte	0x1
 932 0079 0B       		.uleb128 0xb
 933 007a 0B       		.uleb128 0xb
 934 007b 3A       		.uleb128 0x3a
 935 007c 0B       		.uleb128 0xb
 936 007d 3B       		.uleb128 0x3b
 937 007e 0B       		.uleb128 0xb
 938 007f 01       		.uleb128 0x1
 939 0080 13       		.uleb128 0x13
 940 0081 00       		.byte	0
 941 0082 00       		.byte	0
 942 0083 0C       		.uleb128 0xc
 943 0084 2E       		.uleb128 0x2e
 944 0085 01       		.byte	0x1
 945 0086 3F       		.uleb128 0x3f
 946 0087 19       		.uleb128 0x19
 947 0088 03       		.uleb128 0x3
 948 0089 0E       		.uleb128 0xe
 949 008a 3A       		.uleb128 0x3a
 950 008b 0B       		.uleb128 0xb
 951 008c 3B       		.uleb128 0x3b
 952 008d 0B       		.uleb128 0xb
 953 008e 27       		.uleb128 0x27
 954 008f 19       		.uleb128 0x19
 955 0090 49       		.uleb128 0x49
 956 0091 13       		.uleb128 0x13
 957 0092 20       		.uleb128 0x20
 958 0093 0B       		.uleb128 0xb
 959 0094 01       		.uleb128 0x1
 960 0095 13       		.uleb128 0x13
 961 0096 00       		.byte	0
 962 0097 00       		.byte	0
 963 0098 0D       		.uleb128 0xd
 964 0099 05       		.uleb128 0x5
ARM GAS  /tmp/ccxoXs8x.s 			page 18


 965 009a 00       		.byte	0
 966 009b 03       		.uleb128 0x3
 967 009c 08       		.uleb128 0x8
 968 009d 3A       		.uleb128 0x3a
 969 009e 0B       		.uleb128 0xb
 970 009f 3B       		.uleb128 0x3b
 971 00a0 0B       		.uleb128 0xb
 972 00a1 49       		.uleb128 0x49
 973 00a2 13       		.uleb128 0x13
 974 00a3 00       		.byte	0
 975 00a4 00       		.byte	0
 976 00a5 0E       		.uleb128 0xe
 977 00a6 34       		.uleb128 0x34
 978 00a7 00       		.byte	0
 979 00a8 03       		.uleb128 0x3
 980 00a9 0E       		.uleb128 0xe
 981 00aa 3A       		.uleb128 0x3a
 982 00ab 0B       		.uleb128 0xb
 983 00ac 3B       		.uleb128 0x3b
 984 00ad 0B       		.uleb128 0xb
 985 00ae 49       		.uleb128 0x49
 986 00af 13       		.uleb128 0x13
 987 00b0 00       		.byte	0
 988 00b1 00       		.byte	0
 989 00b2 0F       		.uleb128 0xf
 990 00b3 2E       		.uleb128 0x2e
 991 00b4 01       		.byte	0x1
 992 00b5 3F       		.uleb128 0x3f
 993 00b6 19       		.uleb128 0x19
 994 00b7 03       		.uleb128 0x3
 995 00b8 0E       		.uleb128 0xe
 996 00b9 3A       		.uleb128 0x3a
 997 00ba 0B       		.uleb128 0xb
 998 00bb 3B       		.uleb128 0x3b
 999 00bc 0B       		.uleb128 0xb
 1000 00bd 27       		.uleb128 0x27
 1001 00be 19       		.uleb128 0x19
 1002 00bf 20       		.uleb128 0x20
 1003 00c0 0B       		.uleb128 0xb
 1004 00c1 01       		.uleb128 0x1
 1005 00c2 13       		.uleb128 0x13
 1006 00c3 00       		.byte	0
 1007 00c4 00       		.byte	0
 1008 00c5 10       		.uleb128 0x10
 1009 00c6 05       		.uleb128 0x5
 1010 00c7 00       		.byte	0
 1011 00c8 03       		.uleb128 0x3
 1012 00c9 0E       		.uleb128 0xe
 1013 00ca 3A       		.uleb128 0x3a
 1014 00cb 0B       		.uleb128 0xb
 1015 00cc 3B       		.uleb128 0x3b
 1016 00cd 0B       		.uleb128 0xb
 1017 00ce 49       		.uleb128 0x49
 1018 00cf 13       		.uleb128 0x13
 1019 00d0 00       		.byte	0
 1020 00d1 00       		.byte	0
 1021 00d2 11       		.uleb128 0x11
ARM GAS  /tmp/ccxoXs8x.s 			page 19


 1022 00d3 34       		.uleb128 0x34
 1023 00d4 00       		.byte	0
 1024 00d5 03       		.uleb128 0x3
 1025 00d6 08       		.uleb128 0x8
 1026 00d7 3A       		.uleb128 0x3a
 1027 00d8 0B       		.uleb128 0xb
 1028 00d9 3B       		.uleb128 0x3b
 1029 00da 0B       		.uleb128 0xb
 1030 00db 49       		.uleb128 0x49
 1031 00dc 13       		.uleb128 0x13
 1032 00dd 00       		.byte	0
 1033 00de 00       		.byte	0
 1034 00df 12       		.uleb128 0x12
 1035 00e0 0B       		.uleb128 0xb
 1036 00e1 01       		.byte	0x1
 1037 00e2 01       		.uleb128 0x1
 1038 00e3 13       		.uleb128 0x13
 1039 00e4 00       		.byte	0
 1040 00e5 00       		.byte	0
 1041 00e6 13       		.uleb128 0x13
 1042 00e7 0B       		.uleb128 0xb
 1043 00e8 01       		.byte	0x1
 1044 00e9 00       		.byte	0
 1045 00ea 00       		.byte	0
 1046 00eb 14       		.uleb128 0x14
 1047 00ec 2E       		.uleb128 0x2e
 1048 00ed 01       		.byte	0x1
 1049 00ee 3F       		.uleb128 0x3f
 1050 00ef 19       		.uleb128 0x19
 1051 00f0 03       		.uleb128 0x3
 1052 00f1 0E       		.uleb128 0xe
 1053 00f2 3A       		.uleb128 0x3a
 1054 00f3 0B       		.uleb128 0xb
 1055 00f4 3B       		.uleb128 0x3b
 1056 00f5 0B       		.uleb128 0xb
 1057 00f6 27       		.uleb128 0x27
 1058 00f7 19       		.uleb128 0x19
 1059 00f8 11       		.uleb128 0x11
 1060 00f9 01       		.uleb128 0x1
 1061 00fa 12       		.uleb128 0x12
 1062 00fb 06       		.uleb128 0x6
 1063 00fc 40       		.uleb128 0x40
 1064 00fd 18       		.uleb128 0x18
 1065 00fe 9742     		.uleb128 0x2117
 1066 0100 19       		.uleb128 0x19
 1067 0101 01       		.uleb128 0x1
 1068 0102 13       		.uleb128 0x13
 1069 0103 00       		.byte	0
 1070 0104 00       		.byte	0
 1071 0105 15       		.uleb128 0x15
 1072 0106 05       		.uleb128 0x5
 1073 0107 00       		.byte	0
 1074 0108 03       		.uleb128 0x3
 1075 0109 08       		.uleb128 0x8
 1076 010a 3A       		.uleb128 0x3a
 1077 010b 0B       		.uleb128 0xb
 1078 010c 3B       		.uleb128 0x3b
ARM GAS  /tmp/ccxoXs8x.s 			page 20


 1079 010d 0B       		.uleb128 0xb
 1080 010e 49       		.uleb128 0x49
 1081 010f 13       		.uleb128 0x13
 1082 0110 02       		.uleb128 0x2
 1083 0111 18       		.uleb128 0x18
 1084 0112 00       		.byte	0
 1085 0113 00       		.byte	0
 1086 0114 16       		.uleb128 0x16
 1087 0115 05       		.uleb128 0x5
 1088 0116 00       		.byte	0
 1089 0117 03       		.uleb128 0x3
 1090 0118 0E       		.uleb128 0xe
 1091 0119 3A       		.uleb128 0x3a
 1092 011a 0B       		.uleb128 0xb
 1093 011b 3B       		.uleb128 0x3b
 1094 011c 0B       		.uleb128 0xb
 1095 011d 49       		.uleb128 0x49
 1096 011e 13       		.uleb128 0x13
 1097 011f 02       		.uleb128 0x2
 1098 0120 18       		.uleb128 0x18
 1099 0121 00       		.byte	0
 1100 0122 00       		.byte	0
 1101 0123 17       		.uleb128 0x17
 1102 0124 05       		.uleb128 0x5
 1103 0125 00       		.byte	0
 1104 0126 03       		.uleb128 0x3
 1105 0127 08       		.uleb128 0x8
 1106 0128 3A       		.uleb128 0x3a
 1107 0129 0B       		.uleb128 0xb
 1108 012a 3B       		.uleb128 0x3b
 1109 012b 0B       		.uleb128 0xb
 1110 012c 49       		.uleb128 0x49
 1111 012d 13       		.uleb128 0x13
 1112 012e 02       		.uleb128 0x2
 1113 012f 17       		.uleb128 0x17
 1114 0130 00       		.byte	0
 1115 0131 00       		.byte	0
 1116 0132 18       		.uleb128 0x18
 1117 0133 1D       		.uleb128 0x1d
 1118 0134 01       		.byte	0x1
 1119 0135 31       		.uleb128 0x31
 1120 0136 13       		.uleb128 0x13
 1121 0137 11       		.uleb128 0x11
 1122 0138 01       		.uleb128 0x1
 1123 0139 12       		.uleb128 0x12
 1124 013a 06       		.uleb128 0x6
 1125 013b 58       		.uleb128 0x58
 1126 013c 0B       		.uleb128 0xb
 1127 013d 59       		.uleb128 0x59
 1128 013e 0B       		.uleb128 0xb
 1129 013f 00       		.byte	0
 1130 0140 00       		.byte	0
 1131 0141 19       		.uleb128 0x19
 1132 0142 05       		.uleb128 0x5
 1133 0143 00       		.byte	0
 1134 0144 31       		.uleb128 0x31
 1135 0145 13       		.uleb128 0x13
ARM GAS  /tmp/ccxoXs8x.s 			page 21


 1136 0146 02       		.uleb128 0x2
 1137 0147 17       		.uleb128 0x17
 1138 0148 00       		.byte	0
 1139 0149 00       		.byte	0
 1140 014a 1A       		.uleb128 0x1a
 1141 014b 0B       		.uleb128 0xb
 1142 014c 01       		.byte	0x1
 1143 014d 11       		.uleb128 0x11
 1144 014e 01       		.uleb128 0x1
 1145 014f 12       		.uleb128 0x12
 1146 0150 06       		.uleb128 0x6
 1147 0151 01       		.uleb128 0x1
 1148 0152 13       		.uleb128 0x13
 1149 0153 00       		.byte	0
 1150 0154 00       		.byte	0
 1151 0155 1B       		.uleb128 0x1b
 1152 0156 34       		.uleb128 0x34
 1153 0157 00       		.byte	0
 1154 0158 31       		.uleb128 0x31
 1155 0159 13       		.uleb128 0x13
 1156 015a 02       		.uleb128 0x2
 1157 015b 18       		.uleb128 0x18
 1158 015c 00       		.byte	0
 1159 015d 00       		.byte	0
 1160 015e 1C       		.uleb128 0x1c
 1161 015f 1D       		.uleb128 0x1d
 1162 0160 01       		.byte	0x1
 1163 0161 31       		.uleb128 0x31
 1164 0162 13       		.uleb128 0x13
 1165 0163 52       		.uleb128 0x52
 1166 0164 01       		.uleb128 0x1
 1167 0165 55       		.uleb128 0x55
 1168 0166 17       		.uleb128 0x17
 1169 0167 58       		.uleb128 0x58
 1170 0168 0B       		.uleb128 0xb
 1171 0169 59       		.uleb128 0x59
 1172 016a 0B       		.uleb128 0xb
 1173 016b 01       		.uleb128 0x1
 1174 016c 13       		.uleb128 0x13
 1175 016d 00       		.byte	0
 1176 016e 00       		.byte	0
 1177 016f 1D       		.uleb128 0x1d
 1178 0170 0B       		.uleb128 0xb
 1179 0171 01       		.byte	0x1
 1180 0172 55       		.uleb128 0x55
 1181 0173 17       		.uleb128 0x17
 1182 0174 00       		.byte	0
 1183 0175 00       		.byte	0
 1184 0176 1E       		.uleb128 0x1e
 1185 0177 34       		.uleb128 0x34
 1186 0178 00       		.byte	0
 1187 0179 31       		.uleb128 0x31
 1188 017a 13       		.uleb128 0x13
 1189 017b 02       		.uleb128 0x2
 1190 017c 17       		.uleb128 0x17
 1191 017d 00       		.byte	0
 1192 017e 00       		.byte	0
ARM GAS  /tmp/ccxoXs8x.s 			page 22


 1193 017f 1F       		.uleb128 0x1f
 1194 0180 2E       		.uleb128 0x2e
 1195 0181 01       		.byte	0x1
 1196 0182 31       		.uleb128 0x31
 1197 0183 13       		.uleb128 0x13
 1198 0184 11       		.uleb128 0x11
 1199 0185 01       		.uleb128 0x1
 1200 0186 12       		.uleb128 0x12
 1201 0187 06       		.uleb128 0x6
 1202 0188 40       		.uleb128 0x40
 1203 0189 18       		.uleb128 0x18
 1204 018a 9642     		.uleb128 0x2116
 1205 018c 19       		.uleb128 0x19
 1206 018d 01       		.uleb128 0x1
 1207 018e 13       		.uleb128 0x13
 1208 018f 00       		.byte	0
 1209 0190 00       		.byte	0
 1210 0191 20       		.uleb128 0x20
 1211 0192 2E       		.uleb128 0x2e
 1212 0193 01       		.byte	0x1
 1213 0194 3F       		.uleb128 0x3f
 1214 0195 19       		.uleb128 0x19
 1215 0196 03       		.uleb128 0x3
 1216 0197 0E       		.uleb128 0xe
 1217 0198 3A       		.uleb128 0x3a
 1218 0199 0B       		.uleb128 0xb
 1219 019a 3B       		.uleb128 0x3b
 1220 019b 0B       		.uleb128 0xb
 1221 019c 27       		.uleb128 0x27
 1222 019d 19       		.uleb128 0x19
 1223 019e 49       		.uleb128 0x49
 1224 019f 13       		.uleb128 0x13
 1225 01a0 11       		.uleb128 0x11
 1226 01a1 01       		.uleb128 0x1
 1227 01a2 12       		.uleb128 0x12
 1228 01a3 06       		.uleb128 0x6
 1229 01a4 40       		.uleb128 0x40
 1230 01a5 18       		.uleb128 0x18
 1231 01a6 9642     		.uleb128 0x2116
 1232 01a8 19       		.uleb128 0x19
 1233 01a9 01       		.uleb128 0x1
 1234 01aa 13       		.uleb128 0x13
 1235 01ab 00       		.byte	0
 1236 01ac 00       		.byte	0
 1237 01ad 21       		.uleb128 0x21
 1238 01ae 34       		.uleb128 0x34
 1239 01af 00       		.byte	0
 1240 01b0 03       		.uleb128 0x3
 1241 01b1 0E       		.uleb128 0xe
 1242 01b2 3A       		.uleb128 0x3a
 1243 01b3 0B       		.uleb128 0xb
 1244 01b4 3B       		.uleb128 0x3b
 1245 01b5 0B       		.uleb128 0xb
 1246 01b6 49       		.uleb128 0x49
 1247 01b7 13       		.uleb128 0x13
 1248 01b8 02       		.uleb128 0x2
 1249 01b9 18       		.uleb128 0x18
ARM GAS  /tmp/ccxoXs8x.s 			page 23


 1250 01ba 00       		.byte	0
 1251 01bb 00       		.byte	0
 1252 01bc 22       		.uleb128 0x22
 1253 01bd 34       		.uleb128 0x34
 1254 01be 00       		.byte	0
 1255 01bf 03       		.uleb128 0x3
 1256 01c0 08       		.uleb128 0x8
 1257 01c1 3A       		.uleb128 0x3a
 1258 01c2 0B       		.uleb128 0xb
 1259 01c3 3B       		.uleb128 0x3b
 1260 01c4 0B       		.uleb128 0xb
 1261 01c5 49       		.uleb128 0x49
 1262 01c6 13       		.uleb128 0x13
 1263 01c7 02       		.uleb128 0x2
 1264 01c8 18       		.uleb128 0x18
 1265 01c9 00       		.byte	0
 1266 01ca 00       		.byte	0
 1267 01cb 23       		.uleb128 0x23
 1268 01cc 2E       		.uleb128 0x2e
 1269 01cd 01       		.byte	0x1
 1270 01ce 31       		.uleb128 0x31
 1271 01cf 13       		.uleb128 0x13
 1272 01d0 11       		.uleb128 0x11
 1273 01d1 01       		.uleb128 0x1
 1274 01d2 12       		.uleb128 0x12
 1275 01d3 06       		.uleb128 0x6
 1276 01d4 40       		.uleb128 0x40
 1277 01d5 18       		.uleb128 0x18
 1278 01d6 9742     		.uleb128 0x2117
 1279 01d8 19       		.uleb128 0x19
 1280 01d9 01       		.uleb128 0x1
 1281 01da 13       		.uleb128 0x13
 1282 01db 00       		.byte	0
 1283 01dc 00       		.byte	0
 1284 01dd 24       		.uleb128 0x24
 1285 01de 05       		.uleb128 0x5
 1286 01df 00       		.byte	0
 1287 01e0 31       		.uleb128 0x31
 1288 01e1 13       		.uleb128 0x13
 1289 01e2 02       		.uleb128 0x2
 1290 01e3 18       		.uleb128 0x18
 1291 01e4 00       		.byte	0
 1292 01e5 00       		.byte	0
 1293 01e6 25       		.uleb128 0x25
 1294 01e7 2E       		.uleb128 0x2e
 1295 01e8 01       		.byte	0x1
 1296 01e9 31       		.uleb128 0x31
 1297 01ea 13       		.uleb128 0x13
 1298 01eb 11       		.uleb128 0x11
 1299 01ec 01       		.uleb128 0x1
 1300 01ed 12       		.uleb128 0x12
 1301 01ee 06       		.uleb128 0x6
 1302 01ef 40       		.uleb128 0x40
 1303 01f0 18       		.uleb128 0x18
 1304 01f1 9742     		.uleb128 0x2117
 1305 01f3 19       		.uleb128 0x19
 1306 01f4 00       		.byte	0
ARM GAS  /tmp/ccxoXs8x.s 			page 24


 1307 01f5 00       		.byte	0
 1308 01f6 00       		.byte	0
 1309              		.section	.debug_loc,"",%progbits
 1310              	.Ldebug_loc0:
 1311              	.LLST0:
 1312 0000 00000000 		.4byte	.LVL1
 1313 0004 1A000000 		.4byte	.LVL5
 1314 0008 0100     		.2byte	0x1
 1315 000a 51       		.byte	0x51
 1316 000b 1A000000 		.4byte	.LVL5
 1317 000f 1E000000 		.4byte	.LFE8
 1318 0013 0100     		.2byte	0x1
 1319 0015 51       		.byte	0x51
 1320 0016 00000000 		.4byte	0
 1321 001a 00000000 		.4byte	0
 1322              	.LLST1:
 1323 001e 00000000 		.4byte	.LVL1
 1324 0022 02000000 		.4byte	.LVL2
 1325 0026 0100     		.2byte	0x1
 1326 0028 52       		.byte	0x52
 1327 0029 02000000 		.4byte	.LVL2
 1328 002d 18000000 		.4byte	.LVL4
 1329 0031 0100     		.2byte	0x1
 1330 0033 52       		.byte	0x52
 1331 0034 18000000 		.4byte	.LVL4
 1332 0038 1A000000 		.4byte	.LVL5
 1333 003c 0300     		.2byte	0x3
 1334 003e 72       		.byte	0x72
 1335 003f 01       		.sleb128 1
 1336 0040 9F       		.byte	0x9f
 1337 0041 00000000 		.4byte	0
 1338 0045 00000000 		.4byte	0
 1339              	.LLST2:
 1340 0049 02000000 		.4byte	.LVL2
 1341 004d 1A000000 		.4byte	.LVL5
 1342 0051 0100     		.2byte	0x1
 1343 0053 51       		.byte	0x51
 1344 0054 1A000000 		.4byte	.LVL5
 1345 0058 1C000000 		.4byte	.LVL6
 1346 005c 0200     		.2byte	0x2
 1347 005e 70       		.byte	0x70
 1348 005f 00       		.sleb128 0
 1349 0060 00000000 		.4byte	0
 1350 0064 00000000 		.4byte	0
 1351              	.LLST3:
 1352 0068 02000000 		.4byte	.LVL2
 1353 006c 1C000000 		.4byte	.LVL6
 1354 0070 0100     		.2byte	0x1
 1355 0072 50       		.byte	0x50
 1356 0073 00000000 		.4byte	0
 1357 0077 00000000 		.4byte	0
 1358              	.LLST4:
 1359 007b 08000000 		.4byte	.LVL3
 1360 007f 1A000000 		.4byte	.LVL5
 1361 0083 0100     		.2byte	0x1
 1362 0085 51       		.byte	0x51
 1363 0086 1A000000 		.4byte	.LVL5
ARM GAS  /tmp/ccxoXs8x.s 			page 25


 1364 008a 1C000000 		.4byte	.LVL6
 1365 008e 0200     		.2byte	0x2
 1366 0090 70       		.byte	0x70
 1367 0091 00       		.sleb128 0
 1368 0092 00000000 		.4byte	0
 1369 0096 00000000 		.4byte	0
 1370              	.LLST5:
 1371 009a 08000000 		.4byte	.LVL3
 1372 009e 1C000000 		.4byte	.LVL6
 1373 00a2 0100     		.2byte	0x1
 1374 00a4 50       		.byte	0x50
 1375 00a5 00000000 		.4byte	0
 1376 00a9 00000000 		.4byte	0
 1377              	.LLST7:
 1378 00ad 00000000 		.4byte	.LVL7
 1379 00b1 06000000 		.4byte	.LVL8
 1380 00b5 0100     		.2byte	0x1
 1381 00b7 50       		.byte	0x50
 1382 00b8 06000000 		.4byte	.LVL8
 1383 00bc 15000000 		.4byte	.LVL11-1
 1384 00c0 0100     		.2byte	0x1
 1385 00c2 53       		.byte	0x53
 1386 00c3 15000000 		.4byte	.LVL11-1
 1387 00c7 18000000 		.4byte	.LFE9
 1388 00cb 0400     		.2byte	0x4
 1389 00cd F3       		.byte	0xf3
 1390 00ce 01       		.uleb128 0x1
 1391 00cf 50       		.byte	0x50
 1392 00d0 9F       		.byte	0x9f
 1393 00d1 00000000 		.4byte	0
 1394 00d5 00000000 		.4byte	0
 1395              	.LLST8:
 1396 00d9 06000000 		.4byte	.LVL8
 1397 00dd 14000000 		.4byte	.LVL10
 1398 00e1 0100     		.2byte	0x1
 1399 00e3 50       		.byte	0x50
 1400 00e4 14000000 		.4byte	.LVL10
 1401 00e8 15000000 		.4byte	.LVL11-1
 1402 00ec 0200     		.2byte	0x2
 1403 00ee 73       		.byte	0x73
 1404 00ef 00       		.sleb128 0
 1405 00f0 16000000 		.4byte	.LVL11
 1406 00f4 18000000 		.4byte	.LFE9
 1407 00f8 0100     		.2byte	0x1
 1408 00fa 50       		.byte	0x50
 1409 00fb 00000000 		.4byte	0
 1410 00ff 00000000 		.4byte	0
 1411              	.LLST9:
 1412 0103 00000000 		.4byte	.LVL12
 1413 0107 0C000000 		.4byte	.LVL14
 1414 010b 0100     		.2byte	0x1
 1415 010d 50       		.byte	0x50
 1416 010e 0C000000 		.4byte	.LVL14
 1417 0112 23000000 		.4byte	.LVL16-1
 1418 0116 0100     		.2byte	0x1
 1419 0118 52       		.byte	0x52
 1420 0119 23000000 		.4byte	.LVL16-1
ARM GAS  /tmp/ccxoXs8x.s 			page 26


 1421 011d 2C000000 		.4byte	.LFE10
 1422 0121 0400     		.2byte	0x4
 1423 0123 F3       		.byte	0xf3
 1424 0124 01       		.uleb128 0x1
 1425 0125 50       		.byte	0x50
 1426 0126 9F       		.byte	0x9f
 1427 0127 00000000 		.4byte	0
 1428 012b 00000000 		.4byte	0
 1429              	.LLST10:
 1430 012f 0A000000 		.4byte	.LVL13
 1431 0133 0C000000 		.4byte	.LVL14
 1432 0137 0100     		.2byte	0x1
 1433 0139 50       		.byte	0x50
 1434 013a 0C000000 		.4byte	.LVL14
 1435 013e 23000000 		.4byte	.LVL16-1
 1436 0142 0100     		.2byte	0x1
 1437 0144 52       		.byte	0x52
 1438 0145 23000000 		.4byte	.LVL16-1
 1439 0149 2C000000 		.4byte	.LFE10
 1440 014d 0400     		.2byte	0x4
 1441 014f F3       		.byte	0xf3
 1442 0150 01       		.uleb128 0x1
 1443 0151 50       		.byte	0x50
 1444 0152 9F       		.byte	0x9f
 1445 0153 00000000 		.4byte	0
 1446 0157 00000000 		.4byte	0
 1447              	.LLST11:
 1448 015b 0C000000 		.4byte	.LVL14
 1449 015f 22000000 		.4byte	.LVL15
 1450 0163 0100     		.2byte	0x1
 1451 0165 50       		.byte	0x50
 1452 0166 22000000 		.4byte	.LVL15
 1453 016a 23000000 		.4byte	.LVL16-1
 1454 016e 0200     		.2byte	0x2
 1455 0170 72       		.byte	0x72
 1456 0171 00       		.sleb128 0
 1457 0172 24000000 		.4byte	.LVL16
 1458 0176 2C000000 		.4byte	.LFE10
 1459 017a 0100     		.2byte	0x1
 1460 017c 50       		.byte	0x50
 1461 017d 00000000 		.4byte	0
 1462 0181 00000000 		.4byte	0
 1463              		.section	.debug_aranges,"",%progbits
 1464 0000 44000000 		.4byte	0x44
 1465 0004 0200     		.2byte	0x2
 1466 0006 00000000 		.4byte	.Ldebug_info0
 1467 000a 04       		.byte	0x4
 1468 000b 00       		.byte	0
 1469 000c 0000     		.2byte	0
 1470 000e 0000     		.2byte	0
 1471 0010 00000000 		.4byte	.LFB7
 1472 0014 0A000000 		.4byte	.LFE7-.LFB7
 1473 0018 00000000 		.4byte	.LFB8
 1474 001c 1E000000 		.4byte	.LFE8-.LFB8
 1475 0020 00000000 		.4byte	.LFB9
 1476 0024 18000000 		.4byte	.LFE9-.LFB9
 1477 0028 00000000 		.4byte	.LFB10
ARM GAS  /tmp/ccxoXs8x.s 			page 27


 1478 002c 2C000000 		.4byte	.LFE10-.LFB10
 1479 0030 00000000 		.4byte	.LFB11
 1480 0034 08000000 		.4byte	.LFE11-.LFB11
 1481 0038 00000000 		.4byte	.LFB12
 1482 003c 14000000 		.4byte	.LFE12-.LFB12
 1483 0040 00000000 		.4byte	0
 1484 0044 00000000 		.4byte	0
 1485              		.section	.debug_ranges,"",%progbits
 1486              	.Ldebug_ranges0:
 1487 0000 08000000 		.4byte	.LBB18
 1488 0004 0C000000 		.4byte	.LBE18
 1489 0008 0E000000 		.4byte	.LBB22
 1490 000c 10000000 		.4byte	.LBE22
 1491 0010 00000000 		.4byte	0
 1492 0014 00000000 		.4byte	0
 1493 0018 0C000000 		.4byte	.LBB21
 1494 001c 0E000000 		.4byte	.LBE21
 1495 0020 10000000 		.4byte	.LBB23
 1496 0024 14000000 		.4byte	.LBE23
 1497 0028 00000000 		.4byte	0
 1498 002c 00000000 		.4byte	0
 1499 0030 0A000000 		.4byte	.LBB25
 1500 0034 12000000 		.4byte	.LBE25
 1501 0038 1A000000 		.4byte	.LBB29
 1502 003c 24000000 		.4byte	.LBE29
 1503 0040 00000000 		.4byte	0
 1504 0044 00000000 		.4byte	0
 1505 0048 12000000 		.4byte	.LBB28
 1506 004c 18000000 		.4byte	.LBE28
 1507 0050 24000000 		.4byte	.LBB30
 1508 0054 2A000000 		.4byte	.LBE30
 1509 0058 00000000 		.4byte	0
 1510 005c 00000000 		.4byte	0
 1511 0060 06000000 		.4byte	.LBB32
 1512 0064 0A000000 		.4byte	.LBE32
 1513 0068 0C000000 		.4byte	.LBB36
 1514 006c 0E000000 		.4byte	.LBE36
 1515 0070 00000000 		.4byte	0
 1516 0074 00000000 		.4byte	0
 1517 0078 0A000000 		.4byte	.LBB35
 1518 007c 0C000000 		.4byte	.LBE35
 1519 0080 0E000000 		.4byte	.LBB37
 1520 0084 14000000 		.4byte	.LBE37
 1521 0088 00000000 		.4byte	0
 1522 008c 00000000 		.4byte	0
 1523 0090 00000000 		.4byte	.LFB7
 1524 0094 0A000000 		.4byte	.LFE7
 1525 0098 00000000 		.4byte	.LFB8
 1526 009c 1E000000 		.4byte	.LFE8
 1527 00a0 00000000 		.4byte	.LFB9
 1528 00a4 18000000 		.4byte	.LFE9
 1529 00a8 00000000 		.4byte	.LFB10
 1530 00ac 2C000000 		.4byte	.LFE10
 1531 00b0 00000000 		.4byte	.LFB11
 1532 00b4 08000000 		.4byte	.LFE11
 1533 00b8 00000000 		.4byte	.LFB12
 1534 00bc 14000000 		.4byte	.LFE12
ARM GAS  /tmp/ccxoXs8x.s 			page 28


 1535 00c0 00000000 		.4byte	0
 1536 00c4 00000000 		.4byte	0
 1537              		.section	.debug_line,"",%progbits
 1538              	.Ldebug_line0:
 1539 0000 D1010000 		.section	.debug_str,"MS",%progbits,1
 1539      02002901 
 1539      00000201 
 1539      FB0E0D00 
 1539      01010101 
 1540              	.LASF3:
 1541 0000 5F5F7569 		.ascii	"__uint8_t\000"
 1541      6E74385F 
 1541      7400
 1542              	.LASF2:
 1543 000a 73697A65 		.ascii	"size_t\000"
 1543      5F7400
 1544              	.LASF30:
 1545 0011 474E5520 		.ascii	"GNU C 4.8.4 20140526 (release) [ARM/embedded-4_8-br"
 1545      4320342E 
 1545      382E3420 
 1545      32303134 
 1545      30353236 
 1546 0044 616E6368 		.ascii	"anch revision 211358] -mcpu=cortex-m4 -mno-thumb-in"
 1546      20726576 
 1546      6973696F 
 1546      6E203231 
 1546      31333538 
 1547 0077 74657277 		.ascii	"terwork -mthumb -ggdb -O2 -std=gnu99 -fomit-frame-p"
 1547      6F726B20 
 1547      2D6D7468 
 1547      756D6220 
 1547      2D676764 
 1548 00aa 6F696E74 		.ascii	"ointer -falign-functions=16 -ffunction-sections -fd"
 1548      6572202D 
 1548      66616C69 
 1548      676E2D66 
 1548      756E6374 
 1549 00dd 6174612D 		.ascii	"ata-sections -fno-common\000"
 1549      73656374 
 1549      696F6E73 
 1549      202D666E 
 1549      6F2D636F 
 1550              	.LASF19:
 1551 00f6 6D705F6F 		.ascii	"mp_object_size\000"
 1551      626A6563 
 1551      745F7369 
 1551      7A6500
 1552              	.LASF29:
 1553 0105 6368506F 		.ascii	"chPoolLoadArray\000"
 1553      6F6C4C6F 
 1553      61644172 
 1553      72617900 
 1554              	.LASF33:
 1555 0115 706F6F6C 		.ascii	"pool_header\000"
 1555      5F686561 
 1555      64657200 
 1556              	.LASF26:
ARM GAS  /tmp/ccxoXs8x.s 			page 29


 1557 0121 73697A65 		.ascii	"size\000"
 1557      00
 1558              	.LASF9:
 1559 0126 6C6F6E67 		.ascii	"long unsigned int\000"
 1559      20756E73 
 1559      69676E65 
 1559      6420696E 
 1559      7400
 1560              	.LASF6:
 1561 0138 73686F72 		.ascii	"short unsigned int\000"
 1561      7420756E 
 1561      7369676E 
 1561      65642069 
 1561      6E7400
 1562              	.LASF27:
 1563 014b 70726F76 		.ascii	"provider\000"
 1563      69646572 
 1563      00
 1564              	.LASF32:
 1565 0154 2F686F6D 		.ascii	"/home/terence/el6483-cyh316/6-rtos/rtos-priority\000"
 1565      652F7465 
 1565      72656E63 
 1565      652F656C 
 1565      36343833 
 1566              	.LASF24:
 1567 0185 6368506F 		.ascii	"chPoolFreeI\000"
 1567      6F6C4672 
 1567      65654900 
 1568              	.LASF4:
 1569 0191 756E7369 		.ascii	"unsigned char\000"
 1569      676E6564 
 1569      20636861 
 1569      7200
 1570              	.LASF8:
 1571 019f 5F5F7569 		.ascii	"__uint32_t\000"
 1571      6E743332 
 1571      5F7400
 1572              	.LASF25:
 1573 01aa 6368506F 		.ascii	"chPoolFree\000"
 1573      6F6C4672 
 1573      656500
 1574              	.LASF21:
 1575 01b5 4D656D6F 		.ascii	"MemoryPool\000"
 1575      7279506F 
 1575      6F6C00
 1576              	.LASF23:
 1577 01c0 6F626A70 		.ascii	"objp\000"
 1577      00
 1578              	.LASF34:
 1579 01c5 6368506F 		.ascii	"chPoolAllocI\000"
 1579      6F6C416C 
 1579      6C6F6349 
 1579      00
 1580              	.LASF0:
 1581 01d2 756E7369 		.ascii	"unsigned int\000"
 1581      676E6564 
 1581      20696E74 
ARM GAS  /tmp/ccxoXs8x.s 			page 30


 1581      00
 1582              	.LASF11:
 1583 01df 6C6F6E67 		.ascii	"long long unsigned int\000"
 1583      206C6F6E 
 1583      6720756E 
 1583      7369676E 
 1583      65642069 
 1584              	.LASF12:
 1585 01f6 75696E74 		.ascii	"uint8_t\000"
 1585      385F7400 
 1586              	.LASF17:
 1587 01fe 70685F6E 		.ascii	"ph_next\000"
 1587      65787400 
 1588              	.LASF15:
 1589 0206 73697A65 		.ascii	"sizetype\000"
 1589      74797065 
 1589      00
 1590              	.LASF10:
 1591 020f 6C6F6E67 		.ascii	"long long int\000"
 1591      206C6F6E 
 1591      6720696E 
 1591      7400
 1592              	.LASF22:
 1593 021d 63686172 		.ascii	"char\000"
 1593      00
 1594              	.LASF16:
 1595 0222 6D656D67 		.ascii	"memgetfunc_t\000"
 1595      65746675 
 1595      6E635F74 
 1595      00
 1596              	.LASF20:
 1597 022f 6D705F70 		.ascii	"mp_provider\000"
 1597      726F7669 
 1597      64657200 
 1598              	.LASF5:
 1599 023b 73686F72 		.ascii	"short int\000"
 1599      7420696E 
 1599      7400
 1600              	.LASF35:
 1601 0245 6368506F 		.ascii	"chPoolAlloc\000"
 1601      6F6C416C 
 1601      6C6F6300 
 1602              	.LASF31:
 1603 0251 2E2E2F43 		.ascii	"../ChibiOS_2.6.7_minified/os/kernel/src/chmempools."
 1603      68696269 
 1603      4F535F32 
 1603      2E362E37 
 1603      5F6D696E 
 1604 0284 6300     		.ascii	"c\000"
 1605              	.LASF13:
 1606 0286 75696E74 		.ascii	"uint32_t\000"
 1606      33325F74 
 1606      00
 1607              	.LASF7:
 1608 028f 6C6F6E67 		.ascii	"long int\000"
 1608      20696E74 
 1608      00
ARM GAS  /tmp/ccxoXs8x.s 			page 31


 1609              	.LASF1:
 1610 0298 7369676E 		.ascii	"signed char\000"
 1610      65642063 
 1610      68617200 
 1611              	.LASF18:
 1612 02a4 6D705F6E 		.ascii	"mp_next\000"
 1612      65787400 
 1613              	.LASF14:
 1614 02ac 5F426F6F 		.ascii	"_Bool\000"
 1614      6C00
 1615              	.LASF28:
 1616 02b2 6368506F 		.ascii	"chPoolInit\000"
 1616      6F6C496E 
 1616      697400
 1617              		.ident	"GCC: (GNU Tools for ARM Embedded Processors) 4.8.4 20140526 (release) [ARM/embedded-4_8-br
ARM GAS  /tmp/ccxoXs8x.s 			page 32


DEFINED SYMBOLS
                            *ABS*:0000000000000000 chmempools.c
     /tmp/ccxoXs8x.s:19     .text.chPoolInit:0000000000000000 $t
     /tmp/ccxoXs8x.s:25     .text.chPoolInit:0000000000000000 chPoolInit
     /tmp/ccxoXs8x.s:47     .text.chPoolLoadArray:0000000000000000 $t
     /tmp/ccxoXs8x.s:53     .text.chPoolLoadArray:0000000000000000 chPoolLoadArray
     /tmp/ccxoXs8x.s:117    .text.chPoolAllocI:0000000000000000 $t
     /tmp/ccxoXs8x.s:123    .text.chPoolAllocI:0000000000000000 chPoolAllocI
     /tmp/ccxoXs8x.s:161    .text.chPoolAlloc:0000000000000000 $t
     /tmp/ccxoXs8x.s:167    .text.chPoolAlloc:0000000000000000 chPoolAlloc
     /tmp/ccxoXs8x.s:239    .text.chPoolFreeI:0000000000000000 $t
     /tmp/ccxoXs8x.s:245    .text.chPoolFreeI:0000000000000000 chPoolFreeI
     /tmp/ccxoXs8x.s:263    .text.chPoolFree:0000000000000000 $t
     /tmp/ccxoXs8x.s:269    .text.chPoolFree:0000000000000000 chPoolFree
                     .debug_frame:0000000000000010 $d

NO UNDEFINED SYMBOLS
