ARM GAS  /tmp/cch9rAWj.s 			page 1


   1              		.syntax unified
   2              		.cpu cortex-m4
   3              		.fpu softvfp
   4              		.eabi_attribute 20, 1
   5              		.eabi_attribute 21, 1
   6              		.eabi_attribute 23, 3
   7              		.eabi_attribute 24, 1
   8              		.eabi_attribute 25, 1
   9              		.eabi_attribute 26, 1
  10              		.eabi_attribute 30, 2
  11              		.eabi_attribute 34, 1
  12              		.eabi_attribute 18, 4
  13              		.thumb
  14              		.file	"chsys.c"
  15              		.text
  16              	.Ltext0:
  17              		.cfi_sections	.debug_frame
  18              		.section	.text._idle_thread,"ax",%progbits
  19              		.align	2
  20              		.p2align 4,,15
  21              		.global	_idle_thread
  22              		.thumb
  23              		.thumb_func
  24              		.type	_idle_thread, %function
  25              	_idle_thread:
  26              	.LFB7:
  27              		.file 1 "../ChibiOS_2.6.7_minified/os/kernel/src/chsys.c"
  28              		.loc 1 61 0
  29              		.cfi_startproc
  30              		@ Volatile: function does not return.
  31              		@ args = 0, pretend = 0, frame = 0
  32              		@ frame_needed = 0, uses_anonymous_args = 0
  33              		@ link register save eliminated.
  34              	.LVL0:
  35              		.loc 1 64 0
  36 0000 024B     		ldr	r3, .L4
  37 0002 034A     		ldr	r2, .L4+4
  38 0004 9B69     		ldr	r3, [r3, #24]
  39 0006 9A61     		str	r2, [r3, #24]
  40              	.L2:
  41 0008 FEE7     		b	.L2
  42              	.L5:
  43 000a 00BF     		.align	2
  44              	.L4:
  45 000c 00000000 		.word	rlist
  46 0010 00000000 		.word	.LC0
  47              		.cfi_endproc
  48              	.LFE7:
  49              		.size	_idle_thread, .-_idle_thread
  50 0014 AFF30080 		.section	.text.chSysInit,"ax",%progbits
  50      AFF30080 
  50      AFF30080 
  51              		.align	2
  52              		.p2align 4,,15
  53              		.global	chSysInit
  54              		.thumb
  55              		.thumb_func
ARM GAS  /tmp/cch9rAWj.s 			page 2


  56              		.type	chSysInit, %function
  57              	chSysInit:
  58              	.LFB8:
  59              		.loc 1 84 0
  60              		.cfi_startproc
  61              		@ args = 0, pretend = 0, frame = 0
  62              		@ frame_needed = 0, uses_anonymous_args = 0
  63 0000 00B5     		push	{lr}
  64              		.cfi_def_cfa_offset 4
  65              		.cfi_offset 14, -4
  66 0002 83B0     		sub	sp, sp, #12
  67              		.cfi_def_cfa_offset 16
  68              		.loc 1 90 0
  69 0004 FFF7FEFF 		bl	_port_init
  70              	.LVL1:
  71              		.loc 1 91 0
  72 0008 FFF7FEFF 		bl	_scheduler_init
  73              	.LVL2:
  74              		.loc 1 92 0
  75 000c FFF7FEFF 		bl	_vt_init
  76              	.LVL3:
  77              		.loc 1 94 0
  78 0010 FFF7FEFF 		bl	_core_init
  79              	.LVL4:
  80              		.loc 1 97 0
  81 0014 FFF7FEFF 		bl	_heap_init
  82              	.LVL5:
  83              		.loc 1 104 0
  84 0018 4021     		movs	r1, #64
  85 001a 0B48     		ldr	r0, .L7
  86 001c FFF7FEFF 		bl	_thread_init
  87              	.LVL6:
  88 0020 0A49     		ldr	r1, .L7+4
  89              		.loc 1 105 0
  90 0022 0122     		movs	r2, #1
  91              		.loc 1 104 0
  92 0024 8861     		str	r0, [r1, #24]
  93              		.loc 1 105 0
  94 0026 0277     		strb	r2, [r0, #28]
  95              	.LBB2:
  96              		.loc 1 111 0
  97 0028 0023     		movs	r3, #0
  98              	@ 111 "../ChibiOS_2.6.7_minified/os/kernel/src/chsys.c" 1
  99 002a 83F31188 		msr     BASEPRI, r3                    
 100 002e 62B6     		cpsie   i
 101              	@ 0 "" 2
 102              		.thumb
 103              	.LBE2:
 104              		.loc 1 115 0
 105 0030 8969     		ldr	r1, [r1, #24]
 106 0032 0748     		ldr	r0, .L7+8
 107 0034 8861     		str	r0, [r1, #24]
 108              		.loc 1 121 0
 109 0036 0093     		str	r3, [sp]
 110 0038 E021     		movs	r1, #224
 111 003a 064B     		ldr	r3, .L7+12
 112 003c 0648     		ldr	r0, .L7+16
ARM GAS  /tmp/cch9rAWj.s 			page 3


 113 003e FFF7FEFF 		bl	chThdCreateStatic
 114              	.LVL7:
 115              		.loc 1 124 0
 116 0042 03B0     		add	sp, sp, #12
 117              		@ sp needed
 118 0044 5DF804FB 		ldr	pc, [sp], #4
 119              	.L8:
 120              		.align	2
 121              	.L7:
 122 0048 00000000 		.word	.LANCHOR0
 123 004c 00000000 		.word	rlist
 124 0050 00000000 		.word	ch_debug
 125 0054 00000000 		.word	_idle_thread
 126 0058 00000000 		.word	.LANCHOR1
 127              		.cfi_endproc
 128              	.LFE8:
 129              		.size	chSysInit, .-chSysInit
 130 005c AFF30080 		.section	.text.chSysTimerHandlerI,"ax",%progbits
 131              		.align	2
 132              		.p2align 4,,15
 133              		.global	chSysTimerHandlerI
 134              		.thumb
 135              		.thumb_func
 136              		.type	chSysTimerHandlerI, %function
 137              	chSysTimerHandlerI:
 138              	.LFB9:
 139              		.loc 1 137 0
 140              		.cfi_startproc
 141              		@ args = 0, pretend = 0, frame = 0
 142              		@ frame_needed = 0, uses_anonymous_args = 0
 143 0000 70B5     		push	{r4, r5, r6, lr}
 144              		.cfi_def_cfa_offset 16
 145              		.cfi_offset 4, -16
 146              		.cfi_offset 5, -12
 147              		.cfi_offset 6, -8
 148              		.cfi_offset 14, -4
 149              		.loc 1 143 0
 150 0002 134B     		ldr	r3, .L17
 151 0004 9B69     		ldr	r3, [r3, #24]
 152 0006 DA7F     		ldrb	r2, [r3, #31]	@ zero_extendqisi2
 153 0008 0AB1     		cbz	r2, .L10
 154              		.loc 1 145 0
 155 000a 013A     		subs	r2, r2, #1
 156 000c DA77     		strb	r2, [r3, #31]
 157              	.L10:
 158              		.loc 1 148 0
 159 000e 1A6A     		ldr	r2, [r3, #32]
 160              		.loc 1 150 0
 161 0010 104C     		ldr	r4, .L17+4
 162              		.loc 1 148 0
 163 0012 0132     		adds	r2, r2, #1
 164 0014 1A62     		str	r2, [r3, #32]
 165              		.loc 1 150 0
 166 0016 E368     		ldr	r3, [r4, #12]
 167 0018 2268     		ldr	r2, [r4]
 168 001a 0133     		adds	r3, r3, #1
 169 001c A242     		cmp	r2, r4
ARM GAS  /tmp/cch9rAWj.s 			page 4


 170 001e E360     		str	r3, [r4, #12]
 171 0020 14D0     		beq	.L9
 172              	.LBB3:
 173              		.loc 1 150 0 is_stmt 0 discriminator 1
 174 0022 9668     		ldr	r6, [r2, #8]
 175 0024 013E     		subs	r6, r6, #1
 176 0026 9660     		str	r6, [r2, #8]
 177              	.LVL8:
 178 0028 86B9     		cbnz	r6, .L9
 179              	.L13:
 180              	.LBB4:
 181              		.loc 1 150 0 discriminator 2
 182 002a 1168     		ldr	r1, [r2]
 183 002c D568     		ldr	r5, [r2, #12]
 184              	.LVL9:
 185 002e 2160     		str	r1, [r4]
 186 0030 D660     		str	r6, [r2, #12]
 187              	.LBB5:
 188 0032 0023     		movs	r3, #0
 189              	.LBE5:
 190 0034 4C60     		str	r4, [r1, #4]
 191              	.LBB6:
 192              	@ 150 "../ChibiOS_2.6.7_minified/os/kernel/src/chsys.c" 1
 193 0036 83F31188 		msr     BASEPRI, r3
 194              	@ 0 "" 2
 195              		.thumb
 196              	.LBE6:
 197 003a 1069     		ldr	r0, [r2, #16]
 198 003c A847     		blx	r5
 199              	.LVL10:
 200              	.LBB7:
 201 003e 2023     		movs	r3, #32
 202              	@ 150 "../ChibiOS_2.6.7_minified/os/kernel/src/chsys.c" 1
 203 0040 83F31188 		msr     BASEPRI, r3
 204              	@ 0 "" 2
 205              		.thumb
 206              	.LBE7:
 207              	.LBE4:
 208 0044 2268     		ldr	r2, [r4]
 209              	.LVL11:
 210 0046 9368     		ldr	r3, [r2, #8]
 211 0048 002B     		cmp	r3, #0
 212 004a EED0     		beq	.L13
 213              	.LVL12:
 214              	.L9:
 215 004c 70BD     		pop	{r4, r5, r6, pc}
 216              	.L18:
 217 004e 00BF     		.align	2
 218              	.L17:
 219 0050 00000000 		.word	rlist
 220 0054 00000000 		.word	vtlist
 221              	.LBE3:
 222              		.cfi_endproc
 223              	.LFE9:
 224              		.size	chSysTimerHandlerI, .-chSysTimerHandlerI
 225              		.global	_idle_thread_wa
 226 0058 AFF30080 		.section	.rodata.str1.4,"aMS",%progbits,1
ARM GAS  /tmp/cch9rAWj.s 			page 5


 226      AFF30080 
 227              		.align	2
 228              	.LC0:
 229 0000 69646C65 		.ascii	"idle\000"
 229      00
 230 0005 000000   		.section	.bss.mainthread.4797,"aw",%nobits
 231              		.align	2
 232              		.set	.LANCHOR0,. + 0
 233              		.type	mainthread.4797, %object
 234              		.size	mainthread.4797, 72
 235              	mainthread.4797:
 236 0000 00000000 		.space	72
 236      00000000 
 236      00000000 
 236      00000000 
 236      00000000 
 237              		.section	.bss._idle_thread_wa,"aw",%nobits
 238              		.align	3
 239              		.set	.LANCHOR1,. + 0
 240              		.type	_idle_thread_wa, %object
 241              		.size	_idle_thread_wa, 224
 242              	_idle_thread_wa:
 243 0000 00000000 		.space	224
 243      00000000 
 243      00000000 
 243      00000000 
 243      00000000 
 244              		.text
 245              	.Letext0:
 246              		.file 2 "/usr/lib/gcc/arm-none-eabi/4.8.4/include/stddef.h"
 247              		.file 3 "/usr/arm-none-eabi/include/machine/_default_types.h"
 248              		.file 4 "/usr/arm-none-eabi/include/stdint.h"
 249              		.file 5 "../ChibiOS_2.6.7_minified/os/ports/GCC/ARMCMx/chtypes.h"
 250              		.file 6 "../ChibiOS_2.6.7_minified/os/kernel/include/chlists.h"
 251              		.file 7 "../ChibiOS_2.6.7_minified/os/kernel/include/chthreads.h"
 252              		.file 8 "../ChibiOS_2.6.7_minified/os/ports/GCC/ARMCMx/chcore_v7m.h"
 253              		.file 9 "../ChibiOS_2.6.7_minified/os/kernel/include/chvt.h"
 254              		.file 10 "../ChibiOS_2.6.7_minified/os/kernel/include/chschd.h"
 255              		.file 11 "../ChibiOS_2.6.7_minified/os/kernel/include/chmtx.h"
 256              		.file 12 "../ChibiOS_2.6.7_minified/os/kernel/include/chregistry.h"
 257              		.file 13 "../ChibiOS_2.6.7_minified/os/kernel/include/chmemcore.h"
 258              		.file 14 "../ChibiOS_2.6.7_minified/os/kernel/include/chheap.h"
 259              		.section	.debug_info,"",%progbits
 260              	.Ldebug_info0:
 261 0000 23080000 		.4byte	0x823
 262 0004 0400     		.2byte	0x4
 263 0006 00000000 		.4byte	.Ldebug_abbrev0
 264 000a 04       		.byte	0x4
 265 000b 01       		.uleb128 0x1
 266 000c 74040000 		.4byte	.LASF114
 267 0010 01       		.byte	0x1
 268 0011 3D040000 		.4byte	.LASF115
 269 0015 16010000 		.4byte	.LASF116
 270 0019 18000000 		.4byte	.Ldebug_ranges0+0x18
 271 001d 00000000 		.4byte	0
 272 0021 00000000 		.4byte	.Ldebug_line0
 273 0025 02       		.uleb128 0x2
ARM GAS  /tmp/cch9rAWj.s 			page 6


 274 0026 04       		.byte	0x4
 275 0027 05       		.byte	0x5
 276 0028 696E7400 		.ascii	"int\000"
 277 002c 03       		.uleb128 0x3
 278 002d 1B000000 		.4byte	.LASF2
 279 0031 02       		.byte	0x2
 280 0032 D4       		.byte	0xd4
 281 0033 37000000 		.4byte	0x37
 282 0037 04       		.uleb128 0x4
 283 0038 04       		.byte	0x4
 284 0039 07       		.byte	0x7
 285 003a A3010000 		.4byte	.LASF0
 286 003e 04       		.uleb128 0x4
 287 003f 01       		.byte	0x1
 288 0040 06       		.byte	0x6
 289 0041 C1000000 		.4byte	.LASF1
 290 0045 03       		.uleb128 0x3
 291 0046 32000000 		.4byte	.LASF3
 292 004a 03       		.byte	0x3
 293 004b 1C       		.byte	0x1c
 294 004c 50000000 		.4byte	0x50
 295 0050 04       		.uleb128 0x4
 296 0051 01       		.byte	0x1
 297 0052 08       		.byte	0x8
 298 0053 30030000 		.4byte	.LASF4
 299 0057 04       		.uleb128 0x4
 300 0058 02       		.byte	0x2
 301 0059 05       		.byte	0x5
 302 005a 53030000 		.4byte	.LASF5
 303 005e 03       		.uleb128 0x3
 304 005f F5030000 		.4byte	.LASF6
 305 0063 03       		.byte	0x3
 306 0064 26       		.byte	0x26
 307 0065 69000000 		.4byte	0x69
 308 0069 04       		.uleb128 0x4
 309 006a 02       		.byte	0x2
 310 006b 07       		.byte	0x7
 311 006c 0A020000 		.4byte	.LASF7
 312 0070 03       		.uleb128 0x3
 313 0071 1C040000 		.4byte	.LASF8
 314 0075 03       		.byte	0x3
 315 0076 37       		.byte	0x37
 316 0077 7B000000 		.4byte	0x7b
 317 007b 04       		.uleb128 0x4
 318 007c 04       		.byte	0x4
 319 007d 05       		.byte	0x5
 320 007e 04010000 		.4byte	.LASF9
 321 0082 03       		.uleb128 0x3
 322 0083 72010000 		.4byte	.LASF10
 323 0087 03       		.byte	0x3
 324 0088 38       		.byte	0x38
 325 0089 8D000000 		.4byte	0x8d
 326 008d 04       		.uleb128 0x4
 327 008e 04       		.byte	0x4
 328 008f 07       		.byte	0x7
 329 0090 D0010000 		.4byte	.LASF11
 330 0094 04       		.uleb128 0x4
ARM GAS  /tmp/cch9rAWj.s 			page 7


 331 0095 08       		.byte	0x8
 332 0096 05       		.byte	0x5
 333 0097 B3000000 		.4byte	.LASF12
 334 009b 03       		.uleb128 0x3
 335 009c F5020000 		.4byte	.LASF13
 336 00a0 03       		.byte	0x3
 337 00a1 4E       		.byte	0x4e
 338 00a2 A6000000 		.4byte	0xa6
 339 00a6 04       		.uleb128 0x4
 340 00a7 08       		.byte	0x8
 341 00a8 07       		.byte	0x7
 342 00a9 56000000 		.4byte	.LASF14
 343 00ad 03       		.uleb128 0x3
 344 00ae 7B050000 		.4byte	.LASF15
 345 00b2 04       		.byte	0x4
 346 00b3 2A       		.byte	0x2a
 347 00b4 45000000 		.4byte	0x45
 348 00b8 03       		.uleb128 0x3
 349 00b9 47010000 		.4byte	.LASF16
 350 00bd 04       		.byte	0x4
 351 00be 36       		.byte	0x36
 352 00bf 5E000000 		.4byte	0x5e
 353 00c3 03       		.uleb128 0x3
 354 00c4 28030000 		.4byte	.LASF17
 355 00c8 04       		.byte	0x4
 356 00c9 41       		.byte	0x41
 357 00ca 70000000 		.4byte	0x70
 358 00ce 03       		.uleb128 0x3
 359 00cf C6030000 		.4byte	.LASF18
 360 00d3 04       		.byte	0x4
 361 00d4 42       		.byte	0x42
 362 00d5 82000000 		.4byte	0x82
 363 00d9 03       		.uleb128 0x3
 364 00da 29000000 		.4byte	.LASF19
 365 00de 04       		.byte	0x4
 366 00df 4E       		.byte	0x4e
 367 00e0 9B000000 		.4byte	0x9b
 368 00e4 04       		.uleb128 0x4
 369 00e5 01       		.byte	0x1
 370 00e6 02       		.byte	0x2
 371 00e7 22030000 		.4byte	.LASF20
 372 00eb 03       		.uleb128 0x3
 373 00ec 2B020000 		.4byte	.LASF21
 374 00f0 05       		.byte	0x5
 375 00f1 2C       		.byte	0x2c
 376 00f2 AD000000 		.4byte	0xad
 377 00f6 03       		.uleb128 0x3
 378 00f7 0D010000 		.4byte	.LASF22
 379 00fb 05       		.byte	0x5
 380 00fc 2D       		.byte	0x2d
 381 00fd AD000000 		.4byte	0xad
 382 0101 03       		.uleb128 0x3
 383 0102 00030000 		.4byte	.LASF23
 384 0106 05       		.byte	0x5
 385 0107 2E       		.byte	0x2e
 386 0108 AD000000 		.4byte	0xad
 387 010c 03       		.uleb128 0x3
ARM GAS  /tmp/cch9rAWj.s 			page 8


 388 010d FA000000 		.4byte	.LASF24
 389 0111 05       		.byte	0x5
 390 0112 2F       		.byte	0x2f
 391 0113 AD000000 		.4byte	0xad
 392 0117 03       		.uleb128 0x3
 393 0118 1A030000 		.4byte	.LASF25
 394 011c 05       		.byte	0x5
 395 011d 30       		.byte	0x30
 396 011e CE000000 		.4byte	0xce
 397 0122 03       		.uleb128 0x3
 398 0123 1D020000 		.4byte	.LASF26
 399 0127 05       		.byte	0x5
 400 0128 31       		.byte	0x31
 401 0129 C3000000 		.4byte	0xc3
 402 012d 03       		.uleb128 0x3
 403 012e 3F020000 		.4byte	.LASF27
 404 0132 05       		.byte	0x5
 405 0133 33       		.byte	0x33
 406 0134 CE000000 		.4byte	0xce
 407 0138 03       		.uleb128 0x3
 408 0139 07040000 		.4byte	.LASF28
 409 013d 05       		.byte	0x5
 410 013e 35       		.byte	0x35
 411 013f CE000000 		.4byte	0xce
 412 0143 03       		.uleb128 0x3
 413 0144 A7030000 		.4byte	.LASF29
 414 0148 06       		.byte	0x6
 415 0149 2A       		.byte	0x2a
 416 014a 4E010000 		.4byte	0x14e
 417 014e 05       		.uleb128 0x5
 418 014f A7030000 		.4byte	.LASF29
 419 0153 48       		.byte	0x48
 420 0154 07       		.byte	0x7
 421 0155 5E       		.byte	0x5e
 422 0156 4B020000 		.4byte	0x24b
 423 015a 06       		.uleb128 0x6
 424 015b 89030000 		.4byte	.LASF30
 425 015f 07       		.byte	0x7
 426 0160 5F       		.byte	0x5f
 427 0161 6C020000 		.4byte	0x26c
 428 0165 00       		.byte	0
 429 0166 06       		.uleb128 0x6
 430 0167 13030000 		.4byte	.LASF31
 431 016b 07       		.byte	0x7
 432 016c 61       		.byte	0x61
 433 016d 6C020000 		.4byte	0x26c
 434 0171 04       		.byte	0x4
 435 0172 06       		.uleb128 0x6
 436 0173 8F000000 		.4byte	.LASF32
 437 0177 07       		.byte	0x7
 438 0178 63       		.byte	0x63
 439 0179 17010000 		.4byte	0x117
 440 017d 08       		.byte	0x8
 441 017e 06       		.uleb128 0x6
 442 017f C1050000 		.4byte	.LASF33
 443 0183 07       		.byte	0x7
 444 0184 64       		.byte	0x64
ARM GAS  /tmp/cch9rAWj.s 			page 9


 445 0185 31030000 		.4byte	0x331
 446 0189 0C       		.byte	0xc
 447 018a 06       		.uleb128 0x6
 448 018b 5A010000 		.4byte	.LASF34
 449 018f 07       		.byte	0x7
 450 0190 66       		.byte	0x66
 451 0191 6C020000 		.4byte	0x26c
 452 0195 10       		.byte	0x10
 453 0196 06       		.uleb128 0x6
 454 0197 B3020000 		.4byte	.LASF35
 455 019b 07       		.byte	0x7
 456 019c 67       		.byte	0x67
 457 019d 6C020000 		.4byte	0x26c
 458 01a1 14       		.byte	0x14
 459 01a2 06       		.uleb128 0x6
 460 01a3 95050000 		.4byte	.LASF36
 461 01a7 07       		.byte	0x7
 462 01a8 6E       		.byte	0x6e
 463 01a9 EB040000 		.4byte	0x4eb
 464 01ad 18       		.byte	0x18
 465 01ae 06       		.uleb128 0x6
 466 01af 5D030000 		.4byte	.LASF37
 467 01b3 07       		.byte	0x7
 468 01b4 79       		.byte	0x79
 469 01b5 F6000000 		.4byte	0xf6
 470 01b9 1C       		.byte	0x1c
 471 01ba 06       		.uleb128 0x6
 472 01bb 9F030000 		.4byte	.LASF38
 473 01bf 07       		.byte	0x7
 474 01c0 7D       		.byte	0x7d
 475 01c1 EB000000 		.4byte	0xeb
 476 01c5 1D       		.byte	0x1d
 477 01c6 06       		.uleb128 0x6
 478 01c7 64050000 		.4byte	.LASF39
 479 01cb 07       		.byte	0x7
 480 01cc 82       		.byte	0x82
 481 01cd 01010000 		.4byte	0x101
 482 01d1 1E       		.byte	0x1e
 483 01d2 06       		.uleb128 0x6
 484 01d3 65030000 		.4byte	.LASF40
 485 01d7 07       		.byte	0x7
 486 01d8 88       		.byte	0x88
 487 01d9 0C010000 		.4byte	0x10c
 488 01dd 1F       		.byte	0x1f
 489 01de 06       		.uleb128 0x6
 490 01df 2F040000 		.4byte	.LASF41
 491 01e3 07       		.byte	0x7
 492 01e4 8F       		.byte	0x8f
 493 01e5 08040000 		.4byte	0x408
 494 01e9 20       		.byte	0x20
 495 01ea 07       		.uleb128 0x7
 496 01eb 705F7500 		.ascii	"p_u\000"
 497 01ef 07       		.byte	0x7
 498 01f0 B4       		.byte	0xb4
 499 01f1 B6040000 		.4byte	0x4b6
 500 01f5 24       		.byte	0x24
 501 01f6 06       		.uleb128 0x6
ARM GAS  /tmp/cch9rAWj.s 			page 10


 502 01f7 C7050000 		.4byte	.LASF42
 503 01fb 07       		.byte	0x7
 504 01fc B9       		.byte	0xb9
 505 01fd 92020000 		.4byte	0x292
 506 0201 28       		.byte	0x28
 507 0202 06       		.uleb128 0x6
 508 0203 C5010000 		.4byte	.LASF43
 509 0207 07       		.byte	0x7
 510 0208 BF       		.byte	0xbf
 511 0209 72020000 		.4byte	0x272
 512 020d 2C       		.byte	0x2c
 513 020e 06       		.uleb128 0x6
 514 020f 15000000 		.4byte	.LASF44
 515 0213 07       		.byte	0x7
 516 0214 C3       		.byte	0xc3
 517 0215 22010000 		.4byte	0x122
 518 0219 34       		.byte	0x34
 519 021a 06       		.uleb128 0x6
 520 021b BB030000 		.4byte	.LASF45
 521 021f 07       		.byte	0x7
 522 0220 C9       		.byte	0xc9
 523 0221 2D010000 		.4byte	0x12d
 524 0225 38       		.byte	0x38
 525 0226 06       		.uleb128 0x6
 526 0227 49030000 		.4byte	.LASF46
 527 022b 07       		.byte	0x7
 528 022c D0       		.byte	0xd0
 529 022d FD040000 		.4byte	0x4fd
 530 0231 3C       		.byte	0x3c
 531 0232 06       		.uleb128 0x6
 532 0233 11040000 		.4byte	.LASF47
 533 0237 07       		.byte	0x7
 534 0238 D4       		.byte	0xd4
 535 0239 17010000 		.4byte	0x117
 536 023d 40       		.byte	0x40
 537 023e 06       		.uleb128 0x6
 538 023f EA000000 		.4byte	.LASF48
 539 0243 07       		.byte	0x7
 540 0244 DA       		.byte	0xda
 541 0245 A8020000 		.4byte	0x2a8
 542 0249 44       		.byte	0x44
 543 024a 00       		.byte	0
 544 024b 08       		.uleb128 0x8
 545 024c 08       		.byte	0x8
 546 024d 06       		.byte	0x6
 547 024e 61       		.byte	0x61
 548 024f 6C020000 		.4byte	0x26c
 549 0253 06       		.uleb128 0x6
 550 0254 89030000 		.4byte	.LASF30
 551 0258 06       		.byte	0x6
 552 0259 62       		.byte	0x62
 553 025a 6C020000 		.4byte	0x26c
 554 025e 00       		.byte	0
 555 025f 06       		.uleb128 0x6
 556 0260 13030000 		.4byte	.LASF31
 557 0264 06       		.byte	0x6
 558 0265 64       		.byte	0x64
ARM GAS  /tmp/cch9rAWj.s 			page 11


 559 0266 6C020000 		.4byte	0x26c
 560 026a 04       		.byte	0x4
 561 026b 00       		.byte	0
 562 026c 09       		.uleb128 0x9
 563 026d 04       		.byte	0x4
 564 026e 43010000 		.4byte	0x143
 565 0272 03       		.uleb128 0x3
 566 0273 C1020000 		.4byte	.LASF49
 567 0277 06       		.byte	0x6
 568 0278 66       		.byte	0x66
 569 0279 4B020000 		.4byte	0x24b
 570 027d 08       		.uleb128 0x8
 571 027e 04       		.byte	0x4
 572 027f 06       		.byte	0x6
 573 0280 6B       		.byte	0x6b
 574 0281 92020000 		.4byte	0x292
 575 0285 06       		.uleb128 0x6
 576 0286 89030000 		.4byte	.LASF30
 577 028a 06       		.byte	0x6
 578 028b 6D       		.byte	0x6d
 579 028c 6C020000 		.4byte	0x26c
 580 0290 00       		.byte	0
 581 0291 00       		.byte	0
 582 0292 03       		.uleb128 0x3
 583 0293 33020000 		.4byte	.LASF50
 584 0297 06       		.byte	0x6
 585 0298 70       		.byte	0x70
 586 0299 7D020000 		.4byte	0x27d
 587 029d 03       		.uleb128 0x3
 588 029e 7D010000 		.4byte	.LASF51
 589 02a2 08       		.byte	0x8
 590 02a3 E5       		.byte	0xe5
 591 02a4 A8020000 		.4byte	0x2a8
 592 02a8 0A       		.uleb128 0xa
 593 02a9 04       		.byte	0x4
 594 02aa 03       		.uleb128 0x3
 595 02ab 51020000 		.4byte	.LASF52
 596 02af 08       		.byte	0x8
 597 02b0 EB       		.byte	0xeb
 598 02b1 D9000000 		.4byte	0xd9
 599 02b5 0B       		.uleb128 0xb
 600 02b6 36040000 		.4byte	.LASF53
 601 02ba 24       		.byte	0x24
 602 02bb 08       		.byte	0x8
 603 02bc 0C01     		.2byte	0x10c
 604 02be 31030000 		.4byte	0x331
 605 02c2 0C       		.uleb128 0xc
 606 02c3 723400   		.ascii	"r4\000"
 607 02c6 08       		.byte	0x8
 608 02c7 1F01     		.2byte	0x11f
 609 02c9 9D020000 		.4byte	0x29d
 610 02cd 00       		.byte	0
 611 02ce 0C       		.uleb128 0xc
 612 02cf 723500   		.ascii	"r5\000"
 613 02d2 08       		.byte	0x8
 614 02d3 2001     		.2byte	0x120
 615 02d5 9D020000 		.4byte	0x29d
ARM GAS  /tmp/cch9rAWj.s 			page 12


 616 02d9 04       		.byte	0x4
 617 02da 0C       		.uleb128 0xc
 618 02db 723600   		.ascii	"r6\000"
 619 02de 08       		.byte	0x8
 620 02df 2101     		.2byte	0x121
 621 02e1 9D020000 		.4byte	0x29d
 622 02e5 08       		.byte	0x8
 623 02e6 0C       		.uleb128 0xc
 624 02e7 723700   		.ascii	"r7\000"
 625 02ea 08       		.byte	0x8
 626 02eb 2201     		.2byte	0x122
 627 02ed 9D020000 		.4byte	0x29d
 628 02f1 0C       		.byte	0xc
 629 02f2 0C       		.uleb128 0xc
 630 02f3 723800   		.ascii	"r8\000"
 631 02f6 08       		.byte	0x8
 632 02f7 2301     		.2byte	0x123
 633 02f9 9D020000 		.4byte	0x29d
 634 02fd 10       		.byte	0x10
 635 02fe 0C       		.uleb128 0xc
 636 02ff 723900   		.ascii	"r9\000"
 637 0302 08       		.byte	0x8
 638 0303 2401     		.2byte	0x124
 639 0305 9D020000 		.4byte	0x29d
 640 0309 14       		.byte	0x14
 641 030a 0C       		.uleb128 0xc
 642 030b 72313000 		.ascii	"r10\000"
 643 030f 08       		.byte	0x8
 644 0310 2501     		.2byte	0x125
 645 0312 9D020000 		.4byte	0x29d
 646 0316 18       		.byte	0x18
 647 0317 0C       		.uleb128 0xc
 648 0318 72313100 		.ascii	"r11\000"
 649 031c 08       		.byte	0x8
 650 031d 2601     		.2byte	0x126
 651 031f 9D020000 		.4byte	0x29d
 652 0323 1C       		.byte	0x1c
 653 0324 0C       		.uleb128 0xc
 654 0325 6C7200   		.ascii	"lr\000"
 655 0328 08       		.byte	0x8
 656 0329 2701     		.2byte	0x127
 657 032b 9D020000 		.4byte	0x29d
 658 032f 20       		.byte	0x20
 659 0330 00       		.byte	0
 660 0331 0B       		.uleb128 0xb
 661 0332 02020000 		.4byte	.LASF54
 662 0336 04       		.byte	0x4
 663 0337 08       		.byte	0x8
 664 0338 3101     		.2byte	0x131
 665 033a 4C030000 		.4byte	0x34c
 666 033e 0C       		.uleb128 0xc
 667 033f 72313300 		.ascii	"r13\000"
 668 0343 08       		.byte	0x8
 669 0344 3201     		.2byte	0x132
 670 0346 4C030000 		.4byte	0x34c
 671 034a 00       		.byte	0
 672 034b 00       		.byte	0
ARM GAS  /tmp/cch9rAWj.s 			page 13


 673 034c 09       		.uleb128 0x9
 674 034d 04       		.byte	0x4
 675 034e B5020000 		.4byte	0x2b5
 676 0352 04       		.uleb128 0x4
 677 0353 04       		.byte	0x4
 678 0354 07       		.byte	0x7
 679 0355 8A020000 		.4byte	.LASF55
 680 0359 03       		.uleb128 0x3
 681 035a EB010000 		.4byte	.LASF56
 682 035e 09       		.byte	0x9
 683 035f 58       		.byte	0x58
 684 0360 64030000 		.4byte	0x364
 685 0364 09       		.uleb128 0x9
 686 0365 04       		.byte	0x4
 687 0366 6A030000 		.4byte	0x36a
 688 036a 0D       		.uleb128 0xd
 689 036b 75030000 		.4byte	0x375
 690 036f 0E       		.uleb128 0xe
 691 0370 A8020000 		.4byte	0x2a8
 692 0374 00       		.byte	0
 693 0375 03       		.uleb128 0x3
 694 0376 E3030000 		.4byte	.LASF57
 695 037a 09       		.byte	0x9
 696 037b 5D       		.byte	0x5d
 697 037c 80030000 		.4byte	0x380
 698 0380 05       		.uleb128 0x5
 699 0381 E3030000 		.4byte	.LASF57
 700 0385 14       		.byte	0x14
 701 0386 09       		.byte	0x9
 702 0387 64       		.byte	0x64
 703 0388 C9030000 		.4byte	0x3c9
 704 038c 06       		.uleb128 0x6
 705 038d BD010000 		.4byte	.LASF58
 706 0391 09       		.byte	0x9
 707 0392 65       		.byte	0x65
 708 0393 C9030000 		.4byte	0x3c9
 709 0397 00       		.byte	0
 710 0398 06       		.uleb128 0x6
 711 0399 86010000 		.4byte	.LASF59
 712 039d 09       		.byte	0x9
 713 039e 67       		.byte	0x67
 714 039f C9030000 		.4byte	0x3c9
 715 03a3 04       		.byte	0x4
 716 03a4 06       		.uleb128 0x6
 717 03a5 82020000 		.4byte	.LASF60
 718 03a9 09       		.byte	0x9
 719 03aa 69       		.byte	0x69
 720 03ab 38010000 		.4byte	0x138
 721 03af 08       		.byte	0x8
 722 03b0 06       		.uleb128 0x6
 723 03b1 93020000 		.4byte	.LASF61
 724 03b5 09       		.byte	0x9
 725 03b6 6A       		.byte	0x6a
 726 03b7 59030000 		.4byte	0x359
 727 03bb 0C       		.byte	0xc
 728 03bc 06       		.uleb128 0x6
 729 03bd 6D040000 		.4byte	.LASF62
ARM GAS  /tmp/cch9rAWj.s 			page 14


 730 03c1 09       		.byte	0x9
 731 03c2 6C       		.byte	0x6c
 732 03c3 A8020000 		.4byte	0x2a8
 733 03c7 10       		.byte	0x10
 734 03c8 00       		.byte	0
 735 03c9 09       		.uleb128 0x9
 736 03ca 04       		.byte	0x4
 737 03cb 75030000 		.4byte	0x375
 738 03cf 08       		.uleb128 0x8
 739 03d0 10       		.byte	0x10
 740 03d1 09       		.byte	0x9
 741 03d2 76       		.byte	0x76
 742 03d3 08040000 		.4byte	0x408
 743 03d7 06       		.uleb128 0x6
 744 03d8 BD010000 		.4byte	.LASF58
 745 03dc 09       		.byte	0x9
 746 03dd 77       		.byte	0x77
 747 03de C9030000 		.4byte	0x3c9
 748 03e2 00       		.byte	0
 749 03e3 06       		.uleb128 0x6
 750 03e4 86010000 		.4byte	.LASF59
 751 03e8 09       		.byte	0x9
 752 03e9 79       		.byte	0x79
 753 03ea C9030000 		.4byte	0x3c9
 754 03ee 04       		.byte	0x4
 755 03ef 06       		.uleb128 0x6
 756 03f0 82020000 		.4byte	.LASF60
 757 03f4 09       		.byte	0x9
 758 03f5 7B       		.byte	0x7b
 759 03f6 38010000 		.4byte	0x138
 760 03fa 08       		.byte	0x8
 761 03fb 06       		.uleb128 0x6
 762 03fc 9C050000 		.4byte	.LASF63
 763 0400 09       		.byte	0x9
 764 0401 7C       		.byte	0x7c
 765 0402 08040000 		.4byte	0x408
 766 0406 0C       		.byte	0xc
 767 0407 00       		.byte	0
 768 0408 0F       		.uleb128 0xf
 769 0409 38010000 		.4byte	0x138
 770 040d 03       		.uleb128 0x3
 771 040e B2050000 		.4byte	.LASF64
 772 0412 09       		.byte	0x9
 773 0413 7D       		.byte	0x7d
 774 0414 CF030000 		.4byte	0x3cf
 775 0418 08       		.uleb128 0x8
 776 0419 1C       		.byte	0x1c
 777 041a 0A       		.byte	0xa
 778 041b 5E       		.byte	0x5e
 779 041c 69040000 		.4byte	0x469
 780 0420 06       		.uleb128 0x6
 781 0421 DB030000 		.4byte	.LASF65
 782 0425 0A       		.byte	0xa
 783 0426 5F       		.byte	0x5f
 784 0427 72020000 		.4byte	0x272
 785 042b 00       		.byte	0
 786 042c 06       		.uleb128 0x6
ARM GAS  /tmp/cch9rAWj.s 			page 15


 787 042d 7B030000 		.4byte	.LASF66
 788 0431 0A       		.byte	0xa
 789 0432 60       		.byte	0x60
 790 0433 17010000 		.4byte	0x117
 791 0437 08       		.byte	0x8
 792 0438 06       		.uleb128 0x6
 793 0439 BB020000 		.4byte	.LASF67
 794 043d 0A       		.byte	0xa
 795 043e 62       		.byte	0x62
 796 043f 31030000 		.4byte	0x331
 797 0443 0C       		.byte	0xc
 798 0444 06       		.uleb128 0x6
 799 0445 23020000 		.4byte	.LASF68
 800 0449 0A       		.byte	0xa
 801 044a 65       		.byte	0x65
 802 044b 6C020000 		.4byte	0x26c
 803 044f 10       		.byte	0x10
 804 0450 06       		.uleb128 0x6
 805 0451 E0020000 		.4byte	.LASF69
 806 0455 0A       		.byte	0xa
 807 0456 66       		.byte	0x66
 808 0457 6C020000 		.4byte	0x26c
 809 045b 14       		.byte	0x14
 810 045c 06       		.uleb128 0x6
 811 045d D6020000 		.4byte	.LASF70
 812 0461 0A       		.byte	0xa
 813 0462 69       		.byte	0x69
 814 0463 6C020000 		.4byte	0x26c
 815 0467 18       		.byte	0x18
 816 0468 00       		.byte	0
 817 0469 03       		.uleb128 0x3
 818 046a 6B050000 		.4byte	.LASF71
 819 046e 0A       		.byte	0xa
 820 046f 6B       		.byte	0x6b
 821 0470 18040000 		.4byte	0x418
 822 0474 05       		.uleb128 0x5
 823 0475 4B020000 		.4byte	.LASF72
 824 0479 10       		.byte	0x10
 825 047a 0B       		.byte	0xb
 826 047b 2C       		.byte	0x2c
 827 047c A5040000 		.4byte	0x4a5
 828 0480 06       		.uleb128 0x6
 829 0481 F2000000 		.4byte	.LASF73
 830 0485 0B       		.byte	0xb
 831 0486 2D       		.byte	0x2d
 832 0487 72020000 		.4byte	0x272
 833 048b 00       		.byte	0
 834 048c 06       		.uleb128 0x6
 835 048d B9050000 		.4byte	.LASF74
 836 0491 0B       		.byte	0xb
 837 0492 2F       		.byte	0x2f
 838 0493 6C020000 		.4byte	0x26c
 839 0497 08       		.byte	0x8
 840 0498 06       		.uleb128 0x6
 841 0499 00040000 		.4byte	.LASF75
 842 049d 0B       		.byte	0xb
 843 049e 31       		.byte	0x31
ARM GAS  /tmp/cch9rAWj.s 			page 16


 844 049f A5040000 		.4byte	0x4a5
 845 04a3 0C       		.byte	0xc
 846 04a4 00       		.byte	0
 847 04a5 09       		.uleb128 0x9
 848 04a6 04       		.byte	0x4
 849 04a7 74040000 		.4byte	0x474
 850 04ab 03       		.uleb128 0x3
 851 04ac 4B020000 		.4byte	.LASF72
 852 04b0 0B       		.byte	0xb
 853 04b1 33       		.byte	0x33
 854 04b2 74040000 		.4byte	0x474
 855 04b6 10       		.uleb128 0x10
 856 04b7 04       		.byte	0x4
 857 04b8 07       		.byte	0x7
 858 04b9 96       		.byte	0x96
 859 04ba EB040000 		.4byte	0x4eb
 860 04be 11       		.uleb128 0x11
 861 04bf 22000000 		.4byte	.LASF76
 862 04c3 07       		.byte	0x7
 863 04c4 9D       		.byte	0x9d
 864 04c5 22010000 		.4byte	0x122
 865 04c9 11       		.uleb128 0x11
 866 04ca 7B000000 		.4byte	.LASF77
 867 04ce 07       		.byte	0x7
 868 04cf A4       		.byte	0xa4
 869 04d0 22010000 		.4byte	0x122
 870 04d4 11       		.uleb128 0x11
 871 04d5 8E050000 		.4byte	.LASF78
 872 04d9 07       		.byte	0x7
 873 04da AB       		.byte	0xab
 874 04db A8020000 		.4byte	0x2a8
 875 04df 11       		.uleb128 0x11
 876 04e0 82030000 		.4byte	.LASF79
 877 04e4 07       		.byte	0x7
 878 04e5 B2       		.byte	0xb2
 879 04e6 2D010000 		.4byte	0x12d
 880 04ea 00       		.byte	0
 881 04eb 09       		.uleb128 0x9
 882 04ec 04       		.byte	0x4
 883 04ed F1040000 		.4byte	0x4f1
 884 04f1 12       		.uleb128 0x12
 885 04f2 F6040000 		.4byte	0x4f6
 886 04f6 04       		.uleb128 0x4
 887 04f7 01       		.byte	0x1
 888 04f8 08       		.byte	0x8
 889 04f9 F0030000 		.4byte	.LASF80
 890 04fd 09       		.uleb128 0x9
 891 04fe 04       		.byte	0x4
 892 04ff AB040000 		.4byte	0x4ab
 893 0503 03       		.uleb128 0x3
 894 0504 00000000 		.4byte	.LASF81
 895 0508 07       		.byte	0x7
 896 0509 E5       		.byte	0xe5
 897 050a 0E050000 		.4byte	0x50e
 898 050e 09       		.uleb128 0x9
 899 050f 04       		.byte	0x4
 900 0510 14050000 		.4byte	0x514
ARM GAS  /tmp/cch9rAWj.s 			page 17


 901 0514 13       		.uleb128 0x13
 902 0515 22010000 		.4byte	0x122
 903 0519 23050000 		.4byte	0x523
 904 051d 0E       		.uleb128 0xe
 905 051e A8020000 		.4byte	0x2a8
 906 0522 00       		.byte	0
 907 0523 08       		.uleb128 0x8
 908 0524 16       		.byte	0x16
 909 0525 0C       		.byte	0xc
 910 0526 2C       		.byte	0x2c
 911 0527 04060000 		.4byte	0x604
 912 052b 06       		.uleb128 0x6
 913 052c F4010000 		.4byte	.LASF82
 914 0530 0C       		.byte	0xc
 915 0531 2D       		.byte	0x2d
 916 0532 04060000 		.4byte	0x604
 917 0536 00       		.byte	0
 918 0537 06       		.uleb128 0x6
 919 0538 6E020000 		.4byte	.LASF83
 920 053c 0C       		.byte	0xc
 921 053d 2E       		.byte	0x2e
 922 053e AD000000 		.4byte	0xad
 923 0542 04       		.byte	0x4
 924 0543 06       		.uleb128 0x6
 925 0544 CE020000 		.4byte	.LASF84
 926 0548 0C       		.byte	0xc
 927 0549 2F       		.byte	0x2f
 928 054a AD000000 		.4byte	0xad
 929 054e 05       		.byte	0x5
 930 054f 06       		.uleb128 0x6
 931 0550 A7050000 		.4byte	.LASF85
 932 0554 0C       		.byte	0xc
 933 0555 30       		.byte	0x30
 934 0556 B8000000 		.4byte	0xb8
 935 055a 06       		.byte	0x6
 936 055b 06       		.uleb128 0x6
 937 055c 08030000 		.4byte	.LASF86
 938 0560 0C       		.byte	0xc
 939 0561 31       		.byte	0x31
 940 0562 AD000000 		.4byte	0xad
 941 0566 08       		.byte	0x8
 942 0567 06       		.uleb128 0x6
 943 0568 9B020000 		.4byte	.LASF87
 944 056c 0C       		.byte	0xc
 945 056d 32       		.byte	0x32
 946 056e AD000000 		.4byte	0xad
 947 0572 09       		.byte	0x9
 948 0573 06       		.uleb128 0x6
 949 0574 6D000000 		.4byte	.LASF88
 950 0578 0C       		.byte	0xc
 951 0579 33       		.byte	0x33
 952 057a AD000000 		.4byte	0xad
 953 057e 0A       		.byte	0xa
 954 057f 06       		.uleb128 0x6
 955 0580 CF030000 		.4byte	.LASF89
 956 0584 0C       		.byte	0xc
 957 0585 34       		.byte	0x34
ARM GAS  /tmp/cch9rAWj.s 			page 18


 958 0586 AD000000 		.4byte	0xad
 959 058a 0B       		.byte	0xb
 960 058b 06       		.uleb128 0x6
 961 058c 59050000 		.4byte	.LASF90
 962 0590 0C       		.byte	0xc
 963 0591 35       		.byte	0x35
 964 0592 AD000000 		.4byte	0xad
 965 0596 0C       		.byte	0xc
 966 0597 06       		.uleb128 0x6
 967 0598 AE030000 		.4byte	.LASF91
 968 059c 0C       		.byte	0xc
 969 059d 36       		.byte	0x36
 970 059e AD000000 		.4byte	0xad
 971 05a2 0D       		.byte	0xd
 972 05a3 06       		.uleb128 0x6
 973 05a4 08000000 		.4byte	.LASF92
 974 05a8 0C       		.byte	0xc
 975 05a9 37       		.byte	0x37
 976 05aa AD000000 		.4byte	0xad
 977 05ae 0E       		.byte	0xe
 978 05af 06       		.uleb128 0x6
 979 05b0 A7020000 		.4byte	.LASF93
 980 05b4 0C       		.byte	0xc
 981 05b5 38       		.byte	0x38
 982 05b6 AD000000 		.4byte	0xad
 983 05ba 0F       		.byte	0xf
 984 05bb 06       		.uleb128 0x6
 985 05bc CD000000 		.4byte	.LASF94
 986 05c0 0C       		.byte	0xc
 987 05c1 39       		.byte	0x39
 988 05c2 AD000000 		.4byte	0xad
 989 05c6 10       		.byte	0x10
 990 05c7 06       		.uleb128 0x6
 991 05c8 96000000 		.4byte	.LASF95
 992 05cc 0C       		.byte	0xc
 993 05cd 3B       		.byte	0x3b
 994 05ce AD000000 		.4byte	0xad
 995 05d2 11       		.byte	0x11
 996 05d3 06       		.uleb128 0x6
 997 05d4 DD000000 		.4byte	.LASF96
 998 05d8 0C       		.byte	0xc
 999 05d9 3C       		.byte	0x3c
 1000 05da AD000000 		.4byte	0xad
 1001 05de 12       		.byte	0x12
 1002 05df 06       		.uleb128 0x6
 1003 05e0 76020000 		.4byte	.LASF97
 1004 05e4 0C       		.byte	0xc
 1005 05e5 3D       		.byte	0x3d
 1006 05e6 AD000000 		.4byte	0xad
 1007 05ea 13       		.byte	0x13
 1008 05eb 06       		.uleb128 0x6
 1009 05ec 90030000 		.4byte	.LASF98
 1010 05f0 0C       		.byte	0xc
 1011 05f1 3E       		.byte	0x3e
 1012 05f2 AD000000 		.4byte	0xad
 1013 05f6 14       		.byte	0x14
 1014 05f7 06       		.uleb128 0x6
ARM GAS  /tmp/cch9rAWj.s 			page 19


 1015 05f8 6F030000 		.4byte	.LASF99
 1016 05fc 0C       		.byte	0xc
 1017 05fd 40       		.byte	0x40
 1018 05fe AD000000 		.4byte	0xad
 1019 0602 15       		.byte	0x15
 1020 0603 00       		.byte	0
 1021 0604 14       		.uleb128 0x14
 1022 0605 F6040000 		.4byte	0x4f6
 1023 0609 14060000 		.4byte	0x614
 1024 060d 15       		.uleb128 0x15
 1025 060e 52030000 		.4byte	0x352
 1026 0612 03       		.byte	0x3
 1027 0613 00       		.byte	0
 1028 0614 03       		.uleb128 0x3
 1029 0615 50010000 		.4byte	.LASF100
 1030 0619 0C       		.byte	0xc
 1031 061a 41       		.byte	0x41
 1032 061b 23050000 		.4byte	0x523
 1033 061f 16       		.uleb128 0x16
 1034 0620 E8020000 		.4byte	.LASF101
 1035 0624 01       		.byte	0x1
 1036 0625 3D       		.byte	0x3d
 1037 0626 00000000 		.4byte	.LFB7
 1038 062a 14000000 		.4byte	.LFE7-.LFB7
 1039 062e 01       		.uleb128 0x1
 1040 062f 9C       		.byte	0x9c
 1041 0630 40060000 		.4byte	0x640
 1042 0634 17       		.uleb128 0x17
 1043 0635 7000     		.ascii	"p\000"
 1044 0637 01       		.byte	0x1
 1045 0638 3D       		.byte	0x3d
 1046 0639 A8020000 		.4byte	0x2a8
 1047 063d 01       		.uleb128 0x1
 1048 063e 50       		.byte	0x50
 1049 063f 00       		.byte	0
 1050 0640 16       		.uleb128 0x16
 1051 0641 8E010000 		.4byte	.LASF102
 1052 0645 01       		.byte	0x1
 1053 0646 54       		.byte	0x54
 1054 0647 00000000 		.4byte	.LFB8
 1055 064b 5C000000 		.4byte	.LFE8-.LFB8
 1056 064f 01       		.uleb128 0x1
 1057 0650 9C       		.byte	0x9c
 1058 0651 F9060000 		.4byte	0x6f9
 1059 0655 18       		.uleb128 0x18
 1060 0656 84000000 		.4byte	.LASF103
 1061 065a 01       		.byte	0x1
 1062 065b 55       		.byte	0x55
 1063 065c 43010000 		.4byte	0x143
 1064 0660 05       		.uleb128 0x5
 1065 0661 03       		.byte	0x3
 1066 0662 00000000 		.4byte	mainthread.4797
 1067 0666 19       		.uleb128 0x19
 1068 0667 28000000 		.4byte	.LBB2
 1069 066b 08000000 		.4byte	.LBE2-.LBB2
 1070 066f 81060000 		.4byte	0x681
 1071 0673 1A       		.uleb128 0x1a
ARM GAS  /tmp/cch9rAWj.s 			page 20


 1072 0674 746D7000 		.ascii	"tmp\000"
 1073 0678 01       		.byte	0x1
 1074 0679 6F       		.byte	0x6f
 1075 067a CE000000 		.4byte	0xce
 1076 067e 01       		.uleb128 0x1
 1077 067f 53       		.byte	0x53
 1078 0680 00       		.byte	0
 1079 0681 1B       		.uleb128 0x1b
 1080 0682 08000000 		.4byte	.LVL1
 1081 0686 C1070000 		.4byte	0x7c1
 1082 068a 1B       		.uleb128 0x1b
 1083 068b 0C000000 		.4byte	.LVL2
 1084 068f C9070000 		.4byte	0x7c9
 1085 0693 1B       		.uleb128 0x1b
 1086 0694 10000000 		.4byte	.LVL3
 1087 0698 D0070000 		.4byte	0x7d0
 1088 069c 1B       		.uleb128 0x1b
 1089 069d 14000000 		.4byte	.LVL4
 1090 06a1 D7070000 		.4byte	0x7d7
 1091 06a5 1B       		.uleb128 0x1b
 1092 06a6 18000000 		.4byte	.LVL5
 1093 06aa DE070000 		.4byte	0x7de
 1094 06ae 1C       		.uleb128 0x1c
 1095 06af 20000000 		.4byte	.LVL6
 1096 06b3 E5070000 		.4byte	0x7e5
 1097 06b7 CB060000 		.4byte	0x6cb
 1098 06bb 1D       		.uleb128 0x1d
 1099 06bc 01       		.uleb128 0x1
 1100 06bd 51       		.byte	0x51
 1101 06be 02       		.uleb128 0x2
 1102 06bf 08       		.byte	0x8
 1103 06c0 40       		.byte	0x40
 1104 06c1 1D       		.uleb128 0x1d
 1105 06c2 01       		.uleb128 0x1
 1106 06c3 50       		.byte	0x50
 1107 06c4 05       		.uleb128 0x5
 1108 06c5 03       		.byte	0x3
 1109 06c6 00000000 		.4byte	.LANCHOR0
 1110 06ca 00       		.byte	0
 1111 06cb 1E       		.uleb128 0x1e
 1112 06cc 42000000 		.4byte	.LVL7
 1113 06d0 00080000 		.4byte	0x800
 1114 06d4 1D       		.uleb128 0x1d
 1115 06d5 01       		.uleb128 0x1
 1116 06d6 53       		.byte	0x53
 1117 06d7 05       		.uleb128 0x5
 1118 06d8 03       		.byte	0x3
 1119 06d9 00000000 		.4byte	_idle_thread
 1120 06dd 1D       		.uleb128 0x1d
 1121 06de 01       		.uleb128 0x1
 1122 06df 52       		.byte	0x52
 1123 06e0 01       		.uleb128 0x1
 1124 06e1 31       		.byte	0x31
 1125 06e2 1D       		.uleb128 0x1d
 1126 06e3 01       		.uleb128 0x1
 1127 06e4 51       		.byte	0x51
 1128 06e5 02       		.uleb128 0x2
ARM GAS  /tmp/cch9rAWj.s 			page 21


 1129 06e6 08       		.byte	0x8
 1130 06e7 E0       		.byte	0xe0
 1131 06e8 1D       		.uleb128 0x1d
 1132 06e9 01       		.uleb128 0x1
 1133 06ea 50       		.byte	0x50
 1134 06eb 05       		.uleb128 0x5
 1135 06ec 03       		.byte	0x3
 1136 06ed 00000000 		.4byte	.LANCHOR1
 1137 06f1 1D       		.uleb128 0x1d
 1138 06f2 02       		.uleb128 0x2
 1139 06f3 7D       		.byte	0x7d
 1140 06f4 00       		.sleb128 0
 1141 06f5 01       		.uleb128 0x1
 1142 06f6 30       		.byte	0x30
 1143 06f7 00       		.byte	0
 1144 06f8 00       		.byte	0
 1145 06f9 16       		.uleb128 0x16
 1146 06fa 43000000 		.4byte	.LASF104
 1147 06fe 01       		.byte	0x1
 1148 06ff 89       		.byte	0x89
 1149 0700 00000000 		.4byte	.LFB9
 1150 0704 58000000 		.4byte	.LFE9-.LFB9
 1151 0708 01       		.uleb128 0x1
 1152 0709 9C       		.byte	0x9c
 1153 070a 7A070000 		.4byte	0x77a
 1154 070e 1F       		.uleb128 0x1f
 1155 070f 22000000 		.4byte	.LBB3
 1156 0713 36000000 		.4byte	.LBE3-.LBB3
 1157 0717 20       		.uleb128 0x20
 1158 0718 76747000 		.ascii	"vtp\000"
 1159 071c 01       		.byte	0x1
 1160 071d 96       		.byte	0x96
 1161 071e C9030000 		.4byte	0x3c9
 1162 0722 00000000 		.4byte	.LLST0
 1163 0726 1F       		.uleb128 0x1f
 1164 0727 2A000000 		.4byte	.LBB4
 1165 072b 1A000000 		.4byte	.LBE4-.LBB4
 1166 072f 20       		.uleb128 0x20
 1167 0730 666E00   		.ascii	"fn\000"
 1168 0733 01       		.byte	0x1
 1169 0734 96       		.byte	0x96
 1170 0735 59030000 		.4byte	0x359
 1171 0739 1E000000 		.4byte	.LLST1
 1172 073d 21       		.uleb128 0x21
 1173 073e 00000000 		.4byte	.Ldebug_ranges0+0
 1174 0742 54070000 		.4byte	0x754
 1175 0746 1A       		.uleb128 0x1a
 1176 0747 746D7000 		.ascii	"tmp\000"
 1177 074b 01       		.byte	0x1
 1178 074c 96       		.byte	0x96
 1179 074d CE000000 		.4byte	0xce
 1180 0751 01       		.uleb128 0x1
 1181 0752 53       		.byte	0x53
 1182 0753 00       		.byte	0
 1183 0754 19       		.uleb128 0x19
 1184 0755 3E000000 		.4byte	.LBB7
 1185 0759 06000000 		.4byte	.LBE7-.LBB7
ARM GAS  /tmp/cch9rAWj.s 			page 22


 1186 075d 6F070000 		.4byte	0x76f
 1187 0761 1A       		.uleb128 0x1a
 1188 0762 746D7000 		.ascii	"tmp\000"
 1189 0766 01       		.byte	0x1
 1190 0767 96       		.byte	0x96
 1191 0768 CE000000 		.4byte	0xce
 1192 076c 01       		.uleb128 0x1
 1193 076d 53       		.byte	0x53
 1194 076e 00       		.byte	0
 1195 076f 22       		.uleb128 0x22
 1196 0770 3E000000 		.4byte	.LVL10
 1197 0774 02       		.uleb128 0x2
 1198 0775 75       		.byte	0x75
 1199 0776 00       		.sleb128 0
 1200 0777 00       		.byte	0
 1201 0778 00       		.byte	0
 1202 0779 00       		.byte	0
 1203 077a 23       		.uleb128 0x23
 1204 077b 3C000000 		.4byte	.LASF105
 1205 077f 09       		.byte	0x9
 1206 0780 F5       		.byte	0xf5
 1207 0781 0D040000 		.4byte	0x40d
 1208 0785 23       		.uleb128 0x23
 1209 0786 75050000 		.4byte	.LASF106
 1210 078a 0A       		.byte	0xa
 1211 078b 6F       		.byte	0x6f
 1212 078c 69040000 		.4byte	0x469
 1213 0790 23       		.uleb128 0x23
 1214 0791 E2010000 		.4byte	.LASF107
 1215 0795 0C       		.byte	0xc
 1216 0796 7E       		.byte	0x7e
 1217 0797 9B070000 		.4byte	0x79b
 1218 079b 12       		.uleb128 0x12
 1219 079c 14060000 		.4byte	0x614
 1220 07a0 14       		.uleb128 0x14
 1221 07a1 AA020000 		.4byte	0x2aa
 1222 07a5 B0070000 		.4byte	0x7b0
 1223 07a9 15       		.uleb128 0x15
 1224 07aa 52030000 		.4byte	0x352
 1225 07ae 1B       		.byte	0x1b
 1226 07af 00       		.byte	0
 1227 07b0 24       		.uleb128 0x24
 1228 07b1 62010000 		.4byte	.LASF108
 1229 07b5 01       		.byte	0x1
 1230 07b6 31       		.byte	0x31
 1231 07b7 A0070000 		.4byte	0x7a0
 1232 07bb 05       		.uleb128 0x5
 1233 07bc 03       		.byte	0x3
 1234 07bd 00000000 		.4byte	_idle_thread_wa
 1235 07c1 25       		.uleb128 0x25
 1236 07c2 83050000 		.4byte	.LASF109
 1237 07c6 08       		.byte	0x8
 1238 07c7 0202     		.2byte	0x202
 1239 07c9 26       		.uleb128 0x26
 1240 07ca A3000000 		.4byte	.LASF110
 1241 07ce 0A       		.byte	0xa
 1242 07cf 8E       		.byte	0x8e
ARM GAS  /tmp/cch9rAWj.s 			page 23


 1243 07d0 26       		.uleb128 0x26
 1244 07d1 26040000 		.4byte	.LASF111
 1245 07d5 09       		.byte	0x9
 1246 07d6 FD       		.byte	0xfd
 1247 07d7 26       		.uleb128 0x26
 1248 07d8 3E030000 		.4byte	.LASF112
 1249 07dc 0D       		.byte	0xd
 1250 07dd 51       		.byte	0x51
 1251 07de 26       		.uleb128 0x26
 1252 07df 98010000 		.4byte	.LASF113
 1253 07e3 0E       		.byte	0xe
 1254 07e4 55       		.byte	0x55
 1255 07e5 27       		.uleb128 0x27
 1256 07e6 B0010000 		.4byte	.LASF117
 1257 07ea 07       		.byte	0x7
 1258 07eb 6A01     		.2byte	0x16a
 1259 07ed 6C020000 		.4byte	0x26c
 1260 07f1 00080000 		.4byte	0x800
 1261 07f5 0E       		.uleb128 0xe
 1262 07f6 6C020000 		.4byte	0x26c
 1263 07fa 0E       		.uleb128 0xe
 1264 07fb 17010000 		.4byte	0x117
 1265 07ff 00       		.byte	0
 1266 0800 28       		.uleb128 0x28
 1267 0801 5C020000 		.4byte	.LASF118
 1268 0805 07       		.byte	0x7
 1269 0806 7001     		.2byte	0x170
 1270 0808 6C020000 		.4byte	0x26c
 1271 080c 0E       		.uleb128 0xe
 1272 080d A8020000 		.4byte	0x2a8
 1273 0811 0E       		.uleb128 0xe
 1274 0812 2C000000 		.4byte	0x2c
 1275 0816 0E       		.uleb128 0xe
 1276 0817 17010000 		.4byte	0x117
 1277 081b 0E       		.uleb128 0xe
 1278 081c 03050000 		.4byte	0x503
 1279 0820 0E       		.uleb128 0xe
 1280 0821 A8020000 		.4byte	0x2a8
 1281 0825 00       		.byte	0
 1282 0826 00       		.byte	0
 1283              		.section	.debug_abbrev,"",%progbits
 1284              	.Ldebug_abbrev0:
 1285 0000 01       		.uleb128 0x1
 1286 0001 11       		.uleb128 0x11
 1287 0002 01       		.byte	0x1
 1288 0003 25       		.uleb128 0x25
 1289 0004 0E       		.uleb128 0xe
 1290 0005 13       		.uleb128 0x13
 1291 0006 0B       		.uleb128 0xb
 1292 0007 03       		.uleb128 0x3
 1293 0008 0E       		.uleb128 0xe
 1294 0009 1B       		.uleb128 0x1b
 1295 000a 0E       		.uleb128 0xe
 1296 000b 55       		.uleb128 0x55
 1297 000c 17       		.uleb128 0x17
 1298 000d 11       		.uleb128 0x11
 1299 000e 01       		.uleb128 0x1
ARM GAS  /tmp/cch9rAWj.s 			page 24


 1300 000f 10       		.uleb128 0x10
 1301 0010 17       		.uleb128 0x17
 1302 0011 00       		.byte	0
 1303 0012 00       		.byte	0
 1304 0013 02       		.uleb128 0x2
 1305 0014 24       		.uleb128 0x24
 1306 0015 00       		.byte	0
 1307 0016 0B       		.uleb128 0xb
 1308 0017 0B       		.uleb128 0xb
 1309 0018 3E       		.uleb128 0x3e
 1310 0019 0B       		.uleb128 0xb
 1311 001a 03       		.uleb128 0x3
 1312 001b 08       		.uleb128 0x8
 1313 001c 00       		.byte	0
 1314 001d 00       		.byte	0
 1315 001e 03       		.uleb128 0x3
 1316 001f 16       		.uleb128 0x16
 1317 0020 00       		.byte	0
 1318 0021 03       		.uleb128 0x3
 1319 0022 0E       		.uleb128 0xe
 1320 0023 3A       		.uleb128 0x3a
 1321 0024 0B       		.uleb128 0xb
 1322 0025 3B       		.uleb128 0x3b
 1323 0026 0B       		.uleb128 0xb
 1324 0027 49       		.uleb128 0x49
 1325 0028 13       		.uleb128 0x13
 1326 0029 00       		.byte	0
 1327 002a 00       		.byte	0
 1328 002b 04       		.uleb128 0x4
 1329 002c 24       		.uleb128 0x24
 1330 002d 00       		.byte	0
 1331 002e 0B       		.uleb128 0xb
 1332 002f 0B       		.uleb128 0xb
 1333 0030 3E       		.uleb128 0x3e
 1334 0031 0B       		.uleb128 0xb
 1335 0032 03       		.uleb128 0x3
 1336 0033 0E       		.uleb128 0xe
 1337 0034 00       		.byte	0
 1338 0035 00       		.byte	0
 1339 0036 05       		.uleb128 0x5
 1340 0037 13       		.uleb128 0x13
 1341 0038 01       		.byte	0x1
 1342 0039 03       		.uleb128 0x3
 1343 003a 0E       		.uleb128 0xe
 1344 003b 0B       		.uleb128 0xb
 1345 003c 0B       		.uleb128 0xb
 1346 003d 3A       		.uleb128 0x3a
 1347 003e 0B       		.uleb128 0xb
 1348 003f 3B       		.uleb128 0x3b
 1349 0040 0B       		.uleb128 0xb
 1350 0041 01       		.uleb128 0x1
 1351 0042 13       		.uleb128 0x13
 1352 0043 00       		.byte	0
 1353 0044 00       		.byte	0
 1354 0045 06       		.uleb128 0x6
 1355 0046 0D       		.uleb128 0xd
 1356 0047 00       		.byte	0
ARM GAS  /tmp/cch9rAWj.s 			page 25


 1357 0048 03       		.uleb128 0x3
 1358 0049 0E       		.uleb128 0xe
 1359 004a 3A       		.uleb128 0x3a
 1360 004b 0B       		.uleb128 0xb
 1361 004c 3B       		.uleb128 0x3b
 1362 004d 0B       		.uleb128 0xb
 1363 004e 49       		.uleb128 0x49
 1364 004f 13       		.uleb128 0x13
 1365 0050 38       		.uleb128 0x38
 1366 0051 0B       		.uleb128 0xb
 1367 0052 00       		.byte	0
 1368 0053 00       		.byte	0
 1369 0054 07       		.uleb128 0x7
 1370 0055 0D       		.uleb128 0xd
 1371 0056 00       		.byte	0
 1372 0057 03       		.uleb128 0x3
 1373 0058 08       		.uleb128 0x8
 1374 0059 3A       		.uleb128 0x3a
 1375 005a 0B       		.uleb128 0xb
 1376 005b 3B       		.uleb128 0x3b
 1377 005c 0B       		.uleb128 0xb
 1378 005d 49       		.uleb128 0x49
 1379 005e 13       		.uleb128 0x13
 1380 005f 38       		.uleb128 0x38
 1381 0060 0B       		.uleb128 0xb
 1382 0061 00       		.byte	0
 1383 0062 00       		.byte	0
 1384 0063 08       		.uleb128 0x8
 1385 0064 13       		.uleb128 0x13
 1386 0065 01       		.byte	0x1
 1387 0066 0B       		.uleb128 0xb
 1388 0067 0B       		.uleb128 0xb
 1389 0068 3A       		.uleb128 0x3a
 1390 0069 0B       		.uleb128 0xb
 1391 006a 3B       		.uleb128 0x3b
 1392 006b 0B       		.uleb128 0xb
 1393 006c 01       		.uleb128 0x1
 1394 006d 13       		.uleb128 0x13
 1395 006e 00       		.byte	0
 1396 006f 00       		.byte	0
 1397 0070 09       		.uleb128 0x9
 1398 0071 0F       		.uleb128 0xf
 1399 0072 00       		.byte	0
 1400 0073 0B       		.uleb128 0xb
 1401 0074 0B       		.uleb128 0xb
 1402 0075 49       		.uleb128 0x49
 1403 0076 13       		.uleb128 0x13
 1404 0077 00       		.byte	0
 1405 0078 00       		.byte	0
 1406 0079 0A       		.uleb128 0xa
 1407 007a 0F       		.uleb128 0xf
 1408 007b 00       		.byte	0
 1409 007c 0B       		.uleb128 0xb
 1410 007d 0B       		.uleb128 0xb
 1411 007e 00       		.byte	0
 1412 007f 00       		.byte	0
 1413 0080 0B       		.uleb128 0xb
ARM GAS  /tmp/cch9rAWj.s 			page 26


 1414 0081 13       		.uleb128 0x13
 1415 0082 01       		.byte	0x1
 1416 0083 03       		.uleb128 0x3
 1417 0084 0E       		.uleb128 0xe
 1418 0085 0B       		.uleb128 0xb
 1419 0086 0B       		.uleb128 0xb
 1420 0087 3A       		.uleb128 0x3a
 1421 0088 0B       		.uleb128 0xb
 1422 0089 3B       		.uleb128 0x3b
 1423 008a 05       		.uleb128 0x5
 1424 008b 01       		.uleb128 0x1
 1425 008c 13       		.uleb128 0x13
 1426 008d 00       		.byte	0
 1427 008e 00       		.byte	0
 1428 008f 0C       		.uleb128 0xc
 1429 0090 0D       		.uleb128 0xd
 1430 0091 00       		.byte	0
 1431 0092 03       		.uleb128 0x3
 1432 0093 08       		.uleb128 0x8
 1433 0094 3A       		.uleb128 0x3a
 1434 0095 0B       		.uleb128 0xb
 1435 0096 3B       		.uleb128 0x3b
 1436 0097 05       		.uleb128 0x5
 1437 0098 49       		.uleb128 0x49
 1438 0099 13       		.uleb128 0x13
 1439 009a 38       		.uleb128 0x38
 1440 009b 0B       		.uleb128 0xb
 1441 009c 00       		.byte	0
 1442 009d 00       		.byte	0
 1443 009e 0D       		.uleb128 0xd
 1444 009f 15       		.uleb128 0x15
 1445 00a0 01       		.byte	0x1
 1446 00a1 27       		.uleb128 0x27
 1447 00a2 19       		.uleb128 0x19
 1448 00a3 01       		.uleb128 0x1
 1449 00a4 13       		.uleb128 0x13
 1450 00a5 00       		.byte	0
 1451 00a6 00       		.byte	0
 1452 00a7 0E       		.uleb128 0xe
 1453 00a8 05       		.uleb128 0x5
 1454 00a9 00       		.byte	0
 1455 00aa 49       		.uleb128 0x49
 1456 00ab 13       		.uleb128 0x13
 1457 00ac 00       		.byte	0
 1458 00ad 00       		.byte	0
 1459 00ae 0F       		.uleb128 0xf
 1460 00af 35       		.uleb128 0x35
 1461 00b0 00       		.byte	0
 1462 00b1 49       		.uleb128 0x49
 1463 00b2 13       		.uleb128 0x13
 1464 00b3 00       		.byte	0
 1465 00b4 00       		.byte	0
 1466 00b5 10       		.uleb128 0x10
 1467 00b6 17       		.uleb128 0x17
 1468 00b7 01       		.byte	0x1
 1469 00b8 0B       		.uleb128 0xb
 1470 00b9 0B       		.uleb128 0xb
ARM GAS  /tmp/cch9rAWj.s 			page 27


 1471 00ba 3A       		.uleb128 0x3a
 1472 00bb 0B       		.uleb128 0xb
 1473 00bc 3B       		.uleb128 0x3b
 1474 00bd 0B       		.uleb128 0xb
 1475 00be 01       		.uleb128 0x1
 1476 00bf 13       		.uleb128 0x13
 1477 00c0 00       		.byte	0
 1478 00c1 00       		.byte	0
 1479 00c2 11       		.uleb128 0x11
 1480 00c3 0D       		.uleb128 0xd
 1481 00c4 00       		.byte	0
 1482 00c5 03       		.uleb128 0x3
 1483 00c6 0E       		.uleb128 0xe
 1484 00c7 3A       		.uleb128 0x3a
 1485 00c8 0B       		.uleb128 0xb
 1486 00c9 3B       		.uleb128 0x3b
 1487 00ca 0B       		.uleb128 0xb
 1488 00cb 49       		.uleb128 0x49
 1489 00cc 13       		.uleb128 0x13
 1490 00cd 00       		.byte	0
 1491 00ce 00       		.byte	0
 1492 00cf 12       		.uleb128 0x12
 1493 00d0 26       		.uleb128 0x26
 1494 00d1 00       		.byte	0
 1495 00d2 49       		.uleb128 0x49
 1496 00d3 13       		.uleb128 0x13
 1497 00d4 00       		.byte	0
 1498 00d5 00       		.byte	0
 1499 00d6 13       		.uleb128 0x13
 1500 00d7 15       		.uleb128 0x15
 1501 00d8 01       		.byte	0x1
 1502 00d9 27       		.uleb128 0x27
 1503 00da 19       		.uleb128 0x19
 1504 00db 49       		.uleb128 0x49
 1505 00dc 13       		.uleb128 0x13
 1506 00dd 01       		.uleb128 0x1
 1507 00de 13       		.uleb128 0x13
 1508 00df 00       		.byte	0
 1509 00e0 00       		.byte	0
 1510 00e1 14       		.uleb128 0x14
 1511 00e2 01       		.uleb128 0x1
 1512 00e3 01       		.byte	0x1
 1513 00e4 49       		.uleb128 0x49
 1514 00e5 13       		.uleb128 0x13
 1515 00e6 01       		.uleb128 0x1
 1516 00e7 13       		.uleb128 0x13
 1517 00e8 00       		.byte	0
 1518 00e9 00       		.byte	0
 1519 00ea 15       		.uleb128 0x15
 1520 00eb 21       		.uleb128 0x21
 1521 00ec 00       		.byte	0
 1522 00ed 49       		.uleb128 0x49
 1523 00ee 13       		.uleb128 0x13
 1524 00ef 2F       		.uleb128 0x2f
 1525 00f0 0B       		.uleb128 0xb
 1526 00f1 00       		.byte	0
 1527 00f2 00       		.byte	0
ARM GAS  /tmp/cch9rAWj.s 			page 28


 1528 00f3 16       		.uleb128 0x16
 1529 00f4 2E       		.uleb128 0x2e
 1530 00f5 01       		.byte	0x1
 1531 00f6 3F       		.uleb128 0x3f
 1532 00f7 19       		.uleb128 0x19
 1533 00f8 03       		.uleb128 0x3
 1534 00f9 0E       		.uleb128 0xe
 1535 00fa 3A       		.uleb128 0x3a
 1536 00fb 0B       		.uleb128 0xb
 1537 00fc 3B       		.uleb128 0x3b
 1538 00fd 0B       		.uleb128 0xb
 1539 00fe 27       		.uleb128 0x27
 1540 00ff 19       		.uleb128 0x19
 1541 0100 11       		.uleb128 0x11
 1542 0101 01       		.uleb128 0x1
 1543 0102 12       		.uleb128 0x12
 1544 0103 06       		.uleb128 0x6
 1545 0104 40       		.uleb128 0x40
 1546 0105 18       		.uleb128 0x18
 1547 0106 9742     		.uleb128 0x2117
 1548 0108 19       		.uleb128 0x19
 1549 0109 01       		.uleb128 0x1
 1550 010a 13       		.uleb128 0x13
 1551 010b 00       		.byte	0
 1552 010c 00       		.byte	0
 1553 010d 17       		.uleb128 0x17
 1554 010e 05       		.uleb128 0x5
 1555 010f 00       		.byte	0
 1556 0110 03       		.uleb128 0x3
 1557 0111 08       		.uleb128 0x8
 1558 0112 3A       		.uleb128 0x3a
 1559 0113 0B       		.uleb128 0xb
 1560 0114 3B       		.uleb128 0x3b
 1561 0115 0B       		.uleb128 0xb
 1562 0116 49       		.uleb128 0x49
 1563 0117 13       		.uleb128 0x13
 1564 0118 02       		.uleb128 0x2
 1565 0119 18       		.uleb128 0x18
 1566 011a 00       		.byte	0
 1567 011b 00       		.byte	0
 1568 011c 18       		.uleb128 0x18
 1569 011d 34       		.uleb128 0x34
 1570 011e 00       		.byte	0
 1571 011f 03       		.uleb128 0x3
 1572 0120 0E       		.uleb128 0xe
 1573 0121 3A       		.uleb128 0x3a
 1574 0122 0B       		.uleb128 0xb
 1575 0123 3B       		.uleb128 0x3b
 1576 0124 0B       		.uleb128 0xb
 1577 0125 49       		.uleb128 0x49
 1578 0126 13       		.uleb128 0x13
 1579 0127 02       		.uleb128 0x2
 1580 0128 18       		.uleb128 0x18
 1581 0129 00       		.byte	0
 1582 012a 00       		.byte	0
 1583 012b 19       		.uleb128 0x19
 1584 012c 0B       		.uleb128 0xb
ARM GAS  /tmp/cch9rAWj.s 			page 29


 1585 012d 01       		.byte	0x1
 1586 012e 11       		.uleb128 0x11
 1587 012f 01       		.uleb128 0x1
 1588 0130 12       		.uleb128 0x12
 1589 0131 06       		.uleb128 0x6
 1590 0132 01       		.uleb128 0x1
 1591 0133 13       		.uleb128 0x13
 1592 0134 00       		.byte	0
 1593 0135 00       		.byte	0
 1594 0136 1A       		.uleb128 0x1a
 1595 0137 34       		.uleb128 0x34
 1596 0138 00       		.byte	0
 1597 0139 03       		.uleb128 0x3
 1598 013a 08       		.uleb128 0x8
 1599 013b 3A       		.uleb128 0x3a
 1600 013c 0B       		.uleb128 0xb
 1601 013d 3B       		.uleb128 0x3b
 1602 013e 0B       		.uleb128 0xb
 1603 013f 49       		.uleb128 0x49
 1604 0140 13       		.uleb128 0x13
 1605 0141 02       		.uleb128 0x2
 1606 0142 18       		.uleb128 0x18
 1607 0143 00       		.byte	0
 1608 0144 00       		.byte	0
 1609 0145 1B       		.uleb128 0x1b
 1610 0146 898201   		.uleb128 0x4109
 1611 0149 00       		.byte	0
 1612 014a 11       		.uleb128 0x11
 1613 014b 01       		.uleb128 0x1
 1614 014c 31       		.uleb128 0x31
 1615 014d 13       		.uleb128 0x13
 1616 014e 00       		.byte	0
 1617 014f 00       		.byte	0
 1618 0150 1C       		.uleb128 0x1c
 1619 0151 898201   		.uleb128 0x4109
 1620 0154 01       		.byte	0x1
 1621 0155 11       		.uleb128 0x11
 1622 0156 01       		.uleb128 0x1
 1623 0157 31       		.uleb128 0x31
 1624 0158 13       		.uleb128 0x13
 1625 0159 01       		.uleb128 0x1
 1626 015a 13       		.uleb128 0x13
 1627 015b 00       		.byte	0
 1628 015c 00       		.byte	0
 1629 015d 1D       		.uleb128 0x1d
 1630 015e 8A8201   		.uleb128 0x410a
 1631 0161 00       		.byte	0
 1632 0162 02       		.uleb128 0x2
 1633 0163 18       		.uleb128 0x18
 1634 0164 9142     		.uleb128 0x2111
 1635 0166 18       		.uleb128 0x18
 1636 0167 00       		.byte	0
 1637 0168 00       		.byte	0
 1638 0169 1E       		.uleb128 0x1e
 1639 016a 898201   		.uleb128 0x4109
 1640 016d 01       		.byte	0x1
 1641 016e 11       		.uleb128 0x11
ARM GAS  /tmp/cch9rAWj.s 			page 30


 1642 016f 01       		.uleb128 0x1
 1643 0170 31       		.uleb128 0x31
 1644 0171 13       		.uleb128 0x13
 1645 0172 00       		.byte	0
 1646 0173 00       		.byte	0
 1647 0174 1F       		.uleb128 0x1f
 1648 0175 0B       		.uleb128 0xb
 1649 0176 01       		.byte	0x1
 1650 0177 11       		.uleb128 0x11
 1651 0178 01       		.uleb128 0x1
 1652 0179 12       		.uleb128 0x12
 1653 017a 06       		.uleb128 0x6
 1654 017b 00       		.byte	0
 1655 017c 00       		.byte	0
 1656 017d 20       		.uleb128 0x20
 1657 017e 34       		.uleb128 0x34
 1658 017f 00       		.byte	0
 1659 0180 03       		.uleb128 0x3
 1660 0181 08       		.uleb128 0x8
 1661 0182 3A       		.uleb128 0x3a
 1662 0183 0B       		.uleb128 0xb
 1663 0184 3B       		.uleb128 0x3b
 1664 0185 0B       		.uleb128 0xb
 1665 0186 49       		.uleb128 0x49
 1666 0187 13       		.uleb128 0x13
 1667 0188 02       		.uleb128 0x2
 1668 0189 17       		.uleb128 0x17
 1669 018a 00       		.byte	0
 1670 018b 00       		.byte	0
 1671 018c 21       		.uleb128 0x21
 1672 018d 0B       		.uleb128 0xb
 1673 018e 01       		.byte	0x1
 1674 018f 55       		.uleb128 0x55
 1675 0190 17       		.uleb128 0x17
 1676 0191 01       		.uleb128 0x1
 1677 0192 13       		.uleb128 0x13
 1678 0193 00       		.byte	0
 1679 0194 00       		.byte	0
 1680 0195 22       		.uleb128 0x22
 1681 0196 898201   		.uleb128 0x4109
 1682 0199 00       		.byte	0
 1683 019a 11       		.uleb128 0x11
 1684 019b 01       		.uleb128 0x1
 1685 019c 9342     		.uleb128 0x2113
 1686 019e 18       		.uleb128 0x18
 1687 019f 00       		.byte	0
 1688 01a0 00       		.byte	0
 1689 01a1 23       		.uleb128 0x23
 1690 01a2 34       		.uleb128 0x34
 1691 01a3 00       		.byte	0
 1692 01a4 03       		.uleb128 0x3
 1693 01a5 0E       		.uleb128 0xe
 1694 01a6 3A       		.uleb128 0x3a
 1695 01a7 0B       		.uleb128 0xb
 1696 01a8 3B       		.uleb128 0x3b
 1697 01a9 0B       		.uleb128 0xb
 1698 01aa 49       		.uleb128 0x49
ARM GAS  /tmp/cch9rAWj.s 			page 31


 1699 01ab 13       		.uleb128 0x13
 1700 01ac 3F       		.uleb128 0x3f
 1701 01ad 19       		.uleb128 0x19
 1702 01ae 3C       		.uleb128 0x3c
 1703 01af 19       		.uleb128 0x19
 1704 01b0 00       		.byte	0
 1705 01b1 00       		.byte	0
 1706 01b2 24       		.uleb128 0x24
 1707 01b3 34       		.uleb128 0x34
 1708 01b4 00       		.byte	0
 1709 01b5 03       		.uleb128 0x3
 1710 01b6 0E       		.uleb128 0xe
 1711 01b7 3A       		.uleb128 0x3a
 1712 01b8 0B       		.uleb128 0xb
 1713 01b9 3B       		.uleb128 0x3b
 1714 01ba 0B       		.uleb128 0xb
 1715 01bb 49       		.uleb128 0x49
 1716 01bc 13       		.uleb128 0x13
 1717 01bd 3F       		.uleb128 0x3f
 1718 01be 19       		.uleb128 0x19
 1719 01bf 02       		.uleb128 0x2
 1720 01c0 18       		.uleb128 0x18
 1721 01c1 00       		.byte	0
 1722 01c2 00       		.byte	0
 1723 01c3 25       		.uleb128 0x25
 1724 01c4 2E       		.uleb128 0x2e
 1725 01c5 00       		.byte	0
 1726 01c6 3F       		.uleb128 0x3f
 1727 01c7 19       		.uleb128 0x19
 1728 01c8 03       		.uleb128 0x3
 1729 01c9 0E       		.uleb128 0xe
 1730 01ca 3A       		.uleb128 0x3a
 1731 01cb 0B       		.uleb128 0xb
 1732 01cc 3B       		.uleb128 0x3b
 1733 01cd 05       		.uleb128 0x5
 1734 01ce 27       		.uleb128 0x27
 1735 01cf 19       		.uleb128 0x19
 1736 01d0 3C       		.uleb128 0x3c
 1737 01d1 19       		.uleb128 0x19
 1738 01d2 00       		.byte	0
 1739 01d3 00       		.byte	0
 1740 01d4 26       		.uleb128 0x26
 1741 01d5 2E       		.uleb128 0x2e
 1742 01d6 00       		.byte	0
 1743 01d7 3F       		.uleb128 0x3f
 1744 01d8 19       		.uleb128 0x19
 1745 01d9 03       		.uleb128 0x3
 1746 01da 0E       		.uleb128 0xe
 1747 01db 3A       		.uleb128 0x3a
 1748 01dc 0B       		.uleb128 0xb
 1749 01dd 3B       		.uleb128 0x3b
 1750 01de 0B       		.uleb128 0xb
 1751 01df 27       		.uleb128 0x27
 1752 01e0 19       		.uleb128 0x19
 1753 01e1 3C       		.uleb128 0x3c
 1754 01e2 19       		.uleb128 0x19
 1755 01e3 00       		.byte	0
ARM GAS  /tmp/cch9rAWj.s 			page 32


 1756 01e4 00       		.byte	0
 1757 01e5 27       		.uleb128 0x27
 1758 01e6 2E       		.uleb128 0x2e
 1759 01e7 01       		.byte	0x1
 1760 01e8 3F       		.uleb128 0x3f
 1761 01e9 19       		.uleb128 0x19
 1762 01ea 03       		.uleb128 0x3
 1763 01eb 0E       		.uleb128 0xe
 1764 01ec 3A       		.uleb128 0x3a
 1765 01ed 0B       		.uleb128 0xb
 1766 01ee 3B       		.uleb128 0x3b
 1767 01ef 05       		.uleb128 0x5
 1768 01f0 27       		.uleb128 0x27
 1769 01f1 19       		.uleb128 0x19
 1770 01f2 49       		.uleb128 0x49
 1771 01f3 13       		.uleb128 0x13
 1772 01f4 3C       		.uleb128 0x3c
 1773 01f5 19       		.uleb128 0x19
 1774 01f6 01       		.uleb128 0x1
 1775 01f7 13       		.uleb128 0x13
 1776 01f8 00       		.byte	0
 1777 01f9 00       		.byte	0
 1778 01fa 28       		.uleb128 0x28
 1779 01fb 2E       		.uleb128 0x2e
 1780 01fc 01       		.byte	0x1
 1781 01fd 3F       		.uleb128 0x3f
 1782 01fe 19       		.uleb128 0x19
 1783 01ff 03       		.uleb128 0x3
 1784 0200 0E       		.uleb128 0xe
 1785 0201 3A       		.uleb128 0x3a
 1786 0202 0B       		.uleb128 0xb
 1787 0203 3B       		.uleb128 0x3b
 1788 0204 05       		.uleb128 0x5
 1789 0205 27       		.uleb128 0x27
 1790 0206 19       		.uleb128 0x19
 1791 0207 49       		.uleb128 0x49
 1792 0208 13       		.uleb128 0x13
 1793 0209 3C       		.uleb128 0x3c
 1794 020a 19       		.uleb128 0x19
 1795 020b 00       		.byte	0
 1796 020c 00       		.byte	0
 1797 020d 00       		.byte	0
 1798              		.section	.debug_loc,"",%progbits
 1799              	.Ldebug_loc0:
 1800              	.LLST0:
 1801 0000 28000000 		.4byte	.LVL8
 1802 0004 3D000000 		.4byte	.LVL10-1
 1803 0008 0100     		.2byte	0x1
 1804 000a 52       		.byte	0x52
 1805 000b 46000000 		.4byte	.LVL11
 1806 000f 4C000000 		.4byte	.LVL12
 1807 0013 0100     		.2byte	0x1
 1808 0015 52       		.byte	0x52
 1809 0016 00000000 		.4byte	0
 1810 001a 00000000 		.4byte	0
 1811              	.LLST1:
 1812 001e 2E000000 		.4byte	.LVL9
ARM GAS  /tmp/cch9rAWj.s 			page 33


 1813 0022 4C000000 		.4byte	.LVL12
 1814 0026 0100     		.2byte	0x1
 1815 0028 55       		.byte	0x55
 1816 0029 00000000 		.4byte	0
 1817 002d 00000000 		.4byte	0
 1818              		.section	.debug_aranges,"",%progbits
 1819 0000 2C000000 		.4byte	0x2c
 1820 0004 0200     		.2byte	0x2
 1821 0006 00000000 		.4byte	.Ldebug_info0
 1822 000a 04       		.byte	0x4
 1823 000b 00       		.byte	0
 1824 000c 0000     		.2byte	0
 1825 000e 0000     		.2byte	0
 1826 0010 00000000 		.4byte	.LFB7
 1827 0014 14000000 		.4byte	.LFE7-.LFB7
 1828 0018 00000000 		.4byte	.LFB8
 1829 001c 5C000000 		.4byte	.LFE8-.LFB8
 1830 0020 00000000 		.4byte	.LFB9
 1831 0024 58000000 		.4byte	.LFE9-.LFB9
 1832 0028 00000000 		.4byte	0
 1833 002c 00000000 		.4byte	0
 1834              		.section	.debug_ranges,"",%progbits
 1835              	.Ldebug_ranges0:
 1836 0000 32000000 		.4byte	.LBB5
 1837 0004 34000000 		.4byte	.LBE5
 1838 0008 36000000 		.4byte	.LBB6
 1839 000c 3A000000 		.4byte	.LBE6
 1840 0010 00000000 		.4byte	0
 1841 0014 00000000 		.4byte	0
 1842 0018 00000000 		.4byte	.LFB7
 1843 001c 14000000 		.4byte	.LFE7
 1844 0020 00000000 		.4byte	.LFB8
 1845 0024 5C000000 		.4byte	.LFE8
 1846 0028 00000000 		.4byte	.LFB9
 1847 002c 58000000 		.4byte	.LFE9
 1848 0030 00000000 		.4byte	0
 1849 0034 00000000 		.4byte	0
 1850              		.section	.debug_line,"",%progbits
 1851              	.Ldebug_line0:
 1852 0000 0C020000 		.section	.debug_str,"MS",%progbits,1
 1852      0200B801 
 1852      00000201 
 1852      FB0E0D00 
 1852      01010101 
 1853              	.LASF81:
 1854 0000 7466756E 		.ascii	"tfunc_t\000"
 1854      635F7400 
 1855              	.LASF92:
 1856 0008 63665F6F 		.ascii	"cf_off_older\000"
 1856      66665F6F 
 1856      6C646572 
 1856      00
 1857              	.LASF44:
 1858 0015 705F6D73 		.ascii	"p_msg\000"
 1858      6700
 1859              	.LASF2:
 1860 001b 73697A65 		.ascii	"size_t\000"
ARM GAS  /tmp/cch9rAWj.s 			page 34


 1860      5F7400
 1861              	.LASF76:
 1862 0022 7264796D 		.ascii	"rdymsg\000"
 1862      736700
 1863              	.LASF19:
 1864 0029 75696E74 		.ascii	"uint64_t\000"
 1864      36345F74 
 1864      00
 1865              	.LASF3:
 1866 0032 5F5F7569 		.ascii	"__uint8_t\000"
 1866      6E74385F 
 1866      7400
 1867              	.LASF105:
 1868 003c 76746C69 		.ascii	"vtlist\000"
 1868      737400
 1869              	.LASF104:
 1870 0043 63685379 		.ascii	"chSysTimerHandlerI\000"
 1870      7354696D 
 1870      65724861 
 1870      6E646C65 
 1870      724900
 1871              	.LASF14:
 1872 0056 6C6F6E67 		.ascii	"long long unsigned int\000"
 1872      206C6F6E 
 1872      6720756E 
 1872      7369676E 
 1872      65642069 
 1873              	.LASF88:
 1874 006d 63685F74 		.ascii	"ch_threadsize\000"
 1874      68726561 
 1874      6473697A 
 1874      6500
 1875              	.LASF77:
 1876 007b 65786974 		.ascii	"exitcode\000"
 1876      636F6465 
 1876      00
 1877              	.LASF103:
 1878 0084 6D61696E 		.ascii	"mainthread\000"
 1878      74687265 
 1878      616400
 1879              	.LASF32:
 1880 008f 705F7072 		.ascii	"p_prio\000"
 1880      696F00
 1881              	.LASF95:
 1882 0096 63665F6F 		.ascii	"cf_off_state\000"
 1882      66665F73 
 1882      74617465 
 1882      00
 1883              	.LASF110:
 1884 00a3 5F736368 		.ascii	"_scheduler_init\000"
 1884      6564756C 
 1884      65725F69 
 1884      6E697400 
 1885              	.LASF12:
 1886 00b3 6C6F6E67 		.ascii	"long long int\000"
 1886      206C6F6E 
 1886      6720696E 
ARM GAS  /tmp/cch9rAWj.s 			page 35


 1886      7400
 1887              	.LASF1:
 1888 00c1 7369676E 		.ascii	"signed char\000"
 1888      65642063 
 1888      68617200 
 1889              	.LASF94:
 1890 00cd 63665F6F 		.ascii	"cf_off_stklimit\000"
 1890      66665F73 
 1890      746B6C69 
 1890      6D697400 
 1891              	.LASF96:
 1892 00dd 63665F6F 		.ascii	"cf_off_flags\000"
 1892      66665F66 
 1892      6C616773 
 1892      00
 1893              	.LASF48:
 1894 00ea 705F6D70 		.ascii	"p_mpool\000"
 1894      6F6F6C00 
 1895              	.LASF73:
 1896 00f2 6D5F7175 		.ascii	"m_queue\000"
 1896      65756500 
 1897              	.LASF24:
 1898 00fa 74736C69 		.ascii	"tslices_t\000"
 1898      6365735F 
 1898      7400
 1899              	.LASF9:
 1900 0104 6C6F6E67 		.ascii	"long int\000"
 1900      20696E74 
 1900      00
 1901              	.LASF22:
 1902 010d 74737461 		.ascii	"tstate_t\000"
 1902      74655F74 
 1902      00
 1903              	.LASF116:
 1904 0116 2F686F6D 		.ascii	"/home/terence/el6483-cyh316/6-rtos/rtos-priority\000"
 1904      652F7465 
 1904      72656E63 
 1904      652F656C 
 1904      36343833 
 1905              	.LASF16:
 1906 0147 75696E74 		.ascii	"uint16_t\000"
 1906      31365F74 
 1906      00
 1907              	.LASF100:
 1908 0150 63686465 		.ascii	"chdebug_t\000"
 1908      6275675F 
 1908      7400
 1909              	.LASF34:
 1910 015a 705F6E65 		.ascii	"p_newer\000"
 1910      77657200 
 1911              	.LASF108:
 1912 0162 5F69646C 		.ascii	"_idle_thread_wa\000"
 1912      655F7468 
 1912      72656164 
 1912      5F776100 
 1913              	.LASF10:
 1914 0172 5F5F7569 		.ascii	"__uint32_t\000"
ARM GAS  /tmp/cch9rAWj.s 			page 36


 1914      6E743332 
 1914      5F7400
 1915              	.LASF51:
 1916 017d 72656761 		.ascii	"regarm_t\000"
 1916      726D5F74 
 1916      00
 1917              	.LASF59:
 1918 0186 76745F70 		.ascii	"vt_prev\000"
 1918      72657600 
 1919              	.LASF102:
 1920 018e 63685379 		.ascii	"chSysInit\000"
 1920      73496E69 
 1920      7400
 1921              	.LASF113:
 1922 0198 5F686561 		.ascii	"_heap_init\000"
 1922      705F696E 
 1922      697400
 1923              	.LASF0:
 1924 01a3 756E7369 		.ascii	"unsigned int\000"
 1924      676E6564 
 1924      20696E74 
 1924      00
 1925              	.LASF117:
 1926 01b0 5F746872 		.ascii	"_thread_init\000"
 1926      6561645F 
 1926      696E6974 
 1926      00
 1927              	.LASF58:
 1928 01bd 76745F6E 		.ascii	"vt_next\000"
 1928      65787400 
 1929              	.LASF43:
 1930 01c5 705F6D73 		.ascii	"p_msgqueue\000"
 1930      67717565 
 1930      756500
 1931              	.LASF11:
 1932 01d0 6C6F6E67 		.ascii	"long unsigned int\000"
 1932      20756E73 
 1932      69676E65 
 1932      6420696E 
 1932      7400
 1933              	.LASF107:
 1934 01e2 63685F64 		.ascii	"ch_debug\000"
 1934      65627567 
 1934      00
 1935              	.LASF56:
 1936 01eb 76746675 		.ascii	"vtfunc_t\000"
 1936      6E635F74 
 1936      00
 1937              	.LASF82:
 1938 01f4 63685F69 		.ascii	"ch_identifier\000"
 1938      64656E74 
 1938      69666965 
 1938      7200
 1939              	.LASF54:
 1940 0202 636F6E74 		.ascii	"context\000"
 1940      65787400 
 1941              	.LASF7:
ARM GAS  /tmp/cch9rAWj.s 			page 37


 1942 020a 73686F72 		.ascii	"short unsigned int\000"
 1942      7420756E 
 1942      7369676E 
 1942      65642069 
 1942      6E7400
 1943              	.LASF26:
 1944 021d 6D73675F 		.ascii	"msg_t\000"
 1944      7400
 1945              	.LASF68:
 1946 0223 725F6E65 		.ascii	"r_newer\000"
 1946      77657200 
 1947              	.LASF21:
 1948 022b 746D6F64 		.ascii	"tmode_t\000"
 1948      655F7400 
 1949              	.LASF50:
 1950 0233 54687265 		.ascii	"ThreadsList\000"
 1950      6164734C 
 1950      69737400 
 1951              	.LASF27:
 1952 023f 6576656E 		.ascii	"eventmask_t\000"
 1952      746D6173 
 1952      6B5F7400 
 1953              	.LASF72:
 1954 024b 4D757465 		.ascii	"Mutex\000"
 1954      7800
 1955              	.LASF52:
 1956 0251 73746B61 		.ascii	"stkalign_t\000"
 1956      6C69676E 
 1956      5F7400
 1957              	.LASF118:
 1958 025c 63685468 		.ascii	"chThdCreateStatic\000"
 1958      64437265 
 1958      61746553 
 1958      74617469 
 1958      6300
 1959              	.LASF83:
 1960 026e 63685F7A 		.ascii	"ch_zero\000"
 1960      65726F00 
 1961              	.LASF97:
 1962 0276 63665F6F 		.ascii	"cf_off_refs\000"
 1962      66665F72 
 1962      65667300 
 1963              	.LASF60:
 1964 0282 76745F74 		.ascii	"vt_time\000"
 1964      696D6500 
 1965              	.LASF55:
 1966 028a 73697A65 		.ascii	"sizetype\000"
 1966      74797065 
 1966      00
 1967              	.LASF61:
 1968 0293 76745F66 		.ascii	"vt_func\000"
 1968      756E6300 
 1969              	.LASF87:
 1970 029b 63685F74 		.ascii	"ch_timesize\000"
 1970      696D6573 
 1970      697A6500 
 1971              	.LASF93:
ARM GAS  /tmp/cch9rAWj.s 			page 38


 1972 02a7 63665F6F 		.ascii	"cf_off_name\000"
 1972      66665F6E 
 1972      616D6500 
 1973              	.LASF35:
 1974 02b3 705F6F6C 		.ascii	"p_older\000"
 1974      64657200 
 1975              	.LASF67:
 1976 02bb 725F6374 		.ascii	"r_ctx\000"
 1976      7800
 1977              	.LASF49:
 1978 02c1 54687265 		.ascii	"ThreadsQueue\000"
 1978      61647351 
 1978      75657565 
 1978      00
 1979              	.LASF84:
 1980 02ce 63685F73 		.ascii	"ch_size\000"
 1980      697A6500 
 1981              	.LASF70:
 1982 02d6 725F6375 		.ascii	"r_current\000"
 1982      7272656E 
 1982      7400
 1983              	.LASF69:
 1984 02e0 725F6F6C 		.ascii	"r_older\000"
 1984      64657200 
 1985              	.LASF101:
 1986 02e8 5F69646C 		.ascii	"_idle_thread\000"
 1986      655F7468 
 1986      72656164 
 1986      00
 1987              	.LASF13:
 1988 02f5 5F5F7569 		.ascii	"__uint64_t\000"
 1988      6E743634 
 1988      5F7400
 1989              	.LASF23:
 1990 0300 74726566 		.ascii	"trefs_t\000"
 1990      735F7400 
 1991              	.LASF86:
 1992 0308 63685F70 		.ascii	"ch_ptrsize\000"
 1992      74727369 
 1992      7A6500
 1993              	.LASF31:
 1994 0313 705F7072 		.ascii	"p_prev\000"
 1994      657600
 1995              	.LASF25:
 1996 031a 74707269 		.ascii	"tprio_t\000"
 1996      6F5F7400 
 1997              	.LASF20:
 1998 0322 5F426F6F 		.ascii	"_Bool\000"
 1998      6C00
 1999              	.LASF17:
 2000 0328 696E7433 		.ascii	"int32_t\000"
 2000      325F7400 
 2001              	.LASF4:
 2002 0330 756E7369 		.ascii	"unsigned char\000"
 2002      676E6564 
 2002      20636861 
 2002      7200
ARM GAS  /tmp/cch9rAWj.s 			page 39


 2003              	.LASF112:
 2004 033e 5F636F72 		.ascii	"_core_init\000"
 2004      655F696E 
 2004      697400
 2005              	.LASF46:
 2006 0349 705F6D74 		.ascii	"p_mtxlist\000"
 2006      786C6973 
 2006      7400
 2007              	.LASF5:
 2008 0353 73686F72 		.ascii	"short int\000"
 2008      7420696E 
 2008      7400
 2009              	.LASF37:
 2010 035d 705F7374 		.ascii	"p_state\000"
 2010      61746500 
 2011              	.LASF40:
 2012 0365 705F7072 		.ascii	"p_preempt\000"
 2012      65656D70 
 2012      7400
 2013              	.LASF99:
 2014 036f 63665F6F 		.ascii	"cf_off_time\000"
 2014      66665F74 
 2014      696D6500 
 2015              	.LASF66:
 2016 037b 725F7072 		.ascii	"r_prio\000"
 2016      696F00
 2017              	.LASF79:
 2018 0382 65776D61 		.ascii	"ewmask\000"
 2018      736B00
 2019              	.LASF30:
 2020 0389 705F6E65 		.ascii	"p_next\000"
 2020      787400
 2021              	.LASF98:
 2022 0390 63665F6F 		.ascii	"cf_off_preempt\000"
 2022      66665F70 
 2022      7265656D 
 2022      707400
 2023              	.LASF38:
 2024 039f 705F666C 		.ascii	"p_flags\000"
 2024      61677300 
 2025              	.LASF29:
 2026 03a7 54687265 		.ascii	"Thread\000"
 2026      616400
 2027              	.LASF91:
 2028 03ae 63665F6F 		.ascii	"cf_off_newer\000"
 2028      66665F6E 
 2028      65776572 
 2028      00
 2029              	.LASF45:
 2030 03bb 705F6570 		.ascii	"p_epending\000"
 2030      656E6469 
 2030      6E6700
 2031              	.LASF18:
 2032 03c6 75696E74 		.ascii	"uint32_t\000"
 2032      33325F74 
 2032      00
 2033              	.LASF89:
ARM GAS  /tmp/cch9rAWj.s 			page 40


 2034 03cf 63665F6F 		.ascii	"cf_off_prio\000"
 2034      66665F70 
 2034      72696F00 
 2035              	.LASF65:
 2036 03db 725F7175 		.ascii	"r_queue\000"
 2036      65756500 
 2037              	.LASF57:
 2038 03e3 56697274 		.ascii	"VirtualTimer\000"
 2038      75616C54 
 2038      696D6572 
 2038      00
 2039              	.LASF80:
 2040 03f0 63686172 		.ascii	"char\000"
 2040      00
 2041              	.LASF6:
 2042 03f5 5F5F7569 		.ascii	"__uint16_t\000"
 2042      6E743136 
 2042      5F7400
 2043              	.LASF75:
 2044 0400 6D5F6E65 		.ascii	"m_next\000"
 2044      787400
 2045              	.LASF28:
 2046 0407 73797374 		.ascii	"systime_t\000"
 2046      696D655F 
 2046      7400
 2047              	.LASF47:
 2048 0411 705F7265 		.ascii	"p_realprio\000"
 2048      616C7072 
 2048      696F00
 2049              	.LASF8:
 2050 041c 5F5F696E 		.ascii	"__int32_t\000"
 2050      7433325F 
 2050      7400
 2051              	.LASF111:
 2052 0426 5F76745F 		.ascii	"_vt_init\000"
 2052      696E6974 
 2052      00
 2053              	.LASF41:
 2054 042f 705F7469 		.ascii	"p_time\000"
 2054      6D6500
 2055              	.LASF53:
 2056 0436 696E7463 		.ascii	"intctx\000"
 2056      747800
 2057              	.LASF115:
 2058 043d 2E2E2F43 		.ascii	"../ChibiOS_2.6.7_minified/os/kernel/src/chsys.c\000"
 2058      68696269 
 2058      4F535F32 
 2058      2E362E37 
 2058      5F6D696E 
 2059              	.LASF62:
 2060 046d 76745F70 		.ascii	"vt_par\000"
 2060      617200
 2061              	.LASF114:
 2062 0474 474E5520 		.ascii	"GNU C 4.8.4 20140526 (release) [ARM/embedded-4_8-br"
 2062      4320342E 
 2062      382E3420 
 2062      32303134 
ARM GAS  /tmp/cch9rAWj.s 			page 41


 2062      30353236 
 2063 04a7 616E6368 		.ascii	"anch revision 211358] -mcpu=cortex-m4 -mno-thumb-in"
 2063      20726576 
 2063      6973696F 
 2063      6E203231 
 2063      31333538 
 2064 04da 74657277 		.ascii	"terwork -mthumb -ggdb -O2 -std=gnu99 -fomit-frame-p"
 2064      6F726B20 
 2064      2D6D7468 
 2064      756D6220 
 2064      2D676764 
 2065 050d 6F696E74 		.ascii	"ointer -falign-functions=16 -ffunction-sections -fd"
 2065      6572202D 
 2065      66616C69 
 2065      676E2D66 
 2065      756E6374 
 2066 0540 6174612D 		.ascii	"ata-sections -fno-common\000"
 2066      73656374 
 2066      696F6E73 
 2066      202D666E 
 2066      6F2D636F 
 2067              	.LASF90:
 2068 0559 63665F6F 		.ascii	"cf_off_ctx\000"
 2068      66665F63 
 2068      747800
 2069              	.LASF39:
 2070 0564 705F7265 		.ascii	"p_refs\000"
 2070      667300
 2071              	.LASF71:
 2072 056b 52656164 		.ascii	"ReadyList\000"
 2072      794C6973 
 2072      7400
 2073              	.LASF106:
 2074 0575 726C6973 		.ascii	"rlist\000"
 2074      7400
 2075              	.LASF15:
 2076 057b 75696E74 		.ascii	"uint8_t\000"
 2076      385F7400 
 2077              	.LASF109:
 2078 0583 5F706F72 		.ascii	"_port_init\000"
 2078      745F696E 
 2078      697400
 2079              	.LASF78:
 2080 058e 77746F62 		.ascii	"wtobjp\000"
 2080      6A7000
 2081              	.LASF36:
 2082 0595 705F6E61 		.ascii	"p_name\000"
 2082      6D6500
 2083              	.LASF63:
 2084 059c 76745F73 		.ascii	"vt_systime\000"
 2084      79737469 
 2084      6D6500
 2085              	.LASF85:
 2086 05a7 63685F76 		.ascii	"ch_version\000"
 2086      65727369 
 2086      6F6E00
 2087              	.LASF64:
ARM GAS  /tmp/cch9rAWj.s 			page 42


 2088 05b2 56544C69 		.ascii	"VTList\000"
 2088      737400
 2089              	.LASF74:
 2090 05b9 6D5F6F77 		.ascii	"m_owner\000"
 2090      6E657200 
 2091              	.LASF33:
 2092 05c1 705F6374 		.ascii	"p_ctx\000"
 2092      7800
 2093              	.LASF42:
 2094 05c7 705F7761 		.ascii	"p_waiting\000"
 2094      6974696E 
 2094      6700
 2095              		.ident	"GCC: (GNU Tools for ARM Embedded Processors) 4.8.4 20140526 (release) [ARM/embedded-4_8-br
ARM GAS  /tmp/cch9rAWj.s 			page 43


DEFINED SYMBOLS
                            *ABS*:0000000000000000 chsys.c
     /tmp/cch9rAWj.s:19     .text._idle_thread:0000000000000000 $t
     /tmp/cch9rAWj.s:25     .text._idle_thread:0000000000000000 _idle_thread
     /tmp/cch9rAWj.s:45     .text._idle_thread:000000000000000c $d
     /tmp/cch9rAWj.s:51     .text.chSysInit:0000000000000000 $t
     /tmp/cch9rAWj.s:57     .text.chSysInit:0000000000000000 chSysInit
     /tmp/cch9rAWj.s:122    .text.chSysInit:0000000000000048 $d
     /tmp/cch9rAWj.s:131    .text.chSysTimerHandlerI:0000000000000000 $t
     /tmp/cch9rAWj.s:137    .text.chSysTimerHandlerI:0000000000000000 chSysTimerHandlerI
     /tmp/cch9rAWj.s:219    .text.chSysTimerHandlerI:0000000000000050 $d
     /tmp/cch9rAWj.s:242    .bss._idle_thread_wa:0000000000000000 _idle_thread_wa
     /tmp/cch9rAWj.s:227    .rodata.str1.4:0000000000000000 $d
     /tmp/cch9rAWj.s:231    .bss.mainthread.4797:0000000000000000 $d
     /tmp/cch9rAWj.s:235    .bss.mainthread.4797:0000000000000000 mainthread.4797
     /tmp/cch9rAWj.s:238    .bss._idle_thread_wa:0000000000000000 $d
                     .debug_frame:0000000000000010 $d
     /tmp/cch9rAWj.s:50     .text._idle_thread:0000000000000014 $t
     /tmp/cch9rAWj.s:130    .text.chSysInit:000000000000005c $t
     /tmp/cch9rAWj.s:226    .text.chSysTimerHandlerI:0000000000000058 $t

UNDEFINED SYMBOLS
rlist
_port_init
_scheduler_init
_vt_init
_core_init
_heap_init
_thread_init
chThdCreateStatic
ch_debug
vtlist
