ARM GAS  /tmp/ccWe8uAH.s 			page 1


   1              		.syntax unified
   2              		.cpu cortex-m4
   3              		.fpu softvfp
   4              		.eabi_attribute 20, 1
   5              		.eabi_attribute 21, 1
   6              		.eabi_attribute 23, 3
   7              		.eabi_attribute 24, 1
   8              		.eabi_attribute 25, 1
   9              		.eabi_attribute 26, 1
  10              		.eabi_attribute 30, 2
  11              		.eabi_attribute 34, 1
  12              		.eabi_attribute 18, 4
  13              		.thumb
  14              		.file	"tm.c"
  15              		.text
  16              	.Ltext0:
  17              		.cfi_sections	.debug_frame
  18              		.section	.text.tm_start,"ax",%progbits
  19              		.align	2
  20              		.p2align 4,,15
  21              		.thumb
  22              		.thumb_func
  23              		.type	tm_start, %function
  24              	tm_start:
  25              	.LFB118:
  26              		.file 1 "../ChibiOS_2.6.7_minified/os/hal/src/tm.c"
  27              		.loc 1 69 0
  28              		.cfi_startproc
  29              		@ args = 0, pretend = 0, frame = 0
  30              		@ frame_needed = 0, uses_anonymous_args = 0
  31              		@ link register save eliminated.
  32              	.LVL0:
  33              		.loc 1 71 0
  34 0000 014B     		ldr	r3, .L2
  35 0002 5B68     		ldr	r3, [r3, #4]
  36 0004 8360     		str	r3, [r0, #8]
  37 0006 7047     		bx	lr
  38              	.L3:
  39              		.align	2
  40              	.L2:
  41 0008 001000E0 		.word	-536866816
  42              		.cfi_endproc
  43              	.LFE118:
  44              		.size	tm_start, .-tm_start
  45 000c AFF30080 		.section	.text.tm_stop,"ax",%progbits
  46              		.align	2
  47              		.p2align 4,,15
  48              		.thumb
  49              		.thumb_func
  50              		.type	tm_stop, %function
  51              	tm_stop:
  52              	.LFB119:
  53              		.loc 1 81 0
  54              		.cfi_startproc
  55              		@ args = 0, pretend = 0, frame = 0
  56              		@ frame_needed = 0, uses_anonymous_args = 0
  57              		@ link register save eliminated.
ARM GAS  /tmp/ccWe8uAH.s 			page 2


  58              	.LVL1:
  59              		.loc 1 83 0
  60 0000 0B4B     		ldr	r3, .L9
  61              		.loc 1 84 0
  62 0002 0C4A     		ldr	r2, .L9+4
  63 0004 8168     		ldr	r1, [r0, #8]
  64              		.loc 1 83 0
  65 0006 5B68     		ldr	r3, [r3, #4]
  66              	.LVL2:
  67              		.loc 1 81 0
  68 0008 10B4     		push	{r4}
  69              		.cfi_def_cfa_offset 4
  70              		.cfi_offset 4, -4
  71              		.loc 1 84 0
  72 000a 1468     		ldr	r4, [r2]
  73              		.loc 1 85 0
  74 000c C268     		ldr	r2, [r0, #12]
  75              		.loc 1 84 0
  76 000e 5B1A     		subs	r3, r3, r1
  77              	.LVL3:
  78 0010 1B1B     		subs	r3, r3, r4
  79              		.loc 1 85 0
  80 0012 9342     		cmp	r3, r2
  81              		.loc 1 84 0
  82 0014 8360     		str	r3, [r0, #8]
  83              		.loc 1 85 0
  84 0016 06D8     		bhi	.L8
  85              		.loc 1 87 0
  86 0018 0269     		ldr	r2, [r0, #16]
  87              		.loc 1 89 0
  88 001a 5DF8044B 		ldr	r4, [sp], #4
  89              		.loc 1 87 0
  90 001e 9342     		cmp	r3, r2
  91              		.loc 1 88 0
  92 0020 38BF     		it	cc
  93 0022 0361     		strcc	r3, [r0, #16]
  94              		.loc 1 89 0
  95 0024 7047     		bx	lr
  96              	.L8:
  97              		.loc 1 86 0
  98 0026 C360     		str	r3, [r0, #12]
  99              		.loc 1 89 0
 100 0028 5DF8044B 		ldr	r4, [sp], #4
 101 002c 7047     		bx	lr
 102              	.L10:
 103 002e 00BF     		.align	2
 104              	.L9:
 105 0030 001000E0 		.word	-536866816
 106 0034 00000000 		.word	.LANCHOR0
 107              		.cfi_endproc
 108              	.LFE119:
 109              		.size	tm_stop, .-tm_stop
 110 0038 AFF30080 		.section	.text.tmInit,"ax",%progbits
 110      AFF30080 
 111              		.align	2
 112              		.p2align 4,,15
 113              		.global	tmInit
ARM GAS  /tmp/ccWe8uAH.s 			page 3


 114              		.thumb
 115              		.thumb_func
 116              		.type	tmInit, %function
 117              	tmInit:
 118              	.LFB120:
 119              		.loc 1 104 0
 120              		.cfi_startproc
 121              		@ args = 0, pretend = 0, frame = 24
 122              		@ frame_needed = 0, uses_anonymous_args = 0
 123 0000 10B5     		push	{r4, lr}
 124              		.cfi_def_cfa_offset 8
 125              		.cfi_offset 4, -8
 126              		.cfi_offset 14, -4
 127 0002 86B0     		sub	sp, sp, #24
 128              		.cfi_def_cfa_offset 32
 129              		.loc 1 110 0
 130 0004 0A4C     		ldr	r4, .L12
 131              	.LBB8:
 132              	.LBB9:
 133              		.loc 1 126 0
 134 0006 0B4B     		ldr	r3, .L12+4
 135              	.LBE9:
 136              	.LBE8:
 137              	.LBB15:
 138              	.LBB16:
 139              		.loc 1 71 0
 140 0008 0B49     		ldr	r1, .L12+8
 141              	.LBE16:
 142              	.LBE15:
 143              	.LBB19:
 144              	.LBB10:
 145              		.loc 1 126 0
 146 000a 0193     		str	r3, [sp, #4]
 147              		.loc 1 130 0
 148 000c 4FF0FF30 		mov	r0, #-1
 149              	.LBE10:
 150              	.LBE19:
 151              		.loc 1 110 0
 152 0010 0023     		movs	r3, #0
 153              	.LBB20:
 154              	.LBB11:
 155              		.loc 1 130 0
 156 0012 0590     		str	r0, [sp, #20]
 157              	.LBE11:
 158              	.LBE20:
 159              		.loc 1 110 0
 160 0014 2360     		str	r3, [r4]
 161              	.LVL4:
 162              	.LBB21:
 163              	.LBB12:
 164              		.loc 1 129 0
 165 0016 0493     		str	r3, [sp, #16]
 166              	.LBE12:
 167              	.LBE21:
 168              	.LBB22:
 169              	.LBB17:
 170              		.loc 1 71 0
ARM GAS  /tmp/ccWe8uAH.s 			page 4


 171 0018 4B68     		ldr	r3, [r1, #4]
 172              	.LBE17:
 173              	.LBE22:
 174              	.LBB23:
 175              	.LBB13:
 176              		.loc 1 127 0
 177 001a 084A     		ldr	r2, .L12+12
 178              	.LBE13:
 179              	.LBE23:
 180              	.LBB24:
 181              	.LBB18:
 182              		.loc 1 71 0
 183 001c 0393     		str	r3, [sp, #12]
 184              	.LBE18:
 185              	.LBE24:
 186              		.loc 1 113 0
 187 001e 01A8     		add	r0, sp, #4
 188              	.LVL5:
 189              	.LBB25:
 190              	.LBB14:
 191              		.loc 1 127 0
 192 0020 0292     		str	r2, [sp, #8]
 193              	.LBE14:
 194              	.LBE25:
 195              		.loc 1 113 0
 196 0022 FFF7FEFF 		bl	tm_stop
 197              	.LVL6:
 198              		.loc 1 114 0
 199 0026 039B     		ldr	r3, [sp, #12]
 200 0028 2360     		str	r3, [r4]
 201              		.loc 1 115 0
 202 002a 06B0     		add	sp, sp, #24
 203              		@ sp needed
 204 002c 10BD     		pop	{r4, pc}
 205              	.LVL7:
 206              	.L13:
 207 002e 00BF     		.align	2
 208              	.L12:
 209 0030 00000000 		.word	.LANCHOR0
 210 0034 00000000 		.word	tm_start
 211 0038 001000E0 		.word	-536866816
 212 003c 00000000 		.word	tm_stop
 213              		.cfi_endproc
 214              	.LFE120:
 215              		.size	tmInit, .-tmInit
 216              		.section	.text.tmObjectInit,"ax",%progbits
 217              		.align	2
 218              		.p2align 4,,15
 219              		.global	tmObjectInit
 220              		.thumb
 221              		.thumb_func
 222              		.type	tmObjectInit, %function
 223              	tmObjectInit:
 224              	.LFB121:
 225              		.loc 1 124 0
 226              		.cfi_startproc
 227              		@ args = 0, pretend = 0, frame = 0
ARM GAS  /tmp/ccWe8uAH.s 			page 5


 228              		@ frame_needed = 0, uses_anonymous_args = 0
 229              		@ link register save eliminated.
 230              	.LVL8:
 231              		.loc 1 126 0
 232 0000 054B     		ldr	r3, .L15
 233              		.loc 1 127 0
 234 0002 0649     		ldr	r1, .L15+4
 235              		.loc 1 126 0
 236 0004 0360     		str	r3, [r0]
 237              		.loc 1 130 0
 238 0006 4FF0FF32 		mov	r2, #-1
 239              		.loc 1 128 0
 240 000a 0023     		movs	r3, #0
 241              		.loc 1 127 0
 242 000c 4160     		str	r1, [r0, #4]
 243              		.loc 1 130 0
 244 000e 0261     		str	r2, [r0, #16]
 245              		.loc 1 128 0
 246 0010 8360     		str	r3, [r0, #8]
 247              		.loc 1 129 0
 248 0012 C360     		str	r3, [r0, #12]
 249 0014 7047     		bx	lr
 250              	.L16:
 251 0016 00BF     		.align	2
 252              	.L15:
 253 0018 00000000 		.word	tm_start
 254 001c 00000000 		.word	tm_stop
 255              		.cfi_endproc
 256              	.LFE121:
 257              		.size	tmObjectInit, .-tmObjectInit
 258              		.section	.bss.measurement_offset,"aw",%nobits
 259              		.align	2
 260              		.set	.LANCHOR0,. + 0
 261              		.type	measurement_offset, %object
 262              		.size	measurement_offset, 4
 263              	measurement_offset:
 264 0000 00000000 		.space	4
 265              		.text
 266              	.Letext0:
 267              		.file 2 "/usr/arm-none-eabi/include/machine/_default_types.h"
 268              		.file 3 "/usr/arm-none-eabi/include/stdint.h"
 269              		.file 4 "../ChibiOS_2.6.7_minified/os/ports/common/ARMCMx/nvic.h"
 270              		.file 5 "../ChibiOS_2.6.7_minified/os/hal/platforms/STM32F4xx/hal_lld.h"
 271              		.file 6 "../ChibiOS_2.6.7_minified/os/hal/include/tm.h"
 272              		.file 7 "../ChibiOS_2.6.7_minified/os/ports/common/ARMCMx/CMSIS/include/core_cm4.h"
 273              		.section	.debug_info,"",%progbits
 274              	.Ldebug_info0:
 275 0000 D5020000 		.4byte	0x2d5
 276 0004 0400     		.2byte	0x4
 277 0006 00000000 		.4byte	.Ldebug_abbrev0
 278 000a 04       		.byte	0x4
 279 000b 01       		.uleb128 0x1
 280 000c 05000000 		.4byte	.LASF34
 281 0010 01       		.byte	0x1
 282 0011 5D020000 		.4byte	.LASF35
 283 0015 81010000 		.4byte	.LASF36
 284 0019 58000000 		.4byte	.Ldebug_ranges0+0x58
ARM GAS  /tmp/ccWe8uAH.s 			page 6


 285 001d 00000000 		.4byte	0
 286 0021 00000000 		.4byte	.Ldebug_line0
 287 0025 02       		.uleb128 0x2
 288 0026 04       		.byte	0x4
 289 0027 05       		.byte	0x5
 290 0028 696E7400 		.ascii	"int\000"
 291 002c 03       		.uleb128 0x3
 292 002d 04       		.byte	0x4
 293 002e 07       		.byte	0x7
 294 002f DF010000 		.4byte	.LASF0
 295 0033 03       		.uleb128 0x3
 296 0034 01       		.byte	0x1
 297 0035 06       		.byte	0x6
 298 0036 9E020000 		.4byte	.LASF1
 299 003a 03       		.uleb128 0x3
 300 003b 01       		.byte	0x1
 301 003c 08       		.byte	0x8
 302 003d 2C010000 		.4byte	.LASF2
 303 0041 03       		.uleb128 0x3
 304 0042 02       		.byte	0x2
 305 0043 05       		.byte	0x5
 306 0044 4B020000 		.4byte	.LASF3
 307 0048 03       		.uleb128 0x3
 308 0049 02       		.byte	0x2
 309 004a 07       		.byte	0x7
 310 004b 67010000 		.4byte	.LASF4
 311 004f 04       		.uleb128 0x4
 312 0050 EF000000 		.4byte	.LASF6
 313 0054 02       		.byte	0x2
 314 0055 37       		.byte	0x37
 315 0056 5A000000 		.4byte	0x5a
 316 005a 03       		.uleb128 0x3
 317 005b 04       		.byte	0x4
 318 005c 05       		.byte	0x5
 319 005d 95020000 		.4byte	.LASF5
 320 0061 04       		.uleb128 0x4
 321 0062 C0010000 		.4byte	.LASF7
 322 0066 02       		.byte	0x2
 323 0067 38       		.byte	0x38
 324 0068 6C000000 		.4byte	0x6c
 325 006c 03       		.uleb128 0x3
 326 006d 04       		.byte	0x4
 327 006e 07       		.byte	0x7
 328 006f 48010000 		.4byte	.LASF8
 329 0073 03       		.uleb128 0x3
 330 0074 08       		.byte	0x8
 331 0075 05       		.byte	0x5
 332 0076 22020000 		.4byte	.LASF9
 333 007a 03       		.uleb128 0x3
 334 007b 08       		.byte	0x8
 335 007c 07       		.byte	0x7
 336 007d 15010000 		.4byte	.LASF10
 337 0081 04       		.uleb128 0x4
 338 0082 11020000 		.4byte	.LASF11
 339 0086 03       		.byte	0x3
 340 0087 41       		.byte	0x41
 341 0088 4F000000 		.4byte	0x4f
ARM GAS  /tmp/ccWe8uAH.s 			page 7


 342 008c 04       		.uleb128 0x4
 343 008d 8C020000 		.4byte	.LASF12
 344 0091 03       		.byte	0x3
 345 0092 42       		.byte	0x42
 346 0093 61000000 		.4byte	0x61
 347 0097 03       		.uleb128 0x3
 348 0098 01       		.byte	0x1
 349 0099 02       		.byte	0x2
 350 009a BA020000 		.4byte	.LASF13
 351 009e 04       		.uleb128 0x4
 352 009f 30020000 		.4byte	.LASF14
 353 00a3 04       		.byte	0x4
 354 00a4 3A       		.byte	0x3a
 355 00a5 A9000000 		.4byte	0xa9
 356 00a9 05       		.uleb128 0x5
 357 00aa 8C000000 		.4byte	0x8c
 358 00ae 03       		.uleb128 0x3
 359 00af 04       		.byte	0x4
 360 00b0 07       		.byte	0x7
 361 00b1 19020000 		.4byte	.LASF15
 362 00b5 06       		.uleb128 0x6
 363 00b6 20       		.byte	0x20
 364 00b7 04       		.byte	0x4
 365 00b8 0601     		.2byte	0x106
 366 00ba 27010000 		.4byte	0x127
 367 00be 07       		.uleb128 0x7
 368 00bf 05020000 		.4byte	.LASF16
 369 00c3 04       		.byte	0x4
 370 00c4 0701     		.2byte	0x107
 371 00c6 9E000000 		.4byte	0x9e
 372 00ca 00       		.byte	0
 373 00cb 07       		.uleb128 0x7
 374 00cc 3A010000 		.4byte	.LASF17
 375 00d0 04       		.byte	0x4
 376 00d1 0801     		.2byte	0x108
 377 00d3 9E000000 		.4byte	0x9e
 378 00d7 04       		.byte	0x4
 379 00d8 07       		.uleb128 0x7
 380 00d9 7A010000 		.4byte	.LASF18
 381 00dd 04       		.byte	0x4
 382 00de 0901     		.2byte	0x109
 383 00e0 9E000000 		.4byte	0x9e
 384 00e4 08       		.byte	0x8
 385 00e5 07       		.uleb128 0x7
 386 00e6 0A020000 		.4byte	.LASF19
 387 00ea 04       		.byte	0x4
 388 00eb 0A01     		.2byte	0x10a
 389 00ed 9E000000 		.4byte	0x9e
 390 00f1 0C       		.byte	0xc
 391 00f2 07       		.uleb128 0x7
 392 00f3 07010000 		.4byte	.LASF20
 393 00f7 04       		.byte	0x4
 394 00f8 0B01     		.2byte	0x10b
 395 00fa 9E000000 		.4byte	0x9e
 396 00fe 10       		.byte	0x10
 397 00ff 07       		.uleb128 0x7
 398 0100 CB010000 		.4byte	.LASF21
ARM GAS  /tmp/ccWe8uAH.s 			page 8


 399 0104 04       		.byte	0x4
 400 0105 0C01     		.2byte	0x10c
 401 0107 9E000000 		.4byte	0x9e
 402 010b 14       		.byte	0x14
 403 010c 07       		.uleb128 0x7
 404 010d B2010000 		.4byte	.LASF22
 405 0111 04       		.byte	0x4
 406 0112 0D01     		.2byte	0x10d
 407 0114 9E000000 		.4byte	0x9e
 408 0118 18       		.byte	0x18
 409 0119 07       		.uleb128 0x7
 410 011a EA000000 		.4byte	.LASF23
 411 011e 04       		.byte	0x4
 412 011f 0E01     		.2byte	0x10e
 413 0121 9E000000 		.4byte	0x9e
 414 0125 1C       		.byte	0x1c
 415 0126 00       		.byte	0
 416 0127 08       		.uleb128 0x8
 417 0128 55020000 		.4byte	.LASF24
 418 012c 04       		.byte	0x4
 419 012d 0F01     		.2byte	0x10f
 420 012f B5000000 		.4byte	0xb5
 421 0133 03       		.uleb128 0x3
 422 0134 01       		.byte	0x1
 423 0135 08       		.byte	0x8
 424 0136 F7010000 		.4byte	.LASF25
 425 013a 05       		.uleb128 0x5
 426 013b 81000000 		.4byte	0x81
 427 013f 08       		.uleb128 0x8
 428 0140 EC010000 		.4byte	.LASF26
 429 0144 05       		.byte	0x5
 430 0145 C006     		.2byte	0x6c0
 431 0147 8C000000 		.4byte	0x8c
 432 014b 04       		.uleb128 0x4
 433 014c AA020000 		.4byte	.LASF27
 434 0150 06       		.byte	0x6
 435 0151 45       		.byte	0x45
 436 0152 56010000 		.4byte	0x156
 437 0156 09       		.uleb128 0x9
 438 0157 AA020000 		.4byte	.LASF27
 439 015b 14       		.byte	0x14
 440 015c 06       		.byte	0x6
 441 015d 4A       		.byte	0x4a
 442 015e 9F010000 		.4byte	0x19f
 443 0162 0A       		.uleb128 0xa
 444 0163 01010000 		.4byte	.LASF28
 445 0167 06       		.byte	0x6
 446 0168 4B       		.byte	0x4b
 447 0169 B0010000 		.4byte	0x1b0
 448 016d 00       		.byte	0
 449 016e 0A       		.uleb128 0xa
 450 016f 10010000 		.4byte	.LASF29
 451 0173 06       		.byte	0x6
 452 0174 4C       		.byte	0x4c
 453 0175 B0010000 		.4byte	0x1b0
 454 0179 04       		.byte	0x4
 455 017a 0A       		.uleb128 0xa
ARM GAS  /tmp/ccWe8uAH.s 			page 9


 456 017b 00000000 		.4byte	.LASF30
 457 017f 06       		.byte	0x6
 458 0180 4D       		.byte	0x4d
 459 0181 3F010000 		.4byte	0x13f
 460 0185 08       		.byte	0x8
 461 0186 0A       		.uleb128 0xa
 462 0187 BA010000 		.4byte	.LASF31
 463 018b 06       		.byte	0x6
 464 018c 4E       		.byte	0x4e
 465 018d 3F010000 		.4byte	0x13f
 466 0191 0C       		.byte	0xc
 467 0192 0A       		.uleb128 0xa
 468 0193 87020000 		.4byte	.LASF32
 469 0197 06       		.byte	0x6
 470 0198 4F       		.byte	0x4f
 471 0199 3F010000 		.4byte	0x13f
 472 019d 10       		.byte	0x10
 473 019e 00       		.byte	0
 474 019f 0B       		.uleb128 0xb
 475 01a0 AA010000 		.4byte	0x1aa
 476 01a4 0C       		.uleb128 0xc
 477 01a5 AA010000 		.4byte	0x1aa
 478 01a9 00       		.byte	0
 479 01aa 0D       		.uleb128 0xd
 480 01ab 04       		.byte	0x4
 481 01ac 4B010000 		.4byte	0x14b
 482 01b0 0D       		.uleb128 0xd
 483 01b1 04       		.byte	0x4
 484 01b2 9F010000 		.4byte	0x19f
 485 01b6 0E       		.uleb128 0xe
 486 01b7 5A010000 		.4byte	.LASF37
 487 01bb 01       		.byte	0x1
 488 01bc 7C       		.byte	0x7c
 489 01bd 01       		.byte	0x1
 490 01be CE010000 		.4byte	0x1ce
 491 01c2 0F       		.uleb128 0xf
 492 01c3 746D7000 		.ascii	"tmp\000"
 493 01c7 01       		.byte	0x1
 494 01c8 7C       		.byte	0x7c
 495 01c9 AA010000 		.4byte	0x1aa
 496 01cd 00       		.byte	0
 497 01ce 10       		.uleb128 0x10
 498 01cf FC010000 		.4byte	.LASF38
 499 01d3 01       		.byte	0x1
 500 01d4 45       		.byte	0x45
 501 01d5 01       		.byte	0x1
 502 01d6 E6010000 		.4byte	0x1e6
 503 01da 0F       		.uleb128 0xf
 504 01db 746D7000 		.ascii	"tmp\000"
 505 01df 01       		.byte	0x1
 506 01e0 45       		.byte	0x45
 507 01e1 AA010000 		.4byte	0x1aa
 508 01e5 00       		.byte	0
 509 01e6 11       		.uleb128 0x11
 510 01e7 CE010000 		.4byte	0x1ce
 511 01eb 00000000 		.4byte	.LFB118
 512 01ef 0C000000 		.4byte	.LFE118-.LFB118
ARM GAS  /tmp/ccWe8uAH.s 			page 10


 513 01f3 01       		.uleb128 0x1
 514 01f4 9C       		.byte	0x9c
 515 01f5 01020000 		.4byte	0x201
 516 01f9 12       		.uleb128 0x12
 517 01fa DA010000 		.4byte	0x1da
 518 01fe 01       		.uleb128 0x1
 519 01ff 50       		.byte	0x50
 520 0200 00       		.byte	0
 521 0201 13       		.uleb128 0x13
 522 0202 F9000000 		.4byte	.LASF39
 523 0206 01       		.byte	0x1
 524 0207 51       		.byte	0x51
 525 0208 00000000 		.4byte	.LFB119
 526 020c 38000000 		.4byte	.LFE119-.LFB119
 527 0210 01       		.uleb128 0x1
 528 0211 9C       		.byte	0x9c
 529 0212 33020000 		.4byte	0x233
 530 0216 14       		.uleb128 0x14
 531 0217 746D7000 		.ascii	"tmp\000"
 532 021b 01       		.byte	0x1
 533 021c 51       		.byte	0x51
 534 021d AA010000 		.4byte	0x1aa
 535 0221 01       		.uleb128 0x1
 536 0222 50       		.byte	0x50
 537 0223 15       		.uleb128 0x15
 538 0224 6E6F7700 		.ascii	"now\000"
 539 0228 01       		.byte	0x1
 540 0229 53       		.byte	0x53
 541 022a 3F010000 		.4byte	0x13f
 542 022e 00000000 		.4byte	.LLST0
 543 0232 00       		.byte	0
 544 0233 16       		.uleb128 0x16
 545 0234 41010000 		.4byte	.LASF40
 546 0238 01       		.byte	0x1
 547 0239 68       		.byte	0x68
 548 023a 00000000 		.4byte	.LFB120
 549 023e 40000000 		.4byte	.LFE120-.LFB120
 550 0242 01       		.uleb128 0x1
 551 0243 9C       		.byte	0x9c
 552 0244 A0020000 		.4byte	0x2a0
 553 0248 17       		.uleb128 0x17
 554 0249 746D00   		.ascii	"tm\000"
 555 024c 01       		.byte	0x1
 556 024d 69       		.byte	0x69
 557 024e 4B010000 		.4byte	0x14b
 558 0252 02       		.uleb128 0x2
 559 0253 91       		.byte	0x91
 560 0254 64       		.sleb128 -28
 561 0255 18       		.uleb128 0x18
 562 0256 B6010000 		.4byte	0x1b6
 563 025a 06000000 		.4byte	.LBB8
 564 025e 00000000 		.4byte	.Ldebug_ranges0+0
 565 0262 01       		.byte	0x1
 566 0263 6F       		.byte	0x6f
 567 0264 72020000 		.4byte	0x272
 568 0268 19       		.uleb128 0x19
 569 0269 C2010000 		.4byte	0x1c2
ARM GAS  /tmp/ccWe8uAH.s 			page 11


 570 026d 13000000 		.4byte	.LLST1
 571 0271 00       		.byte	0
 572 0272 18       		.uleb128 0x18
 573 0273 CE010000 		.4byte	0x1ce
 574 0277 08000000 		.4byte	.LBB15
 575 027b 38000000 		.4byte	.Ldebug_ranges0+0x38
 576 027f 01       		.byte	0x1
 577 0280 70       		.byte	0x70
 578 0281 8F020000 		.4byte	0x28f
 579 0285 19       		.uleb128 0x19
 580 0286 DA010000 		.4byte	0x1da
 581 028a 13000000 		.4byte	.LLST1
 582 028e 00       		.byte	0
 583 028f 1A       		.uleb128 0x1a
 584 0290 26000000 		.4byte	.LVL6
 585 0294 01020000 		.4byte	0x201
 586 0298 1B       		.uleb128 0x1b
 587 0299 01       		.uleb128 0x1
 588 029a 50       		.byte	0x50
 589 029b 02       		.uleb128 0x2
 590 029c 91       		.byte	0x91
 591 029d 64       		.sleb128 -28
 592 029e 00       		.byte	0
 593 029f 00       		.byte	0
 594 02a0 11       		.uleb128 0x11
 595 02a1 B6010000 		.4byte	0x1b6
 596 02a5 00000000 		.4byte	.LFB121
 597 02a9 20000000 		.4byte	.LFE121-.LFB121
 598 02ad 01       		.uleb128 0x1
 599 02ae 9C       		.byte	0x9c
 600 02af BB020000 		.4byte	0x2bb
 601 02b3 12       		.uleb128 0x12
 602 02b4 C2010000 		.4byte	0x1c2
 603 02b8 01       		.uleb128 0x1
 604 02b9 50       		.byte	0x50
 605 02ba 00       		.byte	0
 606 02bb 1C       		.uleb128 0x1c
 607 02bc 38020000 		.4byte	.LASF33
 608 02c0 01       		.byte	0x1
 609 02c1 38       		.byte	0x38
 610 02c2 3F010000 		.4byte	0x13f
 611 02c6 05       		.uleb128 0x5
 612 02c7 03       		.byte	0x3
 613 02c8 00000000 		.4byte	measurement_offset
 614 02cc 1D       		.uleb128 0x1d
 615 02cd D2010000 		.4byte	.LASF41
 616 02d1 07       		.byte	0x7
 617 02d2 9806     		.2byte	0x698
 618 02d4 3A010000 		.4byte	0x13a
 619 02d8 00       		.byte	0
 620              		.section	.debug_abbrev,"",%progbits
 621              	.Ldebug_abbrev0:
 622 0000 01       		.uleb128 0x1
 623 0001 11       		.uleb128 0x11
 624 0002 01       		.byte	0x1
 625 0003 25       		.uleb128 0x25
 626 0004 0E       		.uleb128 0xe
ARM GAS  /tmp/ccWe8uAH.s 			page 12


 627 0005 13       		.uleb128 0x13
 628 0006 0B       		.uleb128 0xb
 629 0007 03       		.uleb128 0x3
 630 0008 0E       		.uleb128 0xe
 631 0009 1B       		.uleb128 0x1b
 632 000a 0E       		.uleb128 0xe
 633 000b 55       		.uleb128 0x55
 634 000c 17       		.uleb128 0x17
 635 000d 11       		.uleb128 0x11
 636 000e 01       		.uleb128 0x1
 637 000f 10       		.uleb128 0x10
 638 0010 17       		.uleb128 0x17
 639 0011 00       		.byte	0
 640 0012 00       		.byte	0
 641 0013 02       		.uleb128 0x2
 642 0014 24       		.uleb128 0x24
 643 0015 00       		.byte	0
 644 0016 0B       		.uleb128 0xb
 645 0017 0B       		.uleb128 0xb
 646 0018 3E       		.uleb128 0x3e
 647 0019 0B       		.uleb128 0xb
 648 001a 03       		.uleb128 0x3
 649 001b 08       		.uleb128 0x8
 650 001c 00       		.byte	0
 651 001d 00       		.byte	0
 652 001e 03       		.uleb128 0x3
 653 001f 24       		.uleb128 0x24
 654 0020 00       		.byte	0
 655 0021 0B       		.uleb128 0xb
 656 0022 0B       		.uleb128 0xb
 657 0023 3E       		.uleb128 0x3e
 658 0024 0B       		.uleb128 0xb
 659 0025 03       		.uleb128 0x3
 660 0026 0E       		.uleb128 0xe
 661 0027 00       		.byte	0
 662 0028 00       		.byte	0
 663 0029 04       		.uleb128 0x4
 664 002a 16       		.uleb128 0x16
 665 002b 00       		.byte	0
 666 002c 03       		.uleb128 0x3
 667 002d 0E       		.uleb128 0xe
 668 002e 3A       		.uleb128 0x3a
 669 002f 0B       		.uleb128 0xb
 670 0030 3B       		.uleb128 0x3b
 671 0031 0B       		.uleb128 0xb
 672 0032 49       		.uleb128 0x49
 673 0033 13       		.uleb128 0x13
 674 0034 00       		.byte	0
 675 0035 00       		.byte	0
 676 0036 05       		.uleb128 0x5
 677 0037 35       		.uleb128 0x35
 678 0038 00       		.byte	0
 679 0039 49       		.uleb128 0x49
 680 003a 13       		.uleb128 0x13
 681 003b 00       		.byte	0
 682 003c 00       		.byte	0
 683 003d 06       		.uleb128 0x6
ARM GAS  /tmp/ccWe8uAH.s 			page 13


 684 003e 13       		.uleb128 0x13
 685 003f 01       		.byte	0x1
 686 0040 0B       		.uleb128 0xb
 687 0041 0B       		.uleb128 0xb
 688 0042 3A       		.uleb128 0x3a
 689 0043 0B       		.uleb128 0xb
 690 0044 3B       		.uleb128 0x3b
 691 0045 05       		.uleb128 0x5
 692 0046 01       		.uleb128 0x1
 693 0047 13       		.uleb128 0x13
 694 0048 00       		.byte	0
 695 0049 00       		.byte	0
 696 004a 07       		.uleb128 0x7
 697 004b 0D       		.uleb128 0xd
 698 004c 00       		.byte	0
 699 004d 03       		.uleb128 0x3
 700 004e 0E       		.uleb128 0xe
 701 004f 3A       		.uleb128 0x3a
 702 0050 0B       		.uleb128 0xb
 703 0051 3B       		.uleb128 0x3b
 704 0052 05       		.uleb128 0x5
 705 0053 49       		.uleb128 0x49
 706 0054 13       		.uleb128 0x13
 707 0055 38       		.uleb128 0x38
 708 0056 0B       		.uleb128 0xb
 709 0057 00       		.byte	0
 710 0058 00       		.byte	0
 711 0059 08       		.uleb128 0x8
 712 005a 16       		.uleb128 0x16
 713 005b 00       		.byte	0
 714 005c 03       		.uleb128 0x3
 715 005d 0E       		.uleb128 0xe
 716 005e 3A       		.uleb128 0x3a
 717 005f 0B       		.uleb128 0xb
 718 0060 3B       		.uleb128 0x3b
 719 0061 05       		.uleb128 0x5
 720 0062 49       		.uleb128 0x49
 721 0063 13       		.uleb128 0x13
 722 0064 00       		.byte	0
 723 0065 00       		.byte	0
 724 0066 09       		.uleb128 0x9
 725 0067 13       		.uleb128 0x13
 726 0068 01       		.byte	0x1
 727 0069 03       		.uleb128 0x3
 728 006a 0E       		.uleb128 0xe
 729 006b 0B       		.uleb128 0xb
 730 006c 0B       		.uleb128 0xb
 731 006d 3A       		.uleb128 0x3a
 732 006e 0B       		.uleb128 0xb
 733 006f 3B       		.uleb128 0x3b
 734 0070 0B       		.uleb128 0xb
 735 0071 01       		.uleb128 0x1
 736 0072 13       		.uleb128 0x13
 737 0073 00       		.byte	0
 738 0074 00       		.byte	0
 739 0075 0A       		.uleb128 0xa
 740 0076 0D       		.uleb128 0xd
ARM GAS  /tmp/ccWe8uAH.s 			page 14


 741 0077 00       		.byte	0
 742 0078 03       		.uleb128 0x3
 743 0079 0E       		.uleb128 0xe
 744 007a 3A       		.uleb128 0x3a
 745 007b 0B       		.uleb128 0xb
 746 007c 3B       		.uleb128 0x3b
 747 007d 0B       		.uleb128 0xb
 748 007e 49       		.uleb128 0x49
 749 007f 13       		.uleb128 0x13
 750 0080 38       		.uleb128 0x38
 751 0081 0B       		.uleb128 0xb
 752 0082 00       		.byte	0
 753 0083 00       		.byte	0
 754 0084 0B       		.uleb128 0xb
 755 0085 15       		.uleb128 0x15
 756 0086 01       		.byte	0x1
 757 0087 27       		.uleb128 0x27
 758 0088 19       		.uleb128 0x19
 759 0089 01       		.uleb128 0x1
 760 008a 13       		.uleb128 0x13
 761 008b 00       		.byte	0
 762 008c 00       		.byte	0
 763 008d 0C       		.uleb128 0xc
 764 008e 05       		.uleb128 0x5
 765 008f 00       		.byte	0
 766 0090 49       		.uleb128 0x49
 767 0091 13       		.uleb128 0x13
 768 0092 00       		.byte	0
 769 0093 00       		.byte	0
 770 0094 0D       		.uleb128 0xd
 771 0095 0F       		.uleb128 0xf
 772 0096 00       		.byte	0
 773 0097 0B       		.uleb128 0xb
 774 0098 0B       		.uleb128 0xb
 775 0099 49       		.uleb128 0x49
 776 009a 13       		.uleb128 0x13
 777 009b 00       		.byte	0
 778 009c 00       		.byte	0
 779 009d 0E       		.uleb128 0xe
 780 009e 2E       		.uleb128 0x2e
 781 009f 01       		.byte	0x1
 782 00a0 3F       		.uleb128 0x3f
 783 00a1 19       		.uleb128 0x19
 784 00a2 03       		.uleb128 0x3
 785 00a3 0E       		.uleb128 0xe
 786 00a4 3A       		.uleb128 0x3a
 787 00a5 0B       		.uleb128 0xb
 788 00a6 3B       		.uleb128 0x3b
 789 00a7 0B       		.uleb128 0xb
 790 00a8 27       		.uleb128 0x27
 791 00a9 19       		.uleb128 0x19
 792 00aa 20       		.uleb128 0x20
 793 00ab 0B       		.uleb128 0xb
 794 00ac 01       		.uleb128 0x1
 795 00ad 13       		.uleb128 0x13
 796 00ae 00       		.byte	0
 797 00af 00       		.byte	0
ARM GAS  /tmp/ccWe8uAH.s 			page 15


 798 00b0 0F       		.uleb128 0xf
 799 00b1 05       		.uleb128 0x5
 800 00b2 00       		.byte	0
 801 00b3 03       		.uleb128 0x3
 802 00b4 08       		.uleb128 0x8
 803 00b5 3A       		.uleb128 0x3a
 804 00b6 0B       		.uleb128 0xb
 805 00b7 3B       		.uleb128 0x3b
 806 00b8 0B       		.uleb128 0xb
 807 00b9 49       		.uleb128 0x49
 808 00ba 13       		.uleb128 0x13
 809 00bb 00       		.byte	0
 810 00bc 00       		.byte	0
 811 00bd 10       		.uleb128 0x10
 812 00be 2E       		.uleb128 0x2e
 813 00bf 01       		.byte	0x1
 814 00c0 03       		.uleb128 0x3
 815 00c1 0E       		.uleb128 0xe
 816 00c2 3A       		.uleb128 0x3a
 817 00c3 0B       		.uleb128 0xb
 818 00c4 3B       		.uleb128 0x3b
 819 00c5 0B       		.uleb128 0xb
 820 00c6 27       		.uleb128 0x27
 821 00c7 19       		.uleb128 0x19
 822 00c8 20       		.uleb128 0x20
 823 00c9 0B       		.uleb128 0xb
 824 00ca 01       		.uleb128 0x1
 825 00cb 13       		.uleb128 0x13
 826 00cc 00       		.byte	0
 827 00cd 00       		.byte	0
 828 00ce 11       		.uleb128 0x11
 829 00cf 2E       		.uleb128 0x2e
 830 00d0 01       		.byte	0x1
 831 00d1 31       		.uleb128 0x31
 832 00d2 13       		.uleb128 0x13
 833 00d3 11       		.uleb128 0x11
 834 00d4 01       		.uleb128 0x1
 835 00d5 12       		.uleb128 0x12
 836 00d6 06       		.uleb128 0x6
 837 00d7 40       		.uleb128 0x40
 838 00d8 18       		.uleb128 0x18
 839 00d9 9742     		.uleb128 0x2117
 840 00db 19       		.uleb128 0x19
 841 00dc 01       		.uleb128 0x1
 842 00dd 13       		.uleb128 0x13
 843 00de 00       		.byte	0
 844 00df 00       		.byte	0
 845 00e0 12       		.uleb128 0x12
 846 00e1 05       		.uleb128 0x5
 847 00e2 00       		.byte	0
 848 00e3 31       		.uleb128 0x31
 849 00e4 13       		.uleb128 0x13
 850 00e5 02       		.uleb128 0x2
 851 00e6 18       		.uleb128 0x18
 852 00e7 00       		.byte	0
 853 00e8 00       		.byte	0
 854 00e9 13       		.uleb128 0x13
ARM GAS  /tmp/ccWe8uAH.s 			page 16


 855 00ea 2E       		.uleb128 0x2e
 856 00eb 01       		.byte	0x1
 857 00ec 03       		.uleb128 0x3
 858 00ed 0E       		.uleb128 0xe
 859 00ee 3A       		.uleb128 0x3a
 860 00ef 0B       		.uleb128 0xb
 861 00f0 3B       		.uleb128 0x3b
 862 00f1 0B       		.uleb128 0xb
 863 00f2 27       		.uleb128 0x27
 864 00f3 19       		.uleb128 0x19
 865 00f4 11       		.uleb128 0x11
 866 00f5 01       		.uleb128 0x1
 867 00f6 12       		.uleb128 0x12
 868 00f7 06       		.uleb128 0x6
 869 00f8 40       		.uleb128 0x40
 870 00f9 18       		.uleb128 0x18
 871 00fa 9742     		.uleb128 0x2117
 872 00fc 19       		.uleb128 0x19
 873 00fd 01       		.uleb128 0x1
 874 00fe 13       		.uleb128 0x13
 875 00ff 00       		.byte	0
 876 0100 00       		.byte	0
 877 0101 14       		.uleb128 0x14
 878 0102 05       		.uleb128 0x5
 879 0103 00       		.byte	0
 880 0104 03       		.uleb128 0x3
 881 0105 08       		.uleb128 0x8
 882 0106 3A       		.uleb128 0x3a
 883 0107 0B       		.uleb128 0xb
 884 0108 3B       		.uleb128 0x3b
 885 0109 0B       		.uleb128 0xb
 886 010a 49       		.uleb128 0x49
 887 010b 13       		.uleb128 0x13
 888 010c 02       		.uleb128 0x2
 889 010d 18       		.uleb128 0x18
 890 010e 00       		.byte	0
 891 010f 00       		.byte	0
 892 0110 15       		.uleb128 0x15
 893 0111 34       		.uleb128 0x34
 894 0112 00       		.byte	0
 895 0113 03       		.uleb128 0x3
 896 0114 08       		.uleb128 0x8
 897 0115 3A       		.uleb128 0x3a
 898 0116 0B       		.uleb128 0xb
 899 0117 3B       		.uleb128 0x3b
 900 0118 0B       		.uleb128 0xb
 901 0119 49       		.uleb128 0x49
 902 011a 13       		.uleb128 0x13
 903 011b 02       		.uleb128 0x2
 904 011c 17       		.uleb128 0x17
 905 011d 00       		.byte	0
 906 011e 00       		.byte	0
 907 011f 16       		.uleb128 0x16
 908 0120 2E       		.uleb128 0x2e
 909 0121 01       		.byte	0x1
 910 0122 3F       		.uleb128 0x3f
 911 0123 19       		.uleb128 0x19
ARM GAS  /tmp/ccWe8uAH.s 			page 17


 912 0124 03       		.uleb128 0x3
 913 0125 0E       		.uleb128 0xe
 914 0126 3A       		.uleb128 0x3a
 915 0127 0B       		.uleb128 0xb
 916 0128 3B       		.uleb128 0x3b
 917 0129 0B       		.uleb128 0xb
 918 012a 27       		.uleb128 0x27
 919 012b 19       		.uleb128 0x19
 920 012c 11       		.uleb128 0x11
 921 012d 01       		.uleb128 0x1
 922 012e 12       		.uleb128 0x12
 923 012f 06       		.uleb128 0x6
 924 0130 40       		.uleb128 0x40
 925 0131 18       		.uleb128 0x18
 926 0132 9742     		.uleb128 0x2117
 927 0134 19       		.uleb128 0x19
 928 0135 01       		.uleb128 0x1
 929 0136 13       		.uleb128 0x13
 930 0137 00       		.byte	0
 931 0138 00       		.byte	0
 932 0139 17       		.uleb128 0x17
 933 013a 34       		.uleb128 0x34
 934 013b 00       		.byte	0
 935 013c 03       		.uleb128 0x3
 936 013d 08       		.uleb128 0x8
 937 013e 3A       		.uleb128 0x3a
 938 013f 0B       		.uleb128 0xb
 939 0140 3B       		.uleb128 0x3b
 940 0141 0B       		.uleb128 0xb
 941 0142 49       		.uleb128 0x49
 942 0143 13       		.uleb128 0x13
 943 0144 02       		.uleb128 0x2
 944 0145 18       		.uleb128 0x18
 945 0146 00       		.byte	0
 946 0147 00       		.byte	0
 947 0148 18       		.uleb128 0x18
 948 0149 1D       		.uleb128 0x1d
 949 014a 01       		.byte	0x1
 950 014b 31       		.uleb128 0x31
 951 014c 13       		.uleb128 0x13
 952 014d 52       		.uleb128 0x52
 953 014e 01       		.uleb128 0x1
 954 014f 55       		.uleb128 0x55
 955 0150 17       		.uleb128 0x17
 956 0151 58       		.uleb128 0x58
 957 0152 0B       		.uleb128 0xb
 958 0153 59       		.uleb128 0x59
 959 0154 0B       		.uleb128 0xb
 960 0155 01       		.uleb128 0x1
 961 0156 13       		.uleb128 0x13
 962 0157 00       		.byte	0
 963 0158 00       		.byte	0
 964 0159 19       		.uleb128 0x19
 965 015a 05       		.uleb128 0x5
 966 015b 00       		.byte	0
 967 015c 31       		.uleb128 0x31
 968 015d 13       		.uleb128 0x13
ARM GAS  /tmp/ccWe8uAH.s 			page 18


 969 015e 02       		.uleb128 0x2
 970 015f 17       		.uleb128 0x17
 971 0160 00       		.byte	0
 972 0161 00       		.byte	0
 973 0162 1A       		.uleb128 0x1a
 974 0163 898201   		.uleb128 0x4109
 975 0166 01       		.byte	0x1
 976 0167 11       		.uleb128 0x11
 977 0168 01       		.uleb128 0x1
 978 0169 31       		.uleb128 0x31
 979 016a 13       		.uleb128 0x13
 980 016b 00       		.byte	0
 981 016c 00       		.byte	0
 982 016d 1B       		.uleb128 0x1b
 983 016e 8A8201   		.uleb128 0x410a
 984 0171 00       		.byte	0
 985 0172 02       		.uleb128 0x2
 986 0173 18       		.uleb128 0x18
 987 0174 9142     		.uleb128 0x2111
 988 0176 18       		.uleb128 0x18
 989 0177 00       		.byte	0
 990 0178 00       		.byte	0
 991 0179 1C       		.uleb128 0x1c
 992 017a 34       		.uleb128 0x34
 993 017b 00       		.byte	0
 994 017c 03       		.uleb128 0x3
 995 017d 0E       		.uleb128 0xe
 996 017e 3A       		.uleb128 0x3a
 997 017f 0B       		.uleb128 0xb
 998 0180 3B       		.uleb128 0x3b
 999 0181 0B       		.uleb128 0xb
 1000 0182 49       		.uleb128 0x49
 1001 0183 13       		.uleb128 0x13
 1002 0184 02       		.uleb128 0x2
 1003 0185 18       		.uleb128 0x18
 1004 0186 00       		.byte	0
 1005 0187 00       		.byte	0
 1006 0188 1D       		.uleb128 0x1d
 1007 0189 34       		.uleb128 0x34
 1008 018a 00       		.byte	0
 1009 018b 03       		.uleb128 0x3
 1010 018c 0E       		.uleb128 0xe
 1011 018d 3A       		.uleb128 0x3a
 1012 018e 0B       		.uleb128 0xb
 1013 018f 3B       		.uleb128 0x3b
 1014 0190 05       		.uleb128 0x5
 1015 0191 49       		.uleb128 0x49
 1016 0192 13       		.uleb128 0x13
 1017 0193 3F       		.uleb128 0x3f
 1018 0194 19       		.uleb128 0x19
 1019 0195 3C       		.uleb128 0x3c
 1020 0196 19       		.uleb128 0x19
 1021 0197 00       		.byte	0
 1022 0198 00       		.byte	0
 1023 0199 00       		.byte	0
 1024              		.section	.debug_loc,"",%progbits
 1025              	.Ldebug_loc0:
ARM GAS  /tmp/ccWe8uAH.s 			page 19


 1026              	.LLST0:
 1027 0000 08000000 		.4byte	.LVL2
 1028 0004 10000000 		.4byte	.LVL3
 1029 0008 0100     		.2byte	0x1
 1030 000a 53       		.byte	0x53
 1031 000b 00000000 		.4byte	0
 1032 000f 00000000 		.4byte	0
 1033              	.LLST1:
 1034 0013 16000000 		.4byte	.LVL4
 1035 0017 20000000 		.4byte	.LVL5
 1036 001b 0300     		.2byte	0x3
 1037 001d 91       		.byte	0x91
 1038 001e 64       		.sleb128 -28
 1039 001f 9F       		.byte	0x9f
 1040 0020 20000000 		.4byte	.LVL5
 1041 0024 25000000 		.4byte	.LVL6-1
 1042 0028 0100     		.2byte	0x1
 1043 002a 50       		.byte	0x50
 1044 002b 25000000 		.4byte	.LVL6-1
 1045 002f 2E000000 		.4byte	.LVL7
 1046 0033 0300     		.2byte	0x3
 1047 0035 91       		.byte	0x91
 1048 0036 64       		.sleb128 -28
 1049 0037 9F       		.byte	0x9f
 1050 0038 2E000000 		.4byte	.LVL7
 1051 003c 40000000 		.4byte	.LFE120
 1052 0040 0300     		.2byte	0x3
 1053 0042 7D       		.byte	0x7d
 1054 0043 64       		.sleb128 -28
 1055 0044 9F       		.byte	0x9f
 1056 0045 00000000 		.4byte	0
 1057 0049 00000000 		.4byte	0
 1058              		.section	.debug_aranges,"",%progbits
 1059 0000 34000000 		.4byte	0x34
 1060 0004 0200     		.2byte	0x2
 1061 0006 00000000 		.4byte	.Ldebug_info0
 1062 000a 04       		.byte	0x4
 1063 000b 00       		.byte	0
 1064 000c 0000     		.2byte	0
 1065 000e 0000     		.2byte	0
 1066 0010 00000000 		.4byte	.LFB118
 1067 0014 0C000000 		.4byte	.LFE118-.LFB118
 1068 0018 00000000 		.4byte	.LFB119
 1069 001c 38000000 		.4byte	.LFE119-.LFB119
 1070 0020 00000000 		.4byte	.LFB120
 1071 0024 40000000 		.4byte	.LFE120-.LFB120
 1072 0028 00000000 		.4byte	.LFB121
 1073 002c 20000000 		.4byte	.LFE121-.LFB121
 1074 0030 00000000 		.4byte	0
 1075 0034 00000000 		.4byte	0
 1076              		.section	.debug_ranges,"",%progbits
 1077              	.Ldebug_ranges0:
 1078 0000 06000000 		.4byte	.LBB8
 1079 0004 08000000 		.4byte	.LBE8
 1080 0008 0A000000 		.4byte	.LBB19
 1081 000c 10000000 		.4byte	.LBE19
 1082 0010 12000000 		.4byte	.LBB20
ARM GAS  /tmp/ccWe8uAH.s 			page 20


 1083 0014 14000000 		.4byte	.LBE20
 1084 0018 16000000 		.4byte	.LBB21
 1085 001c 18000000 		.4byte	.LBE21
 1086 0020 1A000000 		.4byte	.LBB23
 1087 0024 1C000000 		.4byte	.LBE23
 1088 0028 20000000 		.4byte	.LBB25
 1089 002c 22000000 		.4byte	.LBE25
 1090 0030 00000000 		.4byte	0
 1091 0034 00000000 		.4byte	0
 1092 0038 08000000 		.4byte	.LBB15
 1093 003c 0A000000 		.4byte	.LBE15
 1094 0040 18000000 		.4byte	.LBB22
 1095 0044 1A000000 		.4byte	.LBE22
 1096 0048 1C000000 		.4byte	.LBB24
 1097 004c 1E000000 		.4byte	.LBE24
 1098 0050 00000000 		.4byte	0
 1099 0054 00000000 		.4byte	0
 1100 0058 00000000 		.4byte	.LFB118
 1101 005c 0C000000 		.4byte	.LFE118
 1102 0060 00000000 		.4byte	.LFB119
 1103 0064 38000000 		.4byte	.LFE119
 1104 0068 00000000 		.4byte	.LFB120
 1105 006c 40000000 		.4byte	.LFE120
 1106 0070 00000000 		.4byte	.LFB121
 1107 0074 20000000 		.4byte	.LFE121
 1108 0078 00000000 		.4byte	0
 1109 007c 00000000 		.4byte	0
 1110              		.section	.debug_line,"",%progbits
 1111              	.Ldebug_line0:
 1112 0000 25020000 		.section	.debug_str,"MS",%progbits,1
 1112      02009901 
 1112      00000201 
 1112      FB0E0D00 
 1112      01010101 
 1113              	.LASF30:
 1114 0000 6C617374 		.ascii	"last\000"
 1114      00
 1115              	.LASF34:
 1116 0005 474E5520 		.ascii	"GNU C 4.8.4 20140526 (release) [ARM/embedded-4_8-br"
 1116      4320342E 
 1116      382E3420 
 1116      32303134 
 1116      30353236 
 1117 0038 616E6368 		.ascii	"anch revision 211358] -mcpu=cortex-m4 -mno-thumb-in"
 1117      20726576 
 1117      6973696F 
 1117      6E203231 
 1117      31333538 
 1118 006b 74657277 		.ascii	"terwork -mthumb -ggdb -O2 -std=gnu99 -fomit-frame-p"
 1118      6F726B20 
 1118      2D6D7468 
 1118      756D6220 
 1118      2D676764 
 1119 009e 6F696E74 		.ascii	"ointer -falign-functions=16 -ffunction-sections -fd"
 1119      6572202D 
 1119      66616C69 
 1119      676E2D66 
ARM GAS  /tmp/ccWe8uAH.s 			page 21


 1119      756E6374 
 1120 00d1 6174612D 		.ascii	"ata-sections -fno-common\000"
 1120      73656374 
 1120      696F6E73 
 1120      202D666E 
 1120      6F2D636F 
 1121              	.LASF23:
 1122 00ea 50435352 		.ascii	"PCSR\000"
 1122      00
 1123              	.LASF6:
 1124 00ef 5F5F696E 		.ascii	"__int32_t\000"
 1124      7433325F 
 1124      7400
 1125              	.LASF39:
 1126 00f9 746D5F73 		.ascii	"tm_stop\000"
 1126      746F7000 
 1127              	.LASF28:
 1128 0101 73746172 		.ascii	"start\000"
 1128      7400
 1129              	.LASF20:
 1130 0107 534C4545 		.ascii	"SLEEPCNT\000"
 1130      50434E54 
 1130      00
 1131              	.LASF29:
 1132 0110 73746F70 		.ascii	"stop\000"
 1132      00
 1133              	.LASF10:
 1134 0115 6C6F6E67 		.ascii	"long long unsigned int\000"
 1134      206C6F6E 
 1134      6720756E 
 1134      7369676E 
 1134      65642069 
 1135              	.LASF2:
 1136 012c 756E7369 		.ascii	"unsigned char\000"
 1136      676E6564 
 1136      20636861 
 1136      7200
 1137              	.LASF17:
 1138 013a 43594343 		.ascii	"CYCCNT\000"
 1138      4E5400
 1139              	.LASF40:
 1140 0141 746D496E 		.ascii	"tmInit\000"
 1140      697400
 1141              	.LASF8:
 1142 0148 6C6F6E67 		.ascii	"long unsigned int\000"
 1142      20756E73 
 1142      69676E65 
 1142      6420696E 
 1142      7400
 1143              	.LASF37:
 1144 015a 746D4F62 		.ascii	"tmObjectInit\000"
 1144      6A656374 
 1144      496E6974 
 1144      00
 1145              	.LASF4:
 1146 0167 73686F72 		.ascii	"short unsigned int\000"
 1146      7420756E 
ARM GAS  /tmp/ccWe8uAH.s 			page 22


 1146      7369676E 
 1146      65642069 
 1146      6E7400
 1147              	.LASF18:
 1148 017a 43504943 		.ascii	"CPICNT\000"
 1148      4E5400
 1149              	.LASF36:
 1150 0181 2F686F6D 		.ascii	"/home/terence/el6483-cyh316/6-rtos/rtos-priority\000"
 1150      652F7465 
 1150      72656E63 
 1150      652F656C 
 1150      36343833 
 1151              	.LASF22:
 1152 01b2 464F4C44 		.ascii	"FOLDCNT\000"
 1152      434E5400 
 1153              	.LASF31:
 1154 01ba 776F7273 		.ascii	"worst\000"
 1154      7400
 1155              	.LASF7:
 1156 01c0 5F5F7569 		.ascii	"__uint32_t\000"
 1156      6E743332 
 1156      5F7400
 1157              	.LASF21:
 1158 01cb 4C535543 		.ascii	"LSUCNT\000"
 1158      4E5400
 1159              	.LASF41:
 1160 01d2 49544D5F 		.ascii	"ITM_RxBuffer\000"
 1160      52784275 
 1160      66666572 
 1160      00
 1161              	.LASF0:
 1162 01df 756E7369 		.ascii	"unsigned int\000"
 1162      676E6564 
 1162      20696E74 
 1162      00
 1163              	.LASF26:
 1164 01ec 68616C72 		.ascii	"halrtcnt_t\000"
 1164      74636E74 
 1164      5F7400
 1165              	.LASF25:
 1166 01f7 63686172 		.ascii	"char\000"
 1166      00
 1167              	.LASF38:
 1168 01fc 746D5F73 		.ascii	"tm_start\000"
 1168      74617274 
 1168      00
 1169              	.LASF16:
 1170 0205 4354524C 		.ascii	"CTRL\000"
 1170      00
 1171              	.LASF19:
 1172 020a 45584343 		.ascii	"EXCCNT\000"
 1172      4E5400
 1173              	.LASF11:
 1174 0211 696E7433 		.ascii	"int32_t\000"
 1174      325F7400 
 1175              	.LASF15:
 1176 0219 73697A65 		.ascii	"sizetype\000"
ARM GAS  /tmp/ccWe8uAH.s 			page 23


 1176      74797065 
 1176      00
 1177              	.LASF9:
 1178 0222 6C6F6E67 		.ascii	"long long int\000"
 1178      206C6F6E 
 1178      6720696E 
 1178      7400
 1179              	.LASF14:
 1180 0230 494F5245 		.ascii	"IOREG32\000"
 1180      47333200 
 1181              	.LASF33:
 1182 0238 6D656173 		.ascii	"measurement_offset\000"
 1182      7572656D 
 1182      656E745F 
 1182      6F666673 
 1182      657400
 1183              	.LASF3:
 1184 024b 73686F72 		.ascii	"short int\000"
 1184      7420696E 
 1184      7400
 1185              	.LASF24:
 1186 0255 434D785F 		.ascii	"CMx_DWT\000"
 1186      44575400 
 1187              	.LASF35:
 1188 025d 2E2E2F43 		.ascii	"../ChibiOS_2.6.7_minified/os/hal/src/tm.c\000"
 1188      68696269 
 1188      4F535F32 
 1188      2E362E37 
 1188      5F6D696E 
 1189              	.LASF32:
 1190 0287 62657374 		.ascii	"best\000"
 1190      00
 1191              	.LASF12:
 1192 028c 75696E74 		.ascii	"uint32_t\000"
 1192      33325F74 
 1192      00
 1193              	.LASF5:
 1194 0295 6C6F6E67 		.ascii	"long int\000"
 1194      20696E74 
 1194      00
 1195              	.LASF1:
 1196 029e 7369676E 		.ascii	"signed char\000"
 1196      65642063 
 1196      68617200 
 1197              	.LASF27:
 1198 02aa 54696D65 		.ascii	"TimeMeasurement\000"
 1198      4D656173 
 1198      7572656D 
 1198      656E7400 
 1199              	.LASF13:
 1200 02ba 5F426F6F 		.ascii	"_Bool\000"
 1200      6C00
 1201              		.ident	"GCC: (GNU Tools for ARM Embedded Processors) 4.8.4 20140526 (release) [ARM/embedded-4_8-br
ARM GAS  /tmp/ccWe8uAH.s 			page 24


DEFINED SYMBOLS
                            *ABS*:0000000000000000 tm.c
     /tmp/ccWe8uAH.s:19     .text.tm_start:0000000000000000 $t
     /tmp/ccWe8uAH.s:24     .text.tm_start:0000000000000000 tm_start
     /tmp/ccWe8uAH.s:41     .text.tm_start:0000000000000008 $d
     /tmp/ccWe8uAH.s:46     .text.tm_stop:0000000000000000 $t
     /tmp/ccWe8uAH.s:51     .text.tm_stop:0000000000000000 tm_stop
     /tmp/ccWe8uAH.s:105    .text.tm_stop:0000000000000030 $d
     /tmp/ccWe8uAH.s:111    .text.tmInit:0000000000000000 $t
     /tmp/ccWe8uAH.s:117    .text.tmInit:0000000000000000 tmInit
     /tmp/ccWe8uAH.s:209    .text.tmInit:0000000000000030 $d
     /tmp/ccWe8uAH.s:217    .text.tmObjectInit:0000000000000000 $t
     /tmp/ccWe8uAH.s:223    .text.tmObjectInit:0000000000000000 tmObjectInit
     /tmp/ccWe8uAH.s:253    .text.tmObjectInit:0000000000000018 $d
     /tmp/ccWe8uAH.s:259    .bss.measurement_offset:0000000000000000 $d
     /tmp/ccWe8uAH.s:263    .bss.measurement_offset:0000000000000000 measurement_offset
                     .debug_frame:0000000000000010 $d
     /tmp/ccWe8uAH.s:45     .text.tm_start:000000000000000c $t
     /tmp/ccWe8uAH.s:110    .text.tm_stop:0000000000000038 $t

NO UNDEFINED SYMBOLS
