ARM GAS  /tmp/cc9nFK9E.s 			page 1


   1              		.syntax unified
   2              		.cpu cortex-m4
   3              		.fpu softvfp
   4              		.eabi_attribute 20, 1
   5              		.eabi_attribute 21, 1
   6              		.eabi_attribute 23, 3
   7              		.eabi_attribute 24, 1
   8              		.eabi_attribute 25, 1
   9              		.eabi_attribute 26, 1
  10              		.eabi_attribute 30, 2
  11              		.eabi_attribute 34, 1
  12              		.eabi_attribute 18, 4
  13              		.thumb
  14              		.file	"chmemcore.c"
  15              		.text
  16              	.Ltext0:
  17              		.cfi_sections	.debug_frame
  18              		.section	.text._core_init,"ax",%progbits
  19              		.align	2
  20              		.p2align 4,,15
  21              		.global	_core_init
  22              		.thumb
  23              		.thumb_func
  24              		.type	_core_init, %function
  25              	_core_init:
  26              	.LFB7:
  27              		.file 1 "../ChibiOS_2.6.7_minified/os/kernel/src/chmemcore.c"
  28              		.loc 1 66 0
  29              		.cfi_startproc
  30              		@ args = 0, pretend = 0, frame = 0
  31              		@ frame_needed = 0, uses_anonymous_args = 0
  32              		@ link register save eliminated.
  33              		.loc 1 70 0
  34 0000 0548     		ldr	r0, .L2
  35              		.loc 1 71 0
  36 0002 064A     		ldr	r2, .L2+4
  37              		.loc 1 70 0
  38 0004 0649     		ldr	r1, .L2+8
  39              		.loc 1 71 0
  40 0006 074B     		ldr	r3, .L2+12
  41              		.loc 1 70 0
  42 0008 20F00700 		bic	r0, r0, #7
  43              		.loc 1 71 0
  44 000c 22F00702 		bic	r2, r2, #7
  45              		.loc 1 70 0
  46 0010 0860     		str	r0, [r1]
  47              		.loc 1 71 0
  48 0012 1A60     		str	r2, [r3]
  49 0014 7047     		bx	lr
  50              	.L3:
  51 0016 00BF     		.align	2
  52              	.L2:
  53 0018 07000000 		.word	__heap_base__+7
  54 001c 00000000 		.word	__heap_end__
  55 0020 00000000 		.word	.LANCHOR0
  56 0024 00000000 		.word	.LANCHOR1
  57              		.cfi_endproc
ARM GAS  /tmp/cc9nFK9E.s 			page 2


  58              	.LFE7:
  59              		.size	_core_init, .-_core_init
  60 0028 AFF30080 		.section	.text.chCoreAlloc,"ax",%progbits
  60      AFF30080 
  61              		.align	2
  62              		.p2align 4,,15
  63              		.global	chCoreAlloc
  64              		.thumb
  65              		.thumb_func
  66              		.type	chCoreAlloc, %function
  67              	chCoreAlloc:
  68              	.LFB8:
  69              		.loc 1 91 0
  70              		.cfi_startproc
  71              		@ args = 0, pretend = 0, frame = 0
  72              		@ frame_needed = 0, uses_anonymous_args = 0
  73              		@ link register save eliminated.
  74              	.LVL0:
  75              	.LBB6:
  76              		.loc 1 94 0
  77 0000 2023     		movs	r3, #32
  78              	@ 94 "../ChibiOS_2.6.7_minified/os/kernel/src/chmemcore.c" 1
  79 0002 83F31188 		msr     BASEPRI, r3
  80              	@ 0 "" 2
  81              	.LVL1:
  82              		.thumb
  83              	.LBE6:
  84              	.LBB7:
  85              	.LBB8:
  86              		.loc 1 118 0
  87 0006 094A     		ldr	r2, .L7
  88 0008 0949     		ldr	r1, .L7+4
  89 000a 1368     		ldr	r3, [r2]
  90 000c 0968     		ldr	r1, [r1]
  91              		.loc 1 117 0
  92 000e 0730     		adds	r0, r0, #7
  93              	.LVL2:
  94 0010 20F00700 		bic	r0, r0, #7
  95              	.LVL3:
  96              		.loc 1 118 0
  97 0014 C91A     		subs	r1, r1, r3
  98 0016 8842     		cmp	r0, r1
  99              	.LVL4:
 100              		.loc 1 121 0
 101 0018 9BBF     		ittet	ls
 102 001a C018     		addls	r0, r0, r3
 103              	.LVL5:
 104 001c 1060     		strls	r0, [r2]
 105              		.loc 1 119 0
 106 001e 0020     		movhi	r0, #0
 107              		.loc 1 122 0
 108 0020 1846     		movls	r0, r3
 109              	.LBE8:
 110              	.LBE7:
 111              	.LBB9:
 112              		.loc 1 96 0
 113 0022 0023     		movs	r3, #0
ARM GAS  /tmp/cc9nFK9E.s 			page 3


 114              	.LVL6:
 115              	@ 96 "../ChibiOS_2.6.7_minified/os/kernel/src/chmemcore.c" 1
 116 0024 83F31188 		msr     BASEPRI, r3
 117              	@ 0 "" 2
 118              		.thumb
 119              	.LBE9:
 120              		.loc 1 98 0
 121 0028 7047     		bx	lr
 122              	.L8:
 123 002a 00BF     		.align	2
 124              	.L7:
 125 002c 00000000 		.word	.LANCHOR0
 126 0030 00000000 		.word	.LANCHOR1
 127              		.cfi_endproc
 128              	.LFE8:
 129              		.size	chCoreAlloc, .-chCoreAlloc
 130 0034 AFF30080 		.section	.text.chCoreAllocI,"ax",%progbits
 130      AFF30080 
 130      AFF30080 
 131              		.align	2
 132              		.p2align 4,,15
 133              		.global	chCoreAllocI
 134              		.thumb
 135              		.thumb_func
 136              		.type	chCoreAllocI, %function
 137              	chCoreAllocI:
 138              	.LFB9:
 139              		.loc 1 112 0
 140              		.cfi_startproc
 141              		@ args = 0, pretend = 0, frame = 0
 142              		@ frame_needed = 0, uses_anonymous_args = 0
 143              		@ link register save eliminated.
 144              	.LVL7:
 145              		.loc 1 118 0
 146 0000 074A     		ldr	r2, .L12
 147 0002 0849     		ldr	r1, .L12+4
 148 0004 1368     		ldr	r3, [r2]
 149 0006 0968     		ldr	r1, [r1]
 150              		.loc 1 117 0
 151 0008 0730     		adds	r0, r0, #7
 152              	.LVL8:
 153 000a 20F00700 		bic	r0, r0, #7
 154              	.LVL9:
 155              		.loc 1 118 0
 156 000e C91A     		subs	r1, r1, r3
 157 0010 8842     		cmp	r0, r1
 158              	.LVL10:
 159              		.loc 1 121 0
 160 0012 9DBF     		ittte	ls
 161 0014 C018     		addls	r0, r0, r3
 162              	.LVL11:
 163 0016 1060     		strls	r0, [r2]
 164              		.loc 1 122 0
 165 0018 1846     		movls	r0, r3
 166              		.loc 1 119 0
 167 001a 0020     		movhi	r0, #0
 168              		.loc 1 123 0
ARM GAS  /tmp/cc9nFK9E.s 			page 4


 169 001c 7047     		bx	lr
 170              	.L13:
 171 001e 00BF     		.align	2
 172              	.L12:
 173 0020 00000000 		.word	.LANCHOR0
 174 0024 00000000 		.word	.LANCHOR1
 175              		.cfi_endproc
 176              	.LFE9:
 177              		.size	chCoreAllocI, .-chCoreAllocI
 178 0028 AFF30080 		.section	.text.chCoreStatus,"ax",%progbits
 178      AFF30080 
 179              		.align	2
 180              		.p2align 4,,15
 181              		.global	chCoreStatus
 182              		.thumb
 183              		.thumb_func
 184              		.type	chCoreStatus, %function
 185              	chCoreStatus:
 186              	.LFB10:
 187              		.loc 1 132 0
 188              		.cfi_startproc
 189              		@ args = 0, pretend = 0, frame = 0
 190              		@ frame_needed = 0, uses_anonymous_args = 0
 191              		@ link register save eliminated.
 192              		.loc 1 134 0
 193 0000 024A     		ldr	r2, .L15
 194 0002 034B     		ldr	r3, .L15+4
 195 0004 1068     		ldr	r0, [r2]
 196 0006 1B68     		ldr	r3, [r3]
 197              		.loc 1 135 0
 198 0008 C01A     		subs	r0, r0, r3
 199 000a 7047     		bx	lr
 200              	.L16:
 201              		.align	2
 202              	.L15:
 203 000c 00000000 		.word	.LANCHOR1
 204 0010 00000000 		.word	.LANCHOR0
 205              		.cfi_endproc
 206              	.LFE10:
 207              		.size	chCoreStatus, .-chCoreStatus
 208 0014 AFF30080 		.section	.bss.endmem,"aw",%nobits
 208      AFF30080 
 208      AFF30080 
 209              		.align	2
 210              		.set	.LANCHOR1,. + 0
 211              		.type	endmem, %object
 212              		.size	endmem, 4
 213              	endmem:
 214 0000 00000000 		.space	4
 215              		.section	.bss.nextmem,"aw",%nobits
 216              		.align	2
 217              		.set	.LANCHOR0,. + 0
 218              		.type	nextmem, %object
 219              		.size	nextmem, 4
 220              	nextmem:
 221 0000 00000000 		.space	4
 222              		.text
ARM GAS  /tmp/cc9nFK9E.s 			page 5


 223              	.Letext0:
 224              		.file 2 "/usr/lib/gcc/arm-none-eabi/4.8.4/include/stddef.h"
 225              		.file 3 "/usr/arm-none-eabi/include/machine/_default_types.h"
 226              		.file 4 "/usr/arm-none-eabi/include/stdint.h"
 227              		.section	.debug_info,"",%progbits
 228              	.Ldebug_info0:
 229 0000 1D020000 		.4byte	0x21d
 230 0004 0400     		.2byte	0x4
 231 0006 00000000 		.4byte	.Ldebug_abbrev0
 232 000a 04       		.byte	0x4
 233 000b 01       		.uleb128 0x1
 234 000c 18000000 		.4byte	.LASF21
 235 0010 01       		.byte	0x1
 236 0011 B0010000 		.4byte	.LASF22
 237 0015 0D020000 		.4byte	.LASF23
 238 0019 00000000 		.4byte	.Ldebug_ranges0+0
 239 001d 00000000 		.4byte	0
 240 0021 00000000 		.4byte	.Ldebug_line0
 241 0025 02       		.uleb128 0x2
 242 0026 04       		.byte	0x4
 243 0027 05       		.byte	0x5
 244 0028 696E7400 		.ascii	"int\000"
 245 002c 03       		.uleb128 0x3
 246 002d 11000000 		.4byte	.LASF2
 247 0031 02       		.byte	0x2
 248 0032 D4       		.byte	0xd4
 249 0033 37000000 		.4byte	0x37
 250 0037 04       		.uleb128 0x4
 251 0038 04       		.byte	0x4
 252 0039 07       		.byte	0x7
 253 003a 76010000 		.4byte	.LASF0
 254 003e 04       		.uleb128 0x4
 255 003f 01       		.byte	0x1
 256 0040 06       		.byte	0x6
 257 0041 5A020000 		.4byte	.LASF1
 258 0045 03       		.uleb128 0x3
 259 0046 07000000 		.4byte	.LASF3
 260 004a 03       		.byte	0x3
 261 004b 1C       		.byte	0x1c
 262 004c 50000000 		.4byte	0x50
 263 0050 04       		.uleb128 0x4
 264 0051 01       		.byte	0x1
 265 0052 08       		.byte	0x8
 266 0053 52010000 		.4byte	.LASF4
 267 0057 04       		.uleb128 0x4
 268 0058 02       		.byte	0x2
 269 0059 05       		.byte	0x5
 270 005a 3B020000 		.4byte	.LASF5
 271 005e 04       		.uleb128 0x4
 272 005f 02       		.byte	0x2
 273 0060 07       		.byte	0x7
 274 0061 36010000 		.4byte	.LASF6
 275 0065 04       		.uleb128 0x4
 276 0066 04       		.byte	0x4
 277 0067 05       		.byte	0x5
 278 0068 51020000 		.4byte	.LASF7
 279 006c 03       		.uleb128 0x3
ARM GAS  /tmp/cc9nFK9E.s 			page 6


 280 006d 60010000 		.4byte	.LASF8
 281 0071 03       		.byte	0x3
 282 0072 38       		.byte	0x38
 283 0073 77000000 		.4byte	0x77
 284 0077 04       		.uleb128 0x4
 285 0078 04       		.byte	0x4
 286 0079 07       		.byte	0x7
 287 007a 17010000 		.4byte	.LASF9
 288 007e 04       		.uleb128 0x4
 289 007f 08       		.byte	0x8
 290 0080 05       		.byte	0x5
 291 0081 ED010000 		.4byte	.LASF10
 292 0085 04       		.uleb128 0x4
 293 0086 08       		.byte	0x8
 294 0087 07       		.byte	0x7
 295 0088 83010000 		.4byte	.LASF11
 296 008c 03       		.uleb128 0x3
 297 008d 9A010000 		.4byte	.LASF12
 298 0091 04       		.byte	0x4
 299 0092 2A       		.byte	0x2a
 300 0093 45000000 		.4byte	0x45
 301 0097 03       		.uleb128 0x3
 302 0098 49010000 		.4byte	.LASF13
 303 009c 04       		.byte	0x4
 304 009d 42       		.byte	0x42
 305 009e 6C000000 		.4byte	0x6c
 306 00a2 04       		.uleb128 0x4
 307 00a3 01       		.byte	0x1
 308 00a4 02       		.byte	0x2
 309 00a5 66020000 		.4byte	.LASF14
 310 00a9 05       		.uleb128 0x5
 311 00aa 04       		.byte	0x4
 312 00ab 04       		.uleb128 0x4
 313 00ac 04       		.byte	0x4
 314 00ad 07       		.byte	0x7
 315 00ae E4010000 		.4byte	.LASF15
 316 00b2 04       		.uleb128 0x4
 317 00b3 01       		.byte	0x1
 318 00b4 08       		.byte	0x8
 319 00b5 FB010000 		.4byte	.LASF16
 320 00b9 06       		.uleb128 0x6
 321 00ba 04       		.byte	0x4
 322 00bb 8C000000 		.4byte	0x8c
 323 00bf 07       		.uleb128 0x7
 324 00c0 05010000 		.4byte	.LASF24
 325 00c4 01       		.byte	0x1
 326 00c5 70       		.byte	0x70
 327 00c6 A9000000 		.4byte	0xa9
 328 00ca 01       		.byte	0x1
 329 00cb E4000000 		.4byte	0xe4
 330 00cf 08       		.uleb128 0x8
 331 00d0 12010000 		.4byte	.LASF25
 332 00d4 01       		.byte	0x1
 333 00d5 70       		.byte	0x70
 334 00d6 2C000000 		.4byte	0x2c
 335 00da 09       		.uleb128 0x9
 336 00db 7000     		.ascii	"p\000"
ARM GAS  /tmp/cc9nFK9E.s 			page 7


 337 00dd 01       		.byte	0x1
 338 00de 71       		.byte	0x71
 339 00df A9000000 		.4byte	0xa9
 340 00e3 00       		.byte	0
 341 00e4 0A       		.uleb128 0xa
 342 00e5 6B010000 		.4byte	.LASF26
 343 00e9 01       		.byte	0x1
 344 00ea 42       		.byte	0x42
 345 00eb 00000000 		.4byte	.LFB7
 346 00ef 28000000 		.4byte	.LFE7-.LFB7
 347 00f3 01       		.uleb128 0x1
 348 00f4 9C       		.byte	0x9c
 349 00f5 10010000 		.4byte	0x110
 350 00f9 0B       		.uleb128 0xb
 351 00fa A2010000 		.4byte	.LASF17
 352 00fe 01       		.byte	0x1
 353 00ff 44       		.byte	0x44
 354 0100 10010000 		.4byte	0x110
 355 0104 0B       		.uleb128 0xb
 356 0105 00020000 		.4byte	.LASF18
 357 0109 01       		.byte	0x1
 358 010a 45       		.byte	0x45
 359 010b 10010000 		.4byte	0x110
 360 010f 00       		.byte	0
 361 0110 0C       		.uleb128 0xc
 362 0111 8C000000 		.4byte	0x8c
 363 0115 1B010000 		.4byte	0x11b
 364 0119 0D       		.uleb128 0xd
 365 011a 00       		.byte	0
 366 011b 0E       		.uleb128 0xe
 367 011c 45020000 		.4byte	.LASF27
 368 0120 01       		.byte	0x1
 369 0121 5B       		.byte	0x5b
 370 0122 A9000000 		.4byte	0xa9
 371 0126 00000000 		.4byte	.LFB8
 372 012a 34000000 		.4byte	.LFE8-.LFB8
 373 012e 01       		.uleb128 0x1
 374 012f 9C       		.byte	0x9c
 375 0130 AF010000 		.4byte	0x1af
 376 0134 0F       		.uleb128 0xf
 377 0135 12010000 		.4byte	.LASF25
 378 0139 01       		.byte	0x1
 379 013a 5B       		.byte	0x5b
 380 013b 2C000000 		.4byte	0x2c
 381 013f 00000000 		.4byte	.LLST0
 382 0143 09       		.uleb128 0x9
 383 0144 7000     		.ascii	"p\000"
 384 0146 01       		.byte	0x1
 385 0147 5C       		.byte	0x5c
 386 0148 A9000000 		.4byte	0xa9
 387 014c 10       		.uleb128 0x10
 388 014d 00000000 		.4byte	.LBB6
 389 0151 06000000 		.4byte	.LBE6-.LBB6
 390 0155 67010000 		.4byte	0x167
 391 0159 11       		.uleb128 0x11
 392 015a 746D7000 		.ascii	"tmp\000"
 393 015e 01       		.byte	0x1
ARM GAS  /tmp/cc9nFK9E.s 			page 8


 394 015f 5E       		.byte	0x5e
 395 0160 97000000 		.4byte	0x97
 396 0164 01       		.uleb128 0x1
 397 0165 53       		.byte	0x53
 398 0166 00       		.byte	0
 399 0167 12       		.uleb128 0x12
 400 0168 BF000000 		.4byte	0xbf
 401 016c 06000000 		.4byte	.LBB7
 402 0170 1C000000 		.4byte	.LBE7-.LBB7
 403 0174 01       		.byte	0x1
 404 0175 5F       		.byte	0x5f
 405 0176 97010000 		.4byte	0x197
 406 017a 13       		.uleb128 0x13
 407 017b CF000000 		.4byte	0xcf
 408 017f 2E000000 		.4byte	.LLST1
 409 0183 14       		.uleb128 0x14
 410 0184 06000000 		.4byte	.LBB8
 411 0188 1C000000 		.4byte	.LBE8-.LBB8
 412 018c 15       		.uleb128 0x15
 413 018d DA000000 		.4byte	0xda
 414 0191 6C000000 		.4byte	.LLST2
 415 0195 00       		.byte	0
 416 0196 00       		.byte	0
 417 0197 14       		.uleb128 0x14
 418 0198 22000000 		.4byte	.LBB9
 419 019c 06000000 		.4byte	.LBE9-.LBB9
 420 01a0 11       		.uleb128 0x11
 421 01a1 746D7000 		.ascii	"tmp\000"
 422 01a5 01       		.byte	0x1
 423 01a6 60       		.byte	0x60
 424 01a7 97000000 		.4byte	0x97
 425 01ab 01       		.uleb128 0x1
 426 01ac 53       		.byte	0x53
 427 01ad 00       		.byte	0
 428 01ae 00       		.byte	0
 429 01af 16       		.uleb128 0x16
 430 01b0 BF000000 		.4byte	0xbf
 431 01b4 00000000 		.4byte	.LFB9
 432 01b8 28000000 		.4byte	.LFE9-.LFB9
 433 01bc 01       		.uleb128 0x1
 434 01bd 9C       		.byte	0x9c
 435 01be D3010000 		.4byte	0x1d3
 436 01c2 13       		.uleb128 0x13
 437 01c3 CF000000 		.4byte	0xcf
 438 01c7 8E000000 		.4byte	.LLST3
 439 01cb 17       		.uleb128 0x17
 440 01cc DA000000 		.4byte	0xda
 441 01d0 01       		.uleb128 0x1
 442 01d1 53       		.byte	0x53
 443 01d2 00       		.byte	0
 444 01d3 18       		.uleb128 0x18
 445 01d4 29010000 		.4byte	.LASF28
 446 01d8 01       		.byte	0x1
 447 01d9 84       		.byte	0x84
 448 01da 2C000000 		.4byte	0x2c
 449 01de 00000000 		.4byte	.LFB10
 450 01e2 14000000 		.4byte	.LFE10-.LFB10
ARM GAS  /tmp/cc9nFK9E.s 			page 9


 451 01e6 01       		.uleb128 0x1
 452 01e7 9C       		.byte	0x9c
 453 01e8 19       		.uleb128 0x19
 454 01e9 FD000000 		.4byte	.LASF19
 455 01ed 01       		.byte	0x1
 456 01ee 3A       		.byte	0x3a
 457 01ef B9000000 		.4byte	0xb9
 458 01f3 05       		.uleb128 0x5
 459 01f4 03       		.byte	0x3
 460 01f5 00000000 		.4byte	nextmem
 461 01f9 19       		.uleb128 0x19
 462 01fa 00000000 		.4byte	.LASF20
 463 01fe 01       		.byte	0x1
 464 01ff 3B       		.byte	0x3b
 465 0200 B9000000 		.4byte	0xb9
 466 0204 05       		.uleb128 0x5
 467 0205 03       		.byte	0x3
 468 0206 00000000 		.4byte	endmem
 469 020a 0B       		.uleb128 0xb
 470 020b A2010000 		.4byte	.LASF17
 471 020f 01       		.byte	0x1
 472 0210 44       		.byte	0x44
 473 0211 10010000 		.4byte	0x110
 474 0215 0B       		.uleb128 0xb
 475 0216 00020000 		.4byte	.LASF18
 476 021a 01       		.byte	0x1
 477 021b 45       		.byte	0x45
 478 021c 10010000 		.4byte	0x110
 479 0220 00       		.byte	0
 480              		.section	.debug_abbrev,"",%progbits
 481              	.Ldebug_abbrev0:
 482 0000 01       		.uleb128 0x1
 483 0001 11       		.uleb128 0x11
 484 0002 01       		.byte	0x1
 485 0003 25       		.uleb128 0x25
 486 0004 0E       		.uleb128 0xe
 487 0005 13       		.uleb128 0x13
 488 0006 0B       		.uleb128 0xb
 489 0007 03       		.uleb128 0x3
 490 0008 0E       		.uleb128 0xe
 491 0009 1B       		.uleb128 0x1b
 492 000a 0E       		.uleb128 0xe
 493 000b 55       		.uleb128 0x55
 494 000c 17       		.uleb128 0x17
 495 000d 11       		.uleb128 0x11
 496 000e 01       		.uleb128 0x1
 497 000f 10       		.uleb128 0x10
 498 0010 17       		.uleb128 0x17
 499 0011 00       		.byte	0
 500 0012 00       		.byte	0
 501 0013 02       		.uleb128 0x2
 502 0014 24       		.uleb128 0x24
 503 0015 00       		.byte	0
 504 0016 0B       		.uleb128 0xb
 505 0017 0B       		.uleb128 0xb
 506 0018 3E       		.uleb128 0x3e
 507 0019 0B       		.uleb128 0xb
ARM GAS  /tmp/cc9nFK9E.s 			page 10


 508 001a 03       		.uleb128 0x3
 509 001b 08       		.uleb128 0x8
 510 001c 00       		.byte	0
 511 001d 00       		.byte	0
 512 001e 03       		.uleb128 0x3
 513 001f 16       		.uleb128 0x16
 514 0020 00       		.byte	0
 515 0021 03       		.uleb128 0x3
 516 0022 0E       		.uleb128 0xe
 517 0023 3A       		.uleb128 0x3a
 518 0024 0B       		.uleb128 0xb
 519 0025 3B       		.uleb128 0x3b
 520 0026 0B       		.uleb128 0xb
 521 0027 49       		.uleb128 0x49
 522 0028 13       		.uleb128 0x13
 523 0029 00       		.byte	0
 524 002a 00       		.byte	0
 525 002b 04       		.uleb128 0x4
 526 002c 24       		.uleb128 0x24
 527 002d 00       		.byte	0
 528 002e 0B       		.uleb128 0xb
 529 002f 0B       		.uleb128 0xb
 530 0030 3E       		.uleb128 0x3e
 531 0031 0B       		.uleb128 0xb
 532 0032 03       		.uleb128 0x3
 533 0033 0E       		.uleb128 0xe
 534 0034 00       		.byte	0
 535 0035 00       		.byte	0
 536 0036 05       		.uleb128 0x5
 537 0037 0F       		.uleb128 0xf
 538 0038 00       		.byte	0
 539 0039 0B       		.uleb128 0xb
 540 003a 0B       		.uleb128 0xb
 541 003b 00       		.byte	0
 542 003c 00       		.byte	0
 543 003d 06       		.uleb128 0x6
 544 003e 0F       		.uleb128 0xf
 545 003f 00       		.byte	0
 546 0040 0B       		.uleb128 0xb
 547 0041 0B       		.uleb128 0xb
 548 0042 49       		.uleb128 0x49
 549 0043 13       		.uleb128 0x13
 550 0044 00       		.byte	0
 551 0045 00       		.byte	0
 552 0046 07       		.uleb128 0x7
 553 0047 2E       		.uleb128 0x2e
 554 0048 01       		.byte	0x1
 555 0049 3F       		.uleb128 0x3f
 556 004a 19       		.uleb128 0x19
 557 004b 03       		.uleb128 0x3
 558 004c 0E       		.uleb128 0xe
 559 004d 3A       		.uleb128 0x3a
 560 004e 0B       		.uleb128 0xb
 561 004f 3B       		.uleb128 0x3b
 562 0050 0B       		.uleb128 0xb
 563 0051 27       		.uleb128 0x27
 564 0052 19       		.uleb128 0x19
ARM GAS  /tmp/cc9nFK9E.s 			page 11


 565 0053 49       		.uleb128 0x49
 566 0054 13       		.uleb128 0x13
 567 0055 20       		.uleb128 0x20
 568 0056 0B       		.uleb128 0xb
 569 0057 01       		.uleb128 0x1
 570 0058 13       		.uleb128 0x13
 571 0059 00       		.byte	0
 572 005a 00       		.byte	0
 573 005b 08       		.uleb128 0x8
 574 005c 05       		.uleb128 0x5
 575 005d 00       		.byte	0
 576 005e 03       		.uleb128 0x3
 577 005f 0E       		.uleb128 0xe
 578 0060 3A       		.uleb128 0x3a
 579 0061 0B       		.uleb128 0xb
 580 0062 3B       		.uleb128 0x3b
 581 0063 0B       		.uleb128 0xb
 582 0064 49       		.uleb128 0x49
 583 0065 13       		.uleb128 0x13
 584 0066 00       		.byte	0
 585 0067 00       		.byte	0
 586 0068 09       		.uleb128 0x9
 587 0069 34       		.uleb128 0x34
 588 006a 00       		.byte	0
 589 006b 03       		.uleb128 0x3
 590 006c 08       		.uleb128 0x8
 591 006d 3A       		.uleb128 0x3a
 592 006e 0B       		.uleb128 0xb
 593 006f 3B       		.uleb128 0x3b
 594 0070 0B       		.uleb128 0xb
 595 0071 49       		.uleb128 0x49
 596 0072 13       		.uleb128 0x13
 597 0073 00       		.byte	0
 598 0074 00       		.byte	0
 599 0075 0A       		.uleb128 0xa
 600 0076 2E       		.uleb128 0x2e
 601 0077 01       		.byte	0x1
 602 0078 3F       		.uleb128 0x3f
 603 0079 19       		.uleb128 0x19
 604 007a 03       		.uleb128 0x3
 605 007b 0E       		.uleb128 0xe
 606 007c 3A       		.uleb128 0x3a
 607 007d 0B       		.uleb128 0xb
 608 007e 3B       		.uleb128 0x3b
 609 007f 0B       		.uleb128 0xb
 610 0080 27       		.uleb128 0x27
 611 0081 19       		.uleb128 0x19
 612 0082 11       		.uleb128 0x11
 613 0083 01       		.uleb128 0x1
 614 0084 12       		.uleb128 0x12
 615 0085 06       		.uleb128 0x6
 616 0086 40       		.uleb128 0x40
 617 0087 18       		.uleb128 0x18
 618 0088 9742     		.uleb128 0x2117
 619 008a 19       		.uleb128 0x19
 620 008b 01       		.uleb128 0x1
 621 008c 13       		.uleb128 0x13
ARM GAS  /tmp/cc9nFK9E.s 			page 12


 622 008d 00       		.byte	0
 623 008e 00       		.byte	0
 624 008f 0B       		.uleb128 0xb
 625 0090 34       		.uleb128 0x34
 626 0091 00       		.byte	0
 627 0092 03       		.uleb128 0x3
 628 0093 0E       		.uleb128 0xe
 629 0094 3A       		.uleb128 0x3a
 630 0095 0B       		.uleb128 0xb
 631 0096 3B       		.uleb128 0x3b
 632 0097 0B       		.uleb128 0xb
 633 0098 49       		.uleb128 0x49
 634 0099 13       		.uleb128 0x13
 635 009a 3F       		.uleb128 0x3f
 636 009b 19       		.uleb128 0x19
 637 009c 3C       		.uleb128 0x3c
 638 009d 19       		.uleb128 0x19
 639 009e 00       		.byte	0
 640 009f 00       		.byte	0
 641 00a0 0C       		.uleb128 0xc
 642 00a1 01       		.uleb128 0x1
 643 00a2 01       		.byte	0x1
 644 00a3 49       		.uleb128 0x49
 645 00a4 13       		.uleb128 0x13
 646 00a5 01       		.uleb128 0x1
 647 00a6 13       		.uleb128 0x13
 648 00a7 00       		.byte	0
 649 00a8 00       		.byte	0
 650 00a9 0D       		.uleb128 0xd
 651 00aa 21       		.uleb128 0x21
 652 00ab 00       		.byte	0
 653 00ac 00       		.byte	0
 654 00ad 00       		.byte	0
 655 00ae 0E       		.uleb128 0xe
 656 00af 2E       		.uleb128 0x2e
 657 00b0 01       		.byte	0x1
 658 00b1 3F       		.uleb128 0x3f
 659 00b2 19       		.uleb128 0x19
 660 00b3 03       		.uleb128 0x3
 661 00b4 0E       		.uleb128 0xe
 662 00b5 3A       		.uleb128 0x3a
 663 00b6 0B       		.uleb128 0xb
 664 00b7 3B       		.uleb128 0x3b
 665 00b8 0B       		.uleb128 0xb
 666 00b9 27       		.uleb128 0x27
 667 00ba 19       		.uleb128 0x19
 668 00bb 49       		.uleb128 0x49
 669 00bc 13       		.uleb128 0x13
 670 00bd 11       		.uleb128 0x11
 671 00be 01       		.uleb128 0x1
 672 00bf 12       		.uleb128 0x12
 673 00c0 06       		.uleb128 0x6
 674 00c1 40       		.uleb128 0x40
 675 00c2 18       		.uleb128 0x18
 676 00c3 9742     		.uleb128 0x2117
 677 00c5 19       		.uleb128 0x19
 678 00c6 01       		.uleb128 0x1
ARM GAS  /tmp/cc9nFK9E.s 			page 13


 679 00c7 13       		.uleb128 0x13
 680 00c8 00       		.byte	0
 681 00c9 00       		.byte	0
 682 00ca 0F       		.uleb128 0xf
 683 00cb 05       		.uleb128 0x5
 684 00cc 00       		.byte	0
 685 00cd 03       		.uleb128 0x3
 686 00ce 0E       		.uleb128 0xe
 687 00cf 3A       		.uleb128 0x3a
 688 00d0 0B       		.uleb128 0xb
 689 00d1 3B       		.uleb128 0x3b
 690 00d2 0B       		.uleb128 0xb
 691 00d3 49       		.uleb128 0x49
 692 00d4 13       		.uleb128 0x13
 693 00d5 02       		.uleb128 0x2
 694 00d6 17       		.uleb128 0x17
 695 00d7 00       		.byte	0
 696 00d8 00       		.byte	0
 697 00d9 10       		.uleb128 0x10
 698 00da 0B       		.uleb128 0xb
 699 00db 01       		.byte	0x1
 700 00dc 11       		.uleb128 0x11
 701 00dd 01       		.uleb128 0x1
 702 00de 12       		.uleb128 0x12
 703 00df 06       		.uleb128 0x6
 704 00e0 01       		.uleb128 0x1
 705 00e1 13       		.uleb128 0x13
 706 00e2 00       		.byte	0
 707 00e3 00       		.byte	0
 708 00e4 11       		.uleb128 0x11
 709 00e5 34       		.uleb128 0x34
 710 00e6 00       		.byte	0
 711 00e7 03       		.uleb128 0x3
 712 00e8 08       		.uleb128 0x8
 713 00e9 3A       		.uleb128 0x3a
 714 00ea 0B       		.uleb128 0xb
 715 00eb 3B       		.uleb128 0x3b
 716 00ec 0B       		.uleb128 0xb
 717 00ed 49       		.uleb128 0x49
 718 00ee 13       		.uleb128 0x13
 719 00ef 02       		.uleb128 0x2
 720 00f0 18       		.uleb128 0x18
 721 00f1 00       		.byte	0
 722 00f2 00       		.byte	0
 723 00f3 12       		.uleb128 0x12
 724 00f4 1D       		.uleb128 0x1d
 725 00f5 01       		.byte	0x1
 726 00f6 31       		.uleb128 0x31
 727 00f7 13       		.uleb128 0x13
 728 00f8 11       		.uleb128 0x11
 729 00f9 01       		.uleb128 0x1
 730 00fa 12       		.uleb128 0x12
 731 00fb 06       		.uleb128 0x6
 732 00fc 58       		.uleb128 0x58
 733 00fd 0B       		.uleb128 0xb
 734 00fe 59       		.uleb128 0x59
 735 00ff 0B       		.uleb128 0xb
ARM GAS  /tmp/cc9nFK9E.s 			page 14


 736 0100 01       		.uleb128 0x1
 737 0101 13       		.uleb128 0x13
 738 0102 00       		.byte	0
 739 0103 00       		.byte	0
 740 0104 13       		.uleb128 0x13
 741 0105 05       		.uleb128 0x5
 742 0106 00       		.byte	0
 743 0107 31       		.uleb128 0x31
 744 0108 13       		.uleb128 0x13
 745 0109 02       		.uleb128 0x2
 746 010a 17       		.uleb128 0x17
 747 010b 00       		.byte	0
 748 010c 00       		.byte	0
 749 010d 14       		.uleb128 0x14
 750 010e 0B       		.uleb128 0xb
 751 010f 01       		.byte	0x1
 752 0110 11       		.uleb128 0x11
 753 0111 01       		.uleb128 0x1
 754 0112 12       		.uleb128 0x12
 755 0113 06       		.uleb128 0x6
 756 0114 00       		.byte	0
 757 0115 00       		.byte	0
 758 0116 15       		.uleb128 0x15
 759 0117 34       		.uleb128 0x34
 760 0118 00       		.byte	0
 761 0119 31       		.uleb128 0x31
 762 011a 13       		.uleb128 0x13
 763 011b 02       		.uleb128 0x2
 764 011c 17       		.uleb128 0x17
 765 011d 00       		.byte	0
 766 011e 00       		.byte	0
 767 011f 16       		.uleb128 0x16
 768 0120 2E       		.uleb128 0x2e
 769 0121 01       		.byte	0x1
 770 0122 31       		.uleb128 0x31
 771 0123 13       		.uleb128 0x13
 772 0124 11       		.uleb128 0x11
 773 0125 01       		.uleb128 0x1
 774 0126 12       		.uleb128 0x12
 775 0127 06       		.uleb128 0x6
 776 0128 40       		.uleb128 0x40
 777 0129 18       		.uleb128 0x18
 778 012a 9742     		.uleb128 0x2117
 779 012c 19       		.uleb128 0x19
 780 012d 01       		.uleb128 0x1
 781 012e 13       		.uleb128 0x13
 782 012f 00       		.byte	0
 783 0130 00       		.byte	0
 784 0131 17       		.uleb128 0x17
 785 0132 34       		.uleb128 0x34
 786 0133 00       		.byte	0
 787 0134 31       		.uleb128 0x31
 788 0135 13       		.uleb128 0x13
 789 0136 02       		.uleb128 0x2
 790 0137 18       		.uleb128 0x18
 791 0138 00       		.byte	0
 792 0139 00       		.byte	0
ARM GAS  /tmp/cc9nFK9E.s 			page 15


 793 013a 18       		.uleb128 0x18
 794 013b 2E       		.uleb128 0x2e
 795 013c 00       		.byte	0
 796 013d 3F       		.uleb128 0x3f
 797 013e 19       		.uleb128 0x19
 798 013f 03       		.uleb128 0x3
 799 0140 0E       		.uleb128 0xe
 800 0141 3A       		.uleb128 0x3a
 801 0142 0B       		.uleb128 0xb
 802 0143 3B       		.uleb128 0x3b
 803 0144 0B       		.uleb128 0xb
 804 0145 27       		.uleb128 0x27
 805 0146 19       		.uleb128 0x19
 806 0147 49       		.uleb128 0x49
 807 0148 13       		.uleb128 0x13
 808 0149 11       		.uleb128 0x11
 809 014a 01       		.uleb128 0x1
 810 014b 12       		.uleb128 0x12
 811 014c 06       		.uleb128 0x6
 812 014d 40       		.uleb128 0x40
 813 014e 18       		.uleb128 0x18
 814 014f 9742     		.uleb128 0x2117
 815 0151 19       		.uleb128 0x19
 816 0152 00       		.byte	0
 817 0153 00       		.byte	0
 818 0154 19       		.uleb128 0x19
 819 0155 34       		.uleb128 0x34
 820 0156 00       		.byte	0
 821 0157 03       		.uleb128 0x3
 822 0158 0E       		.uleb128 0xe
 823 0159 3A       		.uleb128 0x3a
 824 015a 0B       		.uleb128 0xb
 825 015b 3B       		.uleb128 0x3b
 826 015c 0B       		.uleb128 0xb
 827 015d 49       		.uleb128 0x49
 828 015e 13       		.uleb128 0x13
 829 015f 02       		.uleb128 0x2
 830 0160 18       		.uleb128 0x18
 831 0161 00       		.byte	0
 832 0162 00       		.byte	0
 833 0163 00       		.byte	0
 834              		.section	.debug_loc,"",%progbits
 835              	.Ldebug_loc0:
 836              	.LLST0:
 837 0000 00000000 		.4byte	.LVL0
 838 0004 10000000 		.4byte	.LVL2
 839 0008 0100     		.2byte	0x1
 840 000a 50       		.byte	0x50
 841 000b 10000000 		.4byte	.LVL2
 842 000f 14000000 		.4byte	.LVL3
 843 0013 0300     		.2byte	0x3
 844 0015 70       		.byte	0x70
 845 0016 79       		.sleb128 -7
 846 0017 9F       		.byte	0x9f
 847 0018 14000000 		.4byte	.LVL3
 848 001c 34000000 		.4byte	.LFE8
 849 0020 0400     		.2byte	0x4
ARM GAS  /tmp/cc9nFK9E.s 			page 16


 850 0022 F3       		.byte	0xf3
 851 0023 01       		.uleb128 0x1
 852 0024 50       		.byte	0x50
 853 0025 9F       		.byte	0x9f
 854 0026 00000000 		.4byte	0
 855 002a 00000000 		.4byte	0
 856              	.LLST1:
 857 002e 06000000 		.4byte	.LVL1
 858 0032 10000000 		.4byte	.LVL2
 859 0036 0100     		.2byte	0x1
 860 0038 50       		.byte	0x50
 861 0039 10000000 		.4byte	.LVL2
 862 003d 14000000 		.4byte	.LVL3
 863 0041 0300     		.2byte	0x3
 864 0043 70       		.byte	0x70
 865 0044 79       		.sleb128 -7
 866 0045 9F       		.byte	0x9f
 867 0046 14000000 		.4byte	.LVL3
 868 004a 1C000000 		.4byte	.LVL5
 869 004e 0100     		.2byte	0x1
 870 0050 50       		.byte	0x50
 871 0051 1C000000 		.4byte	.LVL5
 872 0055 34000000 		.4byte	.LFE8
 873 0059 0900     		.2byte	0x9
 874 005b F3       		.byte	0xf3
 875 005c 01       		.uleb128 0x1
 876 005d 50       		.byte	0x50
 877 005e 23       		.byte	0x23
 878 005f 07       		.uleb128 0x7
 879 0060 09       		.byte	0x9
 880 0061 F8       		.byte	0xf8
 881 0062 1A       		.byte	0x1a
 882 0063 9F       		.byte	0x9f
 883 0064 00000000 		.4byte	0
 884 0068 00000000 		.4byte	0
 885              	.LLST2:
 886 006c 18000000 		.4byte	.LVL4
 887 0070 24000000 		.4byte	.LVL6
 888 0074 0100     		.2byte	0x1
 889 0076 53       		.byte	0x53
 890 0077 24000000 		.4byte	.LVL6
 891 007b 34000000 		.4byte	.LFE8
 892 007f 0500     		.2byte	0x5
 893 0081 03       		.byte	0x3
 894 0082 00000000 		.4byte	nextmem
 895 0086 00000000 		.4byte	0
 896 008a 00000000 		.4byte	0
 897              	.LLST3:
 898 008e 00000000 		.4byte	.LVL7
 899 0092 0A000000 		.4byte	.LVL8
 900 0096 0100     		.2byte	0x1
 901 0098 50       		.byte	0x50
 902 0099 0A000000 		.4byte	.LVL8
 903 009d 0E000000 		.4byte	.LVL9
 904 00a1 0300     		.2byte	0x3
 905 00a3 70       		.byte	0x70
 906 00a4 79       		.sleb128 -7
ARM GAS  /tmp/cc9nFK9E.s 			page 17


 907 00a5 9F       		.byte	0x9f
 908 00a6 0E000000 		.4byte	.LVL9
 909 00aa 16000000 		.4byte	.LVL11
 910 00ae 0100     		.2byte	0x1
 911 00b0 50       		.byte	0x50
 912 00b1 16000000 		.4byte	.LVL11
 913 00b5 28000000 		.4byte	.LFE9
 914 00b9 0900     		.2byte	0x9
 915 00bb F3       		.byte	0xf3
 916 00bc 01       		.uleb128 0x1
 917 00bd 50       		.byte	0x50
 918 00be 23       		.byte	0x23
 919 00bf 07       		.uleb128 0x7
 920 00c0 09       		.byte	0x9
 921 00c1 F8       		.byte	0xf8
 922 00c2 1A       		.byte	0x1a
 923 00c3 9F       		.byte	0x9f
 924 00c4 00000000 		.4byte	0
 925 00c8 00000000 		.4byte	0
 926              		.section	.debug_aranges,"",%progbits
 927 0000 34000000 		.4byte	0x34
 928 0004 0200     		.2byte	0x2
 929 0006 00000000 		.4byte	.Ldebug_info0
 930 000a 04       		.byte	0x4
 931 000b 00       		.byte	0
 932 000c 0000     		.2byte	0
 933 000e 0000     		.2byte	0
 934 0010 00000000 		.4byte	.LFB7
 935 0014 28000000 		.4byte	.LFE7-.LFB7
 936 0018 00000000 		.4byte	.LFB8
 937 001c 34000000 		.4byte	.LFE8-.LFB8
 938 0020 00000000 		.4byte	.LFB9
 939 0024 28000000 		.4byte	.LFE9-.LFB9
 940 0028 00000000 		.4byte	.LFB10
 941 002c 14000000 		.4byte	.LFE10-.LFB10
 942 0030 00000000 		.4byte	0
 943 0034 00000000 		.4byte	0
 944              		.section	.debug_ranges,"",%progbits
 945              	.Ldebug_ranges0:
 946 0000 00000000 		.4byte	.LFB7
 947 0004 28000000 		.4byte	.LFE7
 948 0008 00000000 		.4byte	.LFB8
 949 000c 34000000 		.4byte	.LFE8
 950 0010 00000000 		.4byte	.LFB9
 951 0014 28000000 		.4byte	.LFE9
 952 0018 00000000 		.4byte	.LFB10
 953 001c 14000000 		.4byte	.LFE10
 954 0020 00000000 		.4byte	0
 955 0024 00000000 		.4byte	0
 956              		.section	.debug_line,"",%progbits
 957              	.Ldebug_line0:
 958 0000 41010000 		.section	.debug_str,"MS",%progbits,1
 958      0200DD00 
 958      00000201 
 958      FB0E0D00 
 958      01010101 
 959              	.LASF20:
ARM GAS  /tmp/cc9nFK9E.s 			page 18


 960 0000 656E646D 		.ascii	"endmem\000"
 960      656D00
 961              	.LASF3:
 962 0007 5F5F7569 		.ascii	"__uint8_t\000"
 962      6E74385F 
 962      7400
 963              	.LASF2:
 964 0011 73697A65 		.ascii	"size_t\000"
 964      5F7400
 965              	.LASF21:
 966 0018 474E5520 		.ascii	"GNU C 4.8.4 20140526 (release) [ARM/embedded-4_8-br"
 966      4320342E 
 966      382E3420 
 966      32303134 
 966      30353236 
 967 004b 616E6368 		.ascii	"anch revision 211358] -mcpu=cortex-m4 -mno-thumb-in"
 967      20726576 
 967      6973696F 
 967      6E203231 
 967      31333538 
 968 007e 74657277 		.ascii	"terwork -mthumb -ggdb -O2 -std=gnu99 -fomit-frame-p"
 968      6F726B20 
 968      2D6D7468 
 968      756D6220 
 968      2D676764 
 969 00b1 6F696E74 		.ascii	"ointer -falign-functions=16 -ffunction-sections -fd"
 969      6572202D 
 969      66616C69 
 969      676E2D66 
 969      756E6374 
 970 00e4 6174612D 		.ascii	"ata-sections -fno-common\000"
 970      73656374 
 970      696F6E73 
 970      202D666E 
 970      6F2D636F 
 971              	.LASF19:
 972 00fd 6E657874 		.ascii	"nextmem\000"
 972      6D656D00 
 973              	.LASF24:
 974 0105 6368436F 		.ascii	"chCoreAllocI\000"
 974      7265416C 
 974      6C6F6349 
 974      00
 975              	.LASF25:
 976 0112 73697A65 		.ascii	"size\000"
 976      00
 977              	.LASF9:
 978 0117 6C6F6E67 		.ascii	"long unsigned int\000"
 978      20756E73 
 978      69676E65 
 978      6420696E 
 978      7400
 979              	.LASF28:
 980 0129 6368436F 		.ascii	"chCoreStatus\000"
 980      72655374 
 980      61747573 
 980      00
ARM GAS  /tmp/cc9nFK9E.s 			page 19


 981              	.LASF6:
 982 0136 73686F72 		.ascii	"short unsigned int\000"
 982      7420756E 
 982      7369676E 
 982      65642069 
 982      6E7400
 983              	.LASF13:
 984 0149 75696E74 		.ascii	"uint32_t\000"
 984      33325F74 
 984      00
 985              	.LASF4:
 986 0152 756E7369 		.ascii	"unsigned char\000"
 986      676E6564 
 986      20636861 
 986      7200
 987              	.LASF8:
 988 0160 5F5F7569 		.ascii	"__uint32_t\000"
 988      6E743332 
 988      5F7400
 989              	.LASF26:
 990 016b 5F636F72 		.ascii	"_core_init\000"
 990      655F696E 
 990      697400
 991              	.LASF0:
 992 0176 756E7369 		.ascii	"unsigned int\000"
 992      676E6564 
 992      20696E74 
 992      00
 993              	.LASF11:
 994 0183 6C6F6E67 		.ascii	"long long unsigned int\000"
 994      206C6F6E 
 994      6720756E 
 994      7369676E 
 994      65642069 
 995              	.LASF12:
 996 019a 75696E74 		.ascii	"uint8_t\000"
 996      385F7400 
 997              	.LASF17:
 998 01a2 5F5F6865 		.ascii	"__heap_base__\000"
 998      61705F62 
 998      6173655F 
 998      5F00
 999              	.LASF22:
 1000 01b0 2E2E2F43 		.ascii	"../ChibiOS_2.6.7_minified/os/kernel/src/chmemcore.c"
 1000      68696269 
 1000      4F535F32 
 1000      2E362E37 
 1000      5F6D696E 
 1001 01e3 00       		.ascii	"\000"
 1002              	.LASF15:
 1003 01e4 73697A65 		.ascii	"sizetype\000"
 1003      74797065 
 1003      00
 1004              	.LASF10:
 1005 01ed 6C6F6E67 		.ascii	"long long int\000"
 1005      206C6F6E 
 1005      6720696E 
ARM GAS  /tmp/cc9nFK9E.s 			page 20


 1005      7400
 1006              	.LASF16:
 1007 01fb 63686172 		.ascii	"char\000"
 1007      00
 1008              	.LASF18:
 1009 0200 5F5F6865 		.ascii	"__heap_end__\000"
 1009      61705F65 
 1009      6E645F5F 
 1009      00
 1010              	.LASF23:
 1011 020d 2F686F6D 		.ascii	"/home/terence/el6483-cyh316/6-rtos/rtos-shell\000"
 1011      652F7465 
 1011      72656E63 
 1011      652F656C 
 1011      36343833 
 1012              	.LASF5:
 1013 023b 73686F72 		.ascii	"short int\000"
 1013      7420696E 
 1013      7400
 1014              	.LASF27:
 1015 0245 6368436F 		.ascii	"chCoreAlloc\000"
 1015      7265416C 
 1015      6C6F6300 
 1016              	.LASF7:
 1017 0251 6C6F6E67 		.ascii	"long int\000"
 1017      20696E74 
 1017      00
 1018              	.LASF1:
 1019 025a 7369676E 		.ascii	"signed char\000"
 1019      65642063 
 1019      68617200 
 1020              	.LASF14:
 1021 0266 5F426F6F 		.ascii	"_Bool\000"
 1021      6C00
 1022              		.ident	"GCC: (GNU Tools for ARM Embedded Processors) 4.8.4 20140526 (release) [ARM/embedded-4_8-br
ARM GAS  /tmp/cc9nFK9E.s 			page 21


DEFINED SYMBOLS
                            *ABS*:0000000000000000 chmemcore.c
     /tmp/cc9nFK9E.s:19     .text._core_init:0000000000000000 $t
     /tmp/cc9nFK9E.s:25     .text._core_init:0000000000000000 _core_init
     /tmp/cc9nFK9E.s:53     .text._core_init:0000000000000018 $d
     /tmp/cc9nFK9E.s:61     .text.chCoreAlloc:0000000000000000 $t
     /tmp/cc9nFK9E.s:67     .text.chCoreAlloc:0000000000000000 chCoreAlloc
     /tmp/cc9nFK9E.s:125    .text.chCoreAlloc:000000000000002c $d
     /tmp/cc9nFK9E.s:131    .text.chCoreAllocI:0000000000000000 $t
     /tmp/cc9nFK9E.s:137    .text.chCoreAllocI:0000000000000000 chCoreAllocI
     /tmp/cc9nFK9E.s:173    .text.chCoreAllocI:0000000000000020 $d
     /tmp/cc9nFK9E.s:179    .text.chCoreStatus:0000000000000000 $t
     /tmp/cc9nFK9E.s:185    .text.chCoreStatus:0000000000000000 chCoreStatus
     /tmp/cc9nFK9E.s:203    .text.chCoreStatus:000000000000000c $d
     /tmp/cc9nFK9E.s:209    .bss.endmem:0000000000000000 $d
     /tmp/cc9nFK9E.s:213    .bss.endmem:0000000000000000 endmem
     /tmp/cc9nFK9E.s:216    .bss.nextmem:0000000000000000 $d
     /tmp/cc9nFK9E.s:220    .bss.nextmem:0000000000000000 nextmem
                     .debug_frame:0000000000000010 $d
     /tmp/cc9nFK9E.s:60     .text._core_init:0000000000000028 $t
     /tmp/cc9nFK9E.s:130    .text.chCoreAlloc:0000000000000034 $t
     /tmp/cc9nFK9E.s:178    .text.chCoreAllocI:0000000000000028 $t
     /tmp/cc9nFK9E.s:208    .text.chCoreStatus:0000000000000014 $t

UNDEFINED SYMBOLS
__heap_base__
__heap_end__
